﻿m_EmotionID,m_EffectID,m_DefaultPosition,m_Loop
なし,none,1,0
怒り,ef_ADV_emo_angry,2,0
怒り_ループ,ef_ADV_emo_angry,2,1
プンスカ煙,ef_ADV_emo_angry_smoke,1,0
プンスカ煙_ループ,ef_ADV_emo_angry_smoke,1,1
オーラ,ef_ADV_emo_aura,4,0
オーラ_ループ,ef_ADV_emo_aura,4,1
びっくり,ef_ADV_emo_exclamation,3,0
びっくり_ループ,ef_ADV_emo_exclamation,3,1
ぐずぐず,ef_ADV_emo_fall,3,0
ぐずぐず_ループ,ef_ADV_emo_fall,3,1
喜び,ef_ADV_emo_fun,3,0
喜び_ループ,ef_ADV_emo_fun,3,1
ハート,ef_ADV_emo_heart,3,0
ハート_ループ,ef_ADV_emo_heart,3,1
焦り,ef_ADV_emo_impatient,3,0
焦り_ループ,ef_ADV_emo_impatient,3,1
音符,ef_ADV_emo_note,3,0
音符_ループ,ef_ADV_emo_note,3,1
はてな,ef_ADV_emo_question,3,0
はてな_ループ,ef_ADV_emo_question,3,1
気づく,ef_ADV_emo_react,3,0
気づく_ループ,ef_ADV_emo_react,3,1
がーん,ef_ADV_emo_shock,3,0
がーん_ループ,ef_ADV_emo_shock,3,1
眠り,ef_ADV_emo_sleep,3,0
眠り_ループ,ef_ADV_emo_sleep,3,1
驚き,ef_ADV_emo_surprise,3,0
驚き_ループ,ef_ADV_emo_surprise,3,1
たらり汗,ef_ADV_emo_sweat,3,0
たらり汗_ループ,ef_ADV_emo_sweat,3,1
オーラ2,ef_ADV_emo_aura_2,4,0
オーラ2_ループ,ef_ADV_emo_aura_2,4,1
ぽわぽわ,ef_ADV_powa_00,1,0
ぽわぽわ_ループ,ef_ADV_powa_00,1,1
