﻿m_ReferenceName,m_EnumID
通常,0
喜,1
怒,2
哀,3
楽,4
照,5
驚,6
固有1,7
固有2,8
固有3,9
固有4,10
固有5,11
固有6,12
固有7,13
固有8,14
固有9,15
固有10,16
固有11,17
固有12,18
固有13,19
エモ位置デフォルト,0
エモ位置顔,1
エモ位置左,2
エモ位置右,3
エモ位置足元,4
ランダム弱,0
ランダム中,1
ランダム強,2
横揺れ弱,3
横揺れ中,4
横揺れ強,5
縦揺れ弱,6
縦揺れ中,7
縦揺れ強,8
リニア,0
加速,1
減速,2
加速減速,3
加速(倍速),4
減速（倍速),5
加速減速（倍速),6
上段左,0
上段中,1
上段右,2
中段左,3
中段中,4
中段右,5
下段左,6
下段中,7
下段右,8
画面中央,0
画面上,1
画面下,2
キャラ中心,0
キャラ顔,1
キャラ足元,2
左,0
中左,1
中央,2
中右,3
右,4
左間3,5
左間2,6
左間1,7
右間1,8
右間2,9
右間3,10
左裾,0
右裾,1
