﻿m_ID,m_Datas
200100,"[{'m_Prob': 100, 'm_Args': [30, 0, 0, 0, 0, 0]}, {'m_Prob': 100, 'm_Args': [0, 30, 0, 0, 0, 0]}, {'m_Prob': 100, 'm_Args': [0, 0, 35, 0, 0, 0]}, {'m_Prob': 100, 'm_Args': [0, 0, 0, 35, 0, 0]}, {'m_Prob': 100, 'm_Args': [0, 0, 0, 0, 0.62, 0]}, {'m_Prob': 100, 'm_Args': [0, 0, 0, 0, 0, 200]}]"
170600,"[{'m_Prob': 100, 'm_Args': [-20, 0, 0, 0, 0, 0]}, {'m_Prob': 100, 'm_Args': [0, -20, 0, 0, 0, 0]}, {'m_Prob': 100, 'm_Args': [0, 0, -20, 0, 0, 0]}, {'m_Prob': 100, 'm_Args': [0, 0, 0, -20, 0, 0]}, {'m_Prob': 100, 'm_Args': [0, 0, 0, 0, 1.4, 0]}]"
1700,"[{'m_Prob': 100, 'm_Args': [0, 0, 20, 0, 0, 0]}, {'m_Prob': 100, 'm_Args': [0, 0, 29, 0, 0, 0]}, {'m_Prob': 100, 'm_Args': [0, 0, 35, 0, 0, 0]}, {'m_Prob': 100, 'm_Args': [0, 0, 0, 20, 0, 0]}, {'m_Prob': 100, 'm_Args': [0, 0, 0, 29, 0, 0]}, {'m_Prob': 100, 'm_Args': [0, 0, 0, 35, 0, 0]}]"
1701,"[{'m_Prob': 100, 'm_Args': [15, 0, 0, 0, 0, 0]}, {'m_Prob': 100, 'm_Args': [23, 0, 0, 0, 0, 0]}, {'m_Prob': 100, 'm_Args': [30, 0, 0, 0, 0, 0]}, {'m_Prob': 100, 'm_Args': [0, 15, 0, 0, 0, 0]}, {'m_Prob': 100, 'm_Args': [0, 23, 0, 0, 0, 0]}, {'m_Prob': 100, 'm_Args': [0, 30, 0, 0, 0, 0]}]"
1702,"[{'m_Prob': 100, 'm_Args': [30, 0, 0, 0, 0, 0]}, {'m_Prob': 100, 'm_Args': [0, 30, 0, 0, 0, 0]}, {'m_Prob': 100, 'm_Args': [0, 0, 0, 0, 0, 200]}]"
6700000,"[{'m_Prob': 100, 'm_Args': [-30, 0, 0, 0, 0, 0]}, {'m_Prob': 100, 'm_Args': [0, -30, 0, 0, 0, 0]}, {'m_Prob': 100, 'm_Args': [0, 0, -50, 0, 0, 0]}, {'m_Prob': 100, 'm_Args': [0, 0, 0, -50, 0, 0]}, {'m_Prob': 100, 'm_Args': [0, 0, 0, 0, 1.3, 0]}, {'m_Prob': 100, 'm_Args': [0, 0, 0, 0, 0, -20]}, {'m_Prob': 100, 'm_Args': [0, 0, 0, 0, 0, 0]}]"
5400000,"[{'m_Prob': 100, 'm_Args': [20, 0, 0, 0, 0, 0]}, {'m_Prob': 100, 'm_Args': [0, 0, 20, 0, 0, 0]}, {'m_Prob': 100, 'm_Args': [0, 0, 0, 0, 0, 50]}]"
6800000,"[{'m_Prob': 100, 'm_Args': [15, 0, 0, 0, 0, 0]}, {'m_Prob': 100, 'm_Args': [0, 0, 10, 0, 0, 0]}, {'m_Prob': 100, 'm_Args': [0, 0, 0, 10, 0, 0]}, {'m_Prob': 100, 'm_Args': [0, 0, 0, 0, 0.85, 0]}]"
6800001,"[{'m_Prob': 100, 'm_Args': [-10, 0, 0, 0, 0, 0]}, {'m_Prob': 100, 'm_Args': [0, -10, 0, 0, 0, 0]}, {'m_Prob': 100, 'm_Args': [0, 0, -10, 0, 0, 0]}, {'m_Prob': 100, 'm_Args': [0, 0, 0, 0, 1.18, 0]}]"
6800002,"[{'m_Prob': 100, 'm_Args': [15, 0, 0, 0, 0, 0]}, {'m_Prob': 100, 'm_Args': [0, 0, 10, 0, 0, 0]}, {'m_Prob': 100, 'm_Args': [0, 0, 0, 10, 0, 0]}, {'m_Prob': 100, 'm_Args': [0, 0, 0, 0, 0.85, 0]}]"
6800003,"[{'m_Prob': 100, 'm_Args': [-10, 0, 0, 0, 0, 0]}, {'m_Prob': 100, 'm_Args': [0, -10, 0, 0, 0, 0]}, {'m_Prob': 100, 'm_Args': [0, 0, -10, 0, 0, 0]}, {'m_Prob': 100, 'm_Args': [0, 0, 0, 0, 1.18, 0]}]"
2001214,"[{'m_Prob': 100, 'm_Args': [0, 16, 0, 0, 0, 0]}, {'m_Prob': 100, 'm_Args': [0, 23, 0, 0, 0, 0]}, {'m_Prob': 100, 'm_Args': [0, 30, 0, 0, 0, 0]}, {'m_Prob': 100, 'm_Args': [0, 40, 0, 0, 0, 0]}]"
170700,"[{'m_Prob': 20, 'm_Args': [0, 30, 0, 0, 0, 0]}, {'m_Prob': 30, 'm_Args': [0, 23, 0, 0, 0, 0]}, {'m_Prob': 50, 'm_Args': [0, 15, 0, 0, 0, 0]}]"
160601,"[{'m_Prob': 100, 'm_Args': [-20, 0, 0, 0, 0, 0]}, {'m_Prob': 100, 'm_Args': [0, -20, 0, 0, 0, 0]}, {'m_Prob': 100, 'm_Args': [0, 0, -20, 0, 0, 0]}, {'m_Prob': 100, 'm_Args': [0, 0, 0, -20, 0, 0]}, {'m_Prob': 100, 'm_Args': [0, 0, 0, 0, 1.4, 0]}]"
170000,"[{'m_Prob': 20, 'm_Args': [30, 0, 0, 0, 0, 0]}, {'m_Prob': 30, 'm_Args': [23, 0, 0, 0, 0, 0]}, {'m_Prob': 50, 'm_Args': [15, 0, 0, 0, 0, 0]}]"
170300,"[{'m_Prob': 20, 'm_Args': [0, 50, 0, 0, 0, 0]}, {'m_Prob': 30, 'm_Args': [0, 30, 0, 0, 0, 0]}, {'m_Prob': 50, 'm_Args': [0, 23, 0, 0, 0, 0]}]"
