﻿m_RoomLv,m_FloorID,m_Category,m_ObjID,m_PosX,m_PosY,m_Dir
1,0,12,1,0,0,Left
1,0,11,1,0,0,Left
1,0,10,1,0,0,Left
2,0,11,1028,0,0,Left
3,0,10,1019,0,0,Left
4,0,2,1011,8,8,Left
5,0,2,1013,5,8,Left
6,0,2,1012,2,8,Left
6,0,2,1012,8,2,Right
6,0,2,1012,8,0,Right
7,0,0,1053,0,5,Left
7,0,0,1053,5,6,Left
7,0,0,1053,3,2,Left
7,0,0,1053,1,3,Left
7,0,0,1053,7,5,Left
7,0,0,1053,6,3,Right
7,0,0,1053,8,5,Right
8,0,1,1012,3,7,Left
8,0,1,1012,4,8,Left
8,0,7,1007,4,11,Left
8,0,1,1012,2,7,Left
8,0,1,1012,0,6,Right
9,0,0,1014,4,0,Left
10,0,0,1013,3,5,Left
1,1,3,2,1,2,Right
1,1,3,2,1,5,Right
1,1,3,2,5,1,Right
1,1,3,2,5,7,Right
1,1,3,2,5,4,Right
11,1,3,1016,1,2,Right
11,1,3,1016,1,5,Right
11,1,3,1016,5,1,Right
11,1,3,1016,5,7,Right
11,1,3,1016,5,4,Right
