﻿m_RoomLv,m_FloorID,m_Category,m_ObjID,m_PosX,m_PosY,m_Dir
1,0,11,1,0,0,Left
1,0,10,1,0,0,Left
1,0,12,1,0,0,Left
2,0,11,1035,0,0,Left
3,0,10,1001,0,0,Left
4,0,1,1041,2,3,Left
4,0,8,1005,2,5,Left
4,0,8,1001,0,7,Left
4,0,1,1005,5,4,Right
5,0,0,1012,5,0,Left
5,0,2,1001,8,6,Right
5,0,0,1003,2,5,Left
6,0,4,1003,3,8,Left
6,0,4,1004,5,3,Left
7,0,4,1013,8,2,Right
8,0,5,1001,8,1,Left
8,0,2,1004,8,4,Right
9,0,6,1033,8,8,Right
10,0,4,1021,1,0,Right
11,0,7,1060,7,11,Left
11,0,6,1012,3,0,Right
11,0,6,1012,0,3,Left
1,1,3,2,1,2,Right
1,1,3,2,1,5,Right
1,1,3,2,5,1,Right
1,1,3,2,5,7,Right
1,1,3,2,5,4,Right
