﻿m_RoomLv,m_FloorID,m_Category,m_ObjID,m_PosX,m_PosY,m_Dir
1,0,12,1,0,0,Left
1,0,11,1,0,0,Left
1,0,10,1,0,0,Left
2,0,10,1011,0,0,Left
3,0,11,1014,0,0,Left
4,0,2,1031,8,4,Right
4,0,0,1027,0,0,Right
5,0,5,1051,4,6,Left
5,0,5,1052,7,6,Left
5,0,5,1053,1,5,Left
5,0,4,1019,8,5,Right
5,0,4,1019,0,6,Left
5,0,4,1019,3,6,Left
6,0,1,1042,5,0,Right
7,0,5,1050,4,4,Left
7,0,5,1054,6,4,Left
8,0,2,1032,8,7,Right
9,0,7,1019,7,10,Left
9,0,7,1019,8,10,Left
9,0,7,1019,10,8,Right
9,0,6,1011,8,3,Left
9,0,7,1019,10,6,Right
9,0,7,1019,10,2,Right
10,0,12,1014,0,0,Left
11,0,4,1024,4,3,Left
11,0,4,1024,6,3,Left
11,0,4,1024,1,4,Right
1,1,3,2,5,7,Right
1,1,3,2,5,4,Right
1,1,3,2,5,1,Right
1,1,3,2,1,2,Right
1,1,3,2,1,5,Right
