﻿m_RoomLv,m_FloorID,m_Category,m_ObjID,m_PosX,m_PosY,m_Dir
1,0,12,1,0,0,Left
1,0,11,1,0,0,Left
1,0,10,1,0,0,Left
2,0,0,1057,1,2,Left
2,0,0,1057,8,4,Left
2,0,0,1057,7,2,Left
2,0,0,1057,7,6,Left
2,0,0,1057,1,6,Left
2,0,0,1057,0,4,Left
3,0,0,1013,0,6,Left
3,0,0,1013,1,4,Left
3,0,0,1013,0,2,Left
3,0,0,1013,8,6,Left
3,0,0,1013,7,4,Left
3,0,0,1013,8,2,Left
4,0,8,1004,7,1,Left
4,0,8,1004,7,3,Left
4,0,8,1004,7,5,Left
4,0,8,1004,0,5,Left
4,0,8,1004,0,3,Left
4,0,8,1004,0,1,Left
6,0,5,1022,4,8,Left
7,0,6,1012,8,0,Right
7,0,5,1002,7,8,Left
7,0,5,1002,5,8,Left
8,0,4,1018,3,4,Left
8,0,8,1004,4,3,Left
8,0,1,1005,3,5,Left
8,0,0,1005,4,3,Left
9,0,5,1035,6,1,Left
9,0,5,1034,2,1,Left
10,0,11,1032,0,0,Left
11,0,10,1022,0,0,Left
1,1,3,2,1,2,Right
1,1,3,2,1,5,Right
1,1,3,2,5,1,Right
1,1,3,2,5,7,Right
1,1,3,2,5,4,Right
5,1,3,1017,1,2,Right
5,1,3,1017,1,5,Right
5,1,3,1017,5,1,Right
5,1,3,1017,5,7,Right
5,1,3,1017,5,4,Right
