﻿id,name,packageID,iconID,detail
304,★4なる 進化セット,304,304,"【お得なアイテムセット】
★4 関谷 なるの
進化に必要な素材が詰まったセット。"
504,★4ハナ 進化セット,504,504,"【お得なアイテムセット】
★4 ハナ・Ｎ・フォンテーンスタンドの
進化に必要な素材が詰まったセット。"
404,★4ヤヤ 進化セット,404,404,"【お得なアイテムセット】
★4 笹目 ヤヤの
進化に必要な素材が詰まったセット。"
1001,お得な召喚チケットセット,1001,1001,"【お得なアイテムセット】
「スタミナ回復アイテム　大」10個と
「召喚チケット」10枚のお得なセット。"
101400,★4かおす 進化セット,101400,101400,"【お得なアイテムセット】
★4 萌田 薫子の
進化に必要な素材が詰まったセット。"
101401,★4小夢 進化セット,101401,101401,"【お得なアイテムセット】
★4 恋塚 小夢の
進化に必要な素材が詰まったセット。"
101402,★4琉姫 進化セット,101402,101402,"【お得なアイテムセット】
★4 色川 琉姫の
進化に必要な素材が詰まったセット。"
101403,★4翼 進化セット,101403,101403,"【お得なアイテムセット】
★4 勝木 翼の
進化に必要な素材が詰まったセット。"
101500,★4アリス 進化セット,101500,101500,"【お得なアイテムセット】
★4 アリス・カータレットの
進化に必要な素材が詰まったセット。"
101501,★4はなこ 進化セット,101501,101501,"【お得なアイテムセット】
★4 花小泉 杏の
進化に必要な素材が詰まったセット。"
101502,お得な召喚チケットセット,101502,101502,"【お得なアイテムセット】
「スタミナ回復アイテム　大」10個と
「召喚チケット」10枚のお得なセット。"
101600,★4唯 進化セット,101600,101600,"【お得なアイテムセット】
★4 平沢 唯の
進化に必要な素材が詰まったセット。"
101601,★4澪 進化セット,101601,101601,"【お得なアイテムセット】
★4 秋山 澪の
進化に必要な素材が詰まったセット。"
101602,★4律 進化セット,101602,101602,"【お得なアイテムセット】
★4 田井中 律の
進化に必要な素材が詰まったセット。"
101603,★4紬 進化セット,101603,101603,"【お得なアイテムセット】
★4 琴吹 紬の
進化に必要な素材が詰まったセット。"
101604,★4梓 進化セット,101604,101604,"【お得なアイテムセット】
★4 中野 梓の
進化に必要な素材が詰まったセット。"
101700,★4栄依子【水着】 進化セット,101700,101700,"【お得なアイテムセット】
★4 栄依子【水着】の
進化に必要な素材が詰まったセット。"
101701,★4カレン【水着】 進化セット,101701,101701,"【お得なアイテムセット】
★4 カレン【水着】の
進化に必要な素材が詰まったセット。"
101702,★4トオル【水着】 進化セット,101702,101702,"【お得なアイテムセット】
★4 トオル【水着】の
進化に必要な素材が詰まったセット。"
101703,お得な召喚チケットセット,101703,101703,"【お得なアイテムセット】
「スタミナ回復アイテム　大」10個と
「召喚チケット」10枚のお得なセット。"
101800,★4やすな【水着】 進化セット,101800,101800,"【お得なアイテムセット】
★4 やすな【水着】の
進化に必要な素材が詰まったセット。"
101801,★4裕美音【水着】 進化セット,101801,101801,"【お得なアイテムセット】
★4 裕美音【水着】の
進化に必要な素材が詰まったセット。"
101802,★4コトネ【水着】 進化セット,101802,101802,"【お得なアイテムセット】
★4 コトネ【水着】の
進化に必要な素材が詰まったセット。"
102000,★4遥 進化セット,102000,102000,"【お得なアイテムセット】
★4 大空 遥の
進化に必要な素材が詰まったセット。"
102001,★4かなた 進化セット,102001,102001,"【お得なアイテムセット】
★4 比嘉 かなたの
進化に必要な素材が詰まったセット。"
102002,★4紅愛 進化セット,102002,102002,"【お得なアイテムセット】
★4 トーマス・紅愛の
進化に必要な素材が詰まったセット。"
102003,★4恵美理 進化セット,102003,102003,"【お得なアイテムセット】
★4 トーマス・恵美理の
進化に必要な素材が詰まったセット。"
102004,お得な召喚チケットセット,102004,102004,"【お得なアイテムセット】
「スタミナ回復アイテム　大」10個と
「召喚チケット」10枚のお得なセット。"
102100,★4ほたる 進化セット,102100,102100,"【お得なアイテムセット】
★4 星川 ほたるの
進化に必要な素材が詰まったセット。"
102101,★4佳 進化セット,102101,102101,"【お得なアイテムセット】
★4 岡野 佳の
進化に必要な素材が詰まったセット。"
102200,★4憂 進化セット,102200,102200,"【お得なアイテムセット】
★4 平沢 憂の
進化に必要な素材が詰まったセット。"
102201,お得な召喚チケットセット,102201,102201,"【お得なアイテムセット】
「スタミナ回復アイテム　大」10個と
「召喚チケット」10枚のお得なセット。"
102300,★4ひでり 進化セット,102300,102300,"【お得なアイテムセット】
★4 神崎 ひでりの
進化に必要な素材が詰まったセット。"
102301,★4愛香 進化セット,102301,102301,"【お得なアイテムセット】
★4 桜ノ宮 愛香の
進化に必要な素材が詰まったセット。"
102302,★4澄 進化セット,102302,102302,"【お得なアイテムセット】
★4 乙川 澄の
進化に必要な素材が詰まったセット。"
102400,★4ヒバリ 進化セット,102400,102400,"【お得なアイテムセット】
★4 雲雀丘 瑠璃の
進化に必要な素材が詰まったセット。"
102401,★4ぼたん 進化セット,102401,102401,"【お得なアイテムセット】
★4 久米川 牡丹の
進化に必要な素材が詰まったセット。"
102402,★4恵那 進化セット,102402,102402,"【お得なアイテムセット】
★4 斉藤 恵那の
進化に必要な素材が詰まったセット。"
102403,お得な召喚チケットセット,102403,102403,"【お得なアイテムセット】
「スタミナ回復アイテム　大」10個と
「召喚チケット」10枚のお得なセット。"
102500,★4チノ 進化セット,102500,102500,"【お得なアイテムセット】
★4 チノの
進化に必要な素材が詰まったセット。"
102501,★4ココア 進化セット,102501,102501,"【お得なアイテムセット】
★4 ココアの
進化に必要な素材が詰まったセット。"
102600,★4こはね 進化セット,102600,102600,"【お得なアイテムセット】
★4 鳩谷 こはねの
進化に必要な素材が詰まったセット。"
102601,★4ひづめ 進化セット,102601,102601,"【お得なアイテムセット】
★4 有馬 ひづめの
進化に必要な素材が詰まったセット。"
102602,★4宇希 進化セット,102602,102602,"【お得なアイテムセット】
★4 猿渡 宇希の
進化に必要な素材が詰まったセット。"
102603,お得な召喚チケットセット,102603,102603,"【お得なアイテムセット】
「スタミナ回復アイテム　大」10個と
「召喚チケット」10枚のお得なセット。"
102700,★4琉姫【クリスマス】 進化セット,102700,102700,"【お得なアイテムセット】
★4 琉姫【クリスマス】の
進化に必要な素材が詰まったセット。"
102900,★4ゆずこ【お正月】 進化セット,102900,102900,"【お得なアイテムセット】
★4 ゆずこ【お正月】の
進化に必要な素材が詰まったセット。"
102901,お得な召喚チケットセット,102901,102901,"【お得なアイテムセット】
「スタミナ回復アイテム　大」10個と
「召喚チケット」10枚のお得なセット。"
102902,2019年福袋アイテムセット,102902,102902,"【お得なアイテムセット】
お正月限定のお得な福袋！
召喚やクエストがいっぱい遊べるオススメセット！"
103000,★4リン 進化セット,103000,103000,"【お得なアイテムセット】
★4 リンの
進化に必要な素材が詰まったセット。"
103001,★4花和 進化セット,103001,103001,"【お得なアイテムセット】
★4 花和の
進化に必要な素材が詰まったセット。"
103002,★4虎徹 進化セット,103002,103002,"【お得なアイテムセット】
★4 虎徹の
進化に必要な素材が詰まったセット。"
200000,★4水葉 進化セット,200000,200000,"【お得なアイテムセット】
★4 水葉の
進化に必要な素材が詰まったセット。"
103100,★4律【バレンタイン】 進化セット,103100,103100,"【お得なアイテムセット】
★4 律【バレンタイン】の
進化に必要な素材が詰まったセット。"
103101,お得な召喚チケットセット,103101,103101,"【お得なアイテムセット】
「スタミナ回復アイテム　大」10個と
「召喚チケット」10枚のお得なセット。"
103200,★4リゼ 進化セット,103200,103200,"【お得なアイテムセット】
★4 リゼの
進化に必要な素材が詰まったセット。"
103201,★4乃々 進化セット,103201,103201,"【お得なアイテムセット】
★4 池谷 乃々の
進化に必要な素材が詰まったセット。"
103300,お得な召喚チケットセット,103300,103300,"【お得なアイテムセット】
「スタミナ回復アイテム　大」10個と
「召喚チケット」10枚のお得なセット。"
103400,★4花名 進化セット,103400,103400,"【お得なアイテムセット】
★4 一之瀬 花名の
進化に必要な素材が詰まったセット。"
103401,★4鬼頭先生 進化セット,103401,103401,"【お得なアイテムセット】
★4 鬼頭 紀美子の
進化に必要な素材が詰まったセット。"
103500,★4葉子 進化セット,103500,103500,"【お得なアイテムセット】
★4 西川 葉子の
進化に必要な素材が詰まったセット。"
103501,★4双葉 進化セット,103501,103501,"【お得なアイテムセット】
★4 小田切 双葉の
進化に必要な素材が詰まったセット。"
103502,★4照 進化セット,103502,103502,"【お得なアイテムセット】
★4 葉山 照の
進化に必要な素材が詰まったセット。"
103503,★4しずく 進化セット,103503,103503,"【お得なアイテムセット】
★4 葉月 しずくの
進化に必要な素材が詰まったセット。"
103504,お得な召喚チケットセット,103504,103504,"【お得なアイテムセット】
「スタミナ回復アイテム　大」10個と
「召喚チケット」10枚のお得なセット。"
103600,★4クロ 進化セット,103600,103600,"【お得なアイテムセット】
★4 クロの
進化に必要な素材が詰まったセット。"
103601,★4キサラギ 進化セット,103601,103601,"【お得なアイテムセット】
★4 山口 如月の
進化に必要な素材が詰まったセット。"
103602,★4ノダミキ 進化セット,103602,103602,"【お得なアイテムセット】
★4 野田 ミキの
進化に必要な素材が詰まったセット。"
103603,★4トモカネ 進化セット,103603,103603,"【お得なアイテムセット】
★4 友兼の
進化に必要な素材が詰まったセット。"
103700,★4千夜 進化セット,103700,103700,"【お得なアイテムセット】
★4 千夜の
進化に必要な素材が詰まったセット。"
103701,★4シャロ 進化セット,103701,103701,"【お得なアイテムセット】
★4 シャロの
進化に必要な素材が詰まったセット。"
103702,お得な召喚チケットセット,103702,103702,"【お得なアイテムセット】
「スタミナ回復アイテム　大」10個と
「召喚チケット」10枚のお得なセット。"
103703,お得なクエスト挑戦セット,103703,103703,"【お得なアイテムセット】
「スタミナ回復アイテム　大」25個と
「クエストキー　金」25個のお得なセット。"
103704,お得なクエスト挑戦セット,103704,103704,"【お得なアイテムセット】
「スタミナ回復アイテム　大」25個と
「クエストキー　金」25個のお得なセット。"
103900,★4ランプ【運動会】 進化セット,103900,103900,"【お得なアイテムセット】
★4 ランプ【運動会】の
進化に必要な素材が詰まったセット。"
104000,★4花名【荒野に咲く花】 進化セット,104000,104000,"【お得なアイテムセット】
★4 花名【荒野に咲く花】 の
進化に必要な素材が詰まったセット。"
104001,★4かおす 進化セット,104001,104001,"【お得なアイテムセット】
★4 萌田 薫子の
進化に必要な素材が詰まったセット。"
104002,お得な召喚チケットセット,104002,104002,"【お得なアイテムセット】
「スタミナ回復アイテム　大」10個と
「召喚チケット」10枚のお得なセット。"
104003,お得なクエスト挑戦セット,104003,104003,"【お得なアイテムセット】
「スタミナ回復アイテム　大」25個と
「クエストキー　金」25個のお得なセット。"
200100,★4キョージュ 進化セット,200100,200100,"【お得なアイテムセット】
★4 大道 雅の
進化に必要な素材が詰まったセット。"
200101,★4ナミコさん 進化セット,200101,200101,"【お得なアイテムセット】
★4 野崎 奈三子の
進化に必要な素材が詰まったセット。"
200102,お得な召喚チケットセット,200102,200102,"【お得なアイテムセット】
「スタミナ回復アイテム　大」10個と
「召喚チケット」10枚のお得なセット。"
200103,お得なクエスト挑戦セット,200103,200103,"【お得なアイテムセット】
「スタミナ回復アイテム　大」25個と
「クエストキー　金」25個のお得なセット。"
104200,★4あかり 進化セット,104200,104200,"【お得なアイテムセット】
★4 大城 あかりの
進化に必要な素材が詰まったセット。"
104201,★4遥 進化セット,104201,104201,"【お得なアイテムセット】
★4 大空 遥の
進化に必要な素材が詰まったセット。"
104202,お得な炎属性進化セット,104202,104202,"【お得なアイテムセット】
炎属性のキャラクターの進化に必要な
進化珠と強化素材が詰まったセット。"
104203,お得な風属性進化セット,104203,104203,"【お得なアイテムセット】
風属性のキャラクターの進化に必要な
進化珠と強化素材が詰まったセット。"
104204,お得な土属性進化セット,104204,104204,"【お得なアイテムセット】
土属性のキャラクターの進化に必要な
進化珠と強化素材が詰まったセット。"
104205,お得な水属性進化セット,104205,104205,"【お得なアイテムセット】
水属性のキャラクターの進化に必要な
進化珠と強化素材が詰まったセット。"
104206,お得な月属性進化セット,104206,104206,"【お得なアイテムセット】
月属性のキャラクターの進化に必要な
進化珠と強化素材が詰まったセット。"
104207,お得な陽属性進化セット,104207,104207,"【お得なアイテムセット】
陽属性のキャラクターの進化に必要な
進化珠と強化素材が詰まったセット。"
104208,お得なせんし進化セット,104208,104208,"【お得なアイテムセット】
せんしのキャラクターの進化に必要な
スタチューと限界突破素材が詰まったセット。"
104209,お得なまほうつかい進化セット,104209,104209,"【お得なアイテムセット】
まほうつかいのキャラクターの進化に必要な
スタチューと限界突破素材が詰まったセット。"
104210,お得なそうりょ進化セット,104210,104210,"【お得なアイテムセット】
そうりょのキャラクターの進化に必要な
スタチューと限界突破素材が詰まったセット。"
104211,お得なナイト進化セット,104211,104211,"【お得なアイテムセット】
ナイトのキャラクターの進化に必要な
スタチューと限界突破素材が詰まったセット。"
104212,お得なアルケミスト進化セット,104212,104212,"【お得なアイテムセット】
アルケミストのキャラクターの進化に必要な
スタチューと限界突破素材が詰まったセット。"
104500,★4クレア【水着】 進化セット,104500,104500,"【お得なアイテムセット】
★4 クレア【水着】の
進化に必要な素材が詰まったセット。"
104501,お得な召喚チケットセット,104501,104501,"【お得なアイテムセット】
「スタミナ回復アイテム　大」10個と
「召喚チケット」10枚のお得なセット。"
104502,お得なクエスト挑戦セット,104502,104502,"【お得なアイテムセット】
「スタミナ回復アイテム　大」25個と
「クエストキー　金」25個のお得なセット。"
104700,★4遥【水着】 進化セット,104700,104700,"【お得なアイテムセット】
★4 遥【水着】の
進化に必要な素材が詰まったセット。"
200200,お得な召喚チケットセット,200200,200200,"【お得なアイテムセット】
「スタミナ回復アイテム　大」10個と
「召喚チケット」10枚のお得なセット。"
200201,お得なクエスト挑戦セット,200201,200201,"【お得なアイテムセット】
「スタミナ回復アイテム　大」25個と
「クエストキー　金」25個のお得なセット。"
104900,★4シャミ子 進化セット,104900,104900,"【お得なアイテムセット】
★4 吉田 優子の
進化に必要な素材が詰まったセット。"
104901,★4桃 進化セット,104901,104901,"【お得なアイテムセット】
★4 千代田 桃の
進化に必要な素材が詰まったセット。"
104902,★4リリス 進化セット,104902,104902,"【お得なアイテムセット】
★4 リリスの
進化に必要な素材が詰まったセット。"
104903,★4ミカン 進化セット,104903,104903,"【お得なアイテムセット】
★4 陽夏木 ミカンの
進化に必要な素材が詰まったセット。"
105100,★4マヤ 進化セット,105100,105100,"【お得なアイテムセット】
★4 マヤの
進化に必要な素材が詰まったセット。"
105101,★4メグ 進化セット,105101,105101,"【お得なアイテムセット】
★4 メグの
進化に必要な素材が詰まったセット。"
105102,お得な召喚チケットセット,105102,105102,"【お得なアイテムセット】
「スタミナ回復アイテム　大」10個と
「召喚チケット」10枚のお得なセット。"
105103,お得なクエスト挑戦セット,105103,105103,"【お得なアイテムセット】
「スタミナ回復アイテム　大」25個と
「クエストキー　金」25個のお得なセット。"
105200,★4ノノ【ハロウィン】 進化セット,105200,105200,"【お得なアイテムセット】
★4 ノノ【ハロウィン】の
進化に必要な素材が詰まったセット。"
105201,★4怖浦【ハロウィン】 進化セット,105201,105201,"【お得なアイテムセット】
★4 怖浦【ハロウィン】の
進化に必要な素材が詰まったセット。"
105202,お得な召喚チケットセット,105202,105202,"【お得なアイテムセット】
「スタミナ回復アイテム　大」10個と
「召喚チケット」10枚のお得なセット。"
105203,お得なクエスト挑戦セット,105203,105203,"【お得なアイテムセット】
「スタミナ回復アイテム　大」25個と
「クエストキー　金」25個のお得なセット。"
105300,★4ユタカ 進化セット,105300,105300,"【お得なアイテムセット】
★4 今井 豊の
進化に必要な素材が詰まったセット。"
105400,★4唯 進化セット,105400,105400,"【お得なアイテムセット】
★4 櫟井 唯（そうりょ）の
進化に必要な素材が詰まったセット。"
105401,お得な召喚チケットセット,105401,105401,"【お得なアイテムセット】
「スタミナ回復アイテム　大」10個と
「召喚チケット」10枚のお得なセット。"
105402,お得なクエスト挑戦セット,105402,105402,"【お得なアイテムセット】
「スタミナ回復アイテム　大」25個と
「クエストキー　金」25個のお得なセット。"
105600,★4双葉【クリスマス】 進化セット,105600,105600,"【お得なアイテムセット】
★4 双葉【クリスマス】の
進化に必要な素材が詰まったセット。"
105700,★4大会【お正月】 進化セット,105700,105700,"【お得なアイテムセット】
★4 大会【お正月】の
進化に必要な素材が詰まったセット。"
105701,お得な召喚チケットセット,105701,105701,"【お得なアイテムセット】
「スタミナ回復アイテム　大」10個と
「召喚チケット」10枚のお得なセット。"
105702,お得なクエスト挑戦セット,105702,105702,"【お得なアイテムセット】
「スタミナ回復アイテム　大」25個と
「クエストキー　金」25個のお得なセット。"
105703,2020年福袋アイテムセット,105703,105703,"【お得なアイテムセット】
お正月限定のお得な福袋！
召喚やクエストがいっぱい遊べるオススメセット！"
105900,★4レン【バレンタイン】 進化セット,105900,105900,"【お得なアイテムセット】
★4 レン【バレンタイン】の
進化に必要な素材が詰まったセット。"
105901,お得な召喚チケットセット,105901,105901,"【お得なアイテムセット】
「スタミナ回復アイテム　大」10個と
「召喚チケット」10枚のお得なセット。"
105902,お得なクエスト挑戦セット,105902,105902,"【お得なアイテムセット】
「スタミナ回復アイテム　大」25個と
「クエストキー　金」25個のお得なセット。"
106100,★4きりん 進化セット,106100,106100,"【お得なアイテムセット】
★4 森野 きりんの
進化に必要な素材が詰まったセット。"
106101,★4椎名 進化セット,106101,106101,"【お得なアイテムセット】
★4 椎名の
進化に必要な素材が詰まったセット。"
106102,★4美姫 進化セット,106102,106102,"【お得なアイテムセット】
★4 色川 美姫の
進化に必要な素材が詰まったセット。"
106200,★4良子 進化セット,106200,106200,"【お得なアイテムセット】
★4 吉田 良子の
進化に必要な素材が詰まったセット。"
106201,お得な召喚チケットセット,106201,106201,"【お得なアイテムセット】
「スタミナ回復アイテム　大」10個と
「召喚チケット」10枚のお得なセット。"
106202,お得なクエスト挑戦セット,106202,106202,"【お得なアイテムセット】
「スタミナ回復アイテム　大」25個と
「クエストキー　金」25個のお得なセット。"
106300,★4みら 進化セット,106300,106300,"【お得なアイテムセット】
★4 木ノ幡 みらの
進化に必要な素材が詰まったセット。"
106301,★4あお 進化セット,106301,106301,"【お得なアイテムセット】
★4 真中 あおの
進化に必要な素材が詰まったセット。"
106302,★4まつり 進化セット,106302,106302,"【お得なアイテムセット】
★4 鶴瀬 まつりの
進化に必要な素材が詰まったセット。"
106500,★4西山 進化セット,106500,106500,"【お得なアイテムセット】
★4 西山 芹那の
進化に必要な素材が詰まったセット。"
106501,お得な召喚チケットセット,106501,106501,"【お得なアイテムセット】
「スタミナ回復アイテム　大」10個と
「召喚チケット」10枚のお得なセット。"
106502,お得なクエスト挑戦セット,106502,106502,"【お得なアイテムセット】
「スタミナ回復アイテム　大」25個と
「クエストキー　金」25個のお得なセット。"
106700,★4椿【メイド】 進化セット,106700,106700,"【お得なアイテムセット】
★4 椿【メイド】の
進化に必要な素材が詰まったセット。"
106701,お得な召喚チケットセット,106701,106701,"【お得なアイテムセット】
「スタミナ回復アイテム　大」10個と
「召喚チケット」10枚のお得なセット。"
106702,お得なクエスト挑戦セット,106702,106702,"【お得なアイテムセット】
「スタミナ回復アイテム　大」25個と
「クエストキー　金」25個のお得なセット。"
106800,★4美月 進化セット,106800,106800,"【お得なアイテムセット】
★4 園田 美月の
進化に必要な素材が詰まったセット。"
106900,★4エンギ【運動会】 進化セット,106900,106900,"【お得なアイテムセット】
★4 エンギ【運動会】の
進化に必要な素材が詰まったセット。"
106901,お得な召喚チケットセット,106901,106901,"【お得なアイテムセット】
「スタミナ回復アイテム　大」10個と
「召喚チケット」10枚のお得なセット。"
106902,お得なクエスト挑戦セット,106902,106902,"【お得なアイテムセット】
「スタミナ回復アイテム　大」25個と
「クエストキー　金」25個のお得なセット。"
107000,★4詠深 進化セット,107000,107000,"【お得なアイテムセット】
★4 武田 詠深の
進化に必要な素材が詰まったセット。"
107001,★4珠姫 進化セット,107001,107001,"【お得なアイテムセット】
★4 山崎 珠姫の
進化に必要な素材が詰まったセット。"
107100,★4臣【七夕】 進化セット,107100,200000500,"【お得なアイテムセット】
★4 臣【七夕】の
進化に必要な素材が詰まったセット。"
107101,お得な召喚チケットセット,107101,200001500,"【お得なアイテムセット】
「スタミナ回復アイテム　大」10個と
「召喚チケット」10枚のお得なセット。"
107102,お得なクエスト挑戦セット,107102,200001600,"【お得なアイテムセット】
「スタミナ回復アイテム　大」25個と
「クエストキー　金」25個のお得なセット。"
107400,★4はるみ【水着】 進化セット,107400,200000500,"【お得なアイテムセット】
★4 はるみ【水着】の
進化に必要な素材が詰まったセット。"
107401,お得な召喚チケットセット,107401,200001500,"【お得なアイテムセット】
「スタミナ回復アイテム　大」10個と
「召喚チケット」10枚のお得なセット。"
107402,お得なクエスト挑戦セット,107402,200001600,"【お得なアイテムセット】
「スタミナ回復アイテム　大」25個と
「クエストキー　金」25個のお得なセット。"
107500,★4ポルカ【水着】 進化セット,107500,200000900,"【お得なアイテムセット】
★4 ポルカ【水着】の
進化に必要な素材が詰まったセット。"
107600,★4兎和 進化セット,107600,200000900,"【お得なアイテムセット】
★4 稲葉 兎和の
進化に必要な素材が詰まったセット。"
107601,★4彩紗 進化セット,107601,200001100,"【お得なアイテムセット】
★4 立花 彩紗の
進化に必要な素材が詰まったセット。"
107602,お得な召喚チケットセット,107602,200001500,"【お得なアイテムセット】
「スタミナ回復アイテム　大」10個と
「召喚チケット」10枚のお得なセット。"
107603,お得なクエスト挑戦セット,107603,200001600,"【お得なアイテムセット】
「スタミナ回復アイテム　大」25個と
「クエストキー　金」25個のお得なセット。"
107800,★4姫 進化セット,107800,200001100,"【お得なアイテムセット】
★4 春野 姫の
進化に必要な素材が詰まったセット。"
107801,★4真宵 進化セット,107801,200000900,"【お得なアイテムセット】
★4 片瀬 真宵の
進化に必要な素材が詰まったセット。"
107900,お得な召喚チケットセット,107900,200001500,"【お得なアイテムセット】
「スタミナ回復アイテム　大」10個と
「召喚チケット」10枚のお得なセット。"
107901,お得なクエスト挑戦セット,107901,200001600,"【お得なアイテムセット】
「スタミナ回復アイテム　大」25個と
「クエストキー　金」25個のお得なセット。"
108000,★4ロコ 進化セット,108000,200000700,"【お得なアイテムセット】
★4 関野 ロコの
進化に必要な素材が詰まったセット。"
108001,★4はゆ 進化セット,108001,200000100,"【お得なアイテムセット】
★4 貫井 はゆの
進化に必要な素材が詰まったセット。"
108002,★4ニナ 進化セット,108002,200000500,"【お得なアイテムセット】
★4 前原 仁菜の
進化に必要な素材が詰まったセット。"
108100,★4イノ【ハロウィン】 進化セット,108100,200000100,"【お得なアイテムセット】
★4 イノ【ハロウィン】の
進化に必要な素材が詰まったセット。"
108101,お得な召喚チケットセット,108101,200001500,"【お得なアイテムセット】
「スタミナ回復アイテム　大」10個と
「召喚チケット」10枚のお得なセット。"
108102,お得なクエスト挑戦セット,108102,200001600,"【お得なアイテムセット】
「スタミナ回復アイテム　大」25個と
「クエストキー　金」25個のお得なセット。"
108200,★4環 進化セット,108200,200000100,"【お得なアイテムセット】
★4 虎道 環の
進化に必要な素材が詰まったセット。"
108201,★4ニナ 進化セット,108201,200000900,"【お得なアイテムセット】
★4 橘 ニナの
進化に必要な素材が詰まったセット。"
108300,★4由衣 進化セット,108300,200001100,"【お得なアイテムセット】
★4 光凪 由衣の
進化に必要な素材が詰まったセット。"
108301,お得な召喚チケットセット,108301,200001500,"【お得なアイテムセット】
「スタミナ回復アイテム　大」10個と
「召喚チケット」10枚のお得なセット。"
108302,お得なクエスト挑戦セット,108302,200001600,"【お得なアイテムセット】
「スタミナ回復アイテム　大」25個と
「クエストキー　金」25個のお得なセット。"
108500,★4はなこ【クリスマス】 進化セット,108500,200000700,"【お得なアイテムセット】
★4 はなこ【クリスマス】の
進化に必要な素材が詰まったセット。"
108600,★4ライネ【お正月】 進化セット,108600,200001100,"【お得なアイテムセット】
★4 ライネ【お正月】の
進化に必要な素材が詰まったセット。"
108601,お得な召喚チケットセット,108601,200001500,"【お得なアイテムセット】
「スタミナ回復アイテム　大」10個と
「召喚チケット」10枚のお得なセット。"
108602,お得なクエスト挑戦セット,108602,200001600,"【お得なアイテムセット】
「スタミナ回復アイテム　大」25個と
「クエストキー　金」25個のお得なセット。"
108603,2021年福袋セット,108603,200003800,"【お得なアイテムセット】
お正月限定のお得な福袋！
召喚やクエストがいっぱい遊べるオススメセット！"
108700,★4香樹 進化セット,108700,200000500,"【お得なアイテムセット】
★4 坂本 香樹の
進化に必要な素材が詰まったセット。"
108701,★4ユキ 進化セット,108701,200000500,"【お得なアイテムセット】
★4 高橋 ユキの
進化に必要な素材が詰まったセット。"
108800,お得な召喚チケットセット,108800,200001500,"【お得なアイテムセット】
「スタミナ回復アイテム　大」10個と
「召喚チケット」10枚のお得なセット。"
108801,お得なクエスト挑戦セット,108801,200001600,"【お得なアイテムセット】
「スタミナ回復アイテム　大」25個と
「クエストキー　金」25個のお得なセット。"
108900,★4ひづめ【バレンタイン】 進化セット,108900,200000300,"【お得なアイテムセット】
★4 ひづめ【バレンタイン】の
進化に必要な素材が詰まったセット。"
109000,★4しずく【ホワイトデー】 進化セット,109000,200000300,"【お得なアイテムセット】
★4 しずく【ホワイトデー】の
進化に必要な素材が詰まったセット。"
109001,専用ぶき進化応援セット（21年3月）,109001,200003500,"【お得なアイテムセット】
★5キャラクター専用ぶきの進化に
必要な素材が入ったお得なセット"
109002,せんしのクレスト750個,109002,100090003,"せんしのクレストの
750個セット"
109003,まほうつかいのクレスト750個,109003,100090203,"まほうつかいのクレストの
750個セット"
109004,そうりょのクレスト750個,109004,100090403,"そうりょのクレストの
750個セット"
109005,ナイトのクレスト750個,109005,100090103,"ナイトのクレストの
750個セット"
109006,アルケミストのクレスト750個,109006,100090303,"アルケミストのクレストの
750個セット"
109300,★4かなた【温泉】 進化セット,109300,200000700,"【お得なアイテムセット】
★4 かなた【温泉】の
進化に必要な素材が詰まったセット。"
109500,★4近藤【メイド】 進化セット,109500,200000300,"【お得なアイテムセット】
★4 近藤【メイド】の
進化に必要な素材が詰まったセット。"
109600,★4光希 進化セット,109600,200000300,"【お得なアイテムセット】
★4 十倉 光希の
進化に必要な素材が詰まったセット。"
109700,★4あるみ【ブライダル】 進化セット,109700,200000700,"【お得なアイテムセット】
★4 あるみ【ブライダル】の
進化に必要な素材が詰まったセット。"
109800,★4まさ子 進化セット,109800,200000900,"【お得なアイテムセット】
★4 根岸 まさ子の
進化に必要な素材が詰まったセット。"
110000,★4キクヱ 進化セット,110000,200000300,"【お得なアイテムセット】
★4 桜川 キクヱの
進化に必要な素材が詰まったセット。"
110200,★4こはる【水着】 進化セット,110200,200000900,"【お得なアイテムセット】
★4 こはる【水着】の
進化に必要な素材が詰まったセット。"
110300,★4モンロー【水着】 進化セット,110300,200000900,"【お得なアイテムセット】
★4 モンロー【水着】の
進化に必要な素材が詰まったセット。"
110400,★4香奈 進化セット,110400,200000700,"【お得なアイテムセット】
★4 日暮 香奈の
進化に必要な素材が詰まったセット。"
110500,★4みさき 進化セット,110500,200000100,"【お得なアイテムセット】
★4 北沢 みさきの
進化に必要な素材が詰まったセット。"
110501,★4ひまり 進化セット,110501,200000300,"【お得なアイテムセット】
★4 牧之瀬 ひまりの
進化に必要な素材が詰まったセット。"
110800,★4マリ【ハロウィン】 進化セット,110800,200000300,"【お得なアイテムセット】
★4 マリ【ハロウィン】の
進化に必要な素材が詰まったセット。"
111100,★4あぎり【クリスマス】 進化セット,111100,200000500,"【お得なアイテムセット】
★4 あぎり【クリスマス】の
進化に必要な素材が詰まったセット。"
111200,★4つみき【お正月】 進化セット,111200,200000300,"【お得なアイテムセット】
★4 つみき【お正月】の
進化に必要な素材が詰まったセット。"
111201,2022年福袋セット,111201,200003800,"【お得なアイテムセット】
お正月限定のお得な福袋！
召喚やクエストがいっぱい遊べるオススメセット！"
111700,★4冠【バレンタイン】 進化セット,111700,200000100,"【お得なアイテムセット】
★4 冠【バレンタイン】の
進化に必要な素材が詰まったセット。"
111701,2022年バレンタインセット,111701,200005800,"【お得なアイテムセット】
バレンタイン限定！
召喚やクエストがいっぱい遊べるオススメセット！"
111900,★4紺【ホワイトデー】 進化セット,111900,200000500,"【お得なアイテムセット】
★4 紺【ホワイトデー】の
進化に必要な素材が詰まったセット。"
111901,専用ぶき進化応援セット（2022WD）,111901,200003500,"【お得なアイテムセット】
★5キャラクター専用ぶきの進化に
必要な素材が入ったお得なセット"
111902,せんしのクレスト750個,111902,100090003,"せんしのクレストの
750個セット"
111903,まほうつかいのクレスト750個,111903,100090203,"まほうつかいのクレストの
750個セット"
111904,そうりょのクレスト750個,111904,100090403,"そうりょのクレストの
750個セット"
111905,ナイトのクレスト750個,111905,100090103,"ナイトのクレストの
750個セット"
111906,アルケミストのクレスト750個,111906,100090303,"アルケミストのクレストの
750個セット"
112000,★4小春 進化セット,112000,200000300,"【お得なアイテムセット】
★4 海凪 小春の
進化に必要な素材が詰まったセット。"
112001,★4恋 進化セット,112001,200000500,"【お得なアイテムセット】
★4 吉永 恋の
進化に必要な素材が詰まったセット。"
112100,★4はるみ【温泉】 進化セット,112100,200001100,"【お得なアイテムセット】
★4 はるみ【温泉】の
進化に必要な素材が詰まったセット。"
112200,★4まゆ【イースター】 進化セット,112200,200000500,"【お得なアイテムセット】
★4 まゆ【イースター】の
進化に必要な素材が詰まったセット。"
112500,★4優【ブライダル】 進化セット,112500,200000700,"【お得なアイテムセット】
★4 優【ブライダル】の
進化に必要な素材が詰まったセット。"
112600,★4ファー 進化セット,112600,200000900,"【お得なアイテムセット】
★4 ファーの
進化に必要な素材が詰まったセット。"
112601,★4ルフリア 進化セット,112601,200000300,"【お得なアイテムセット】
★4 ルフリアの
進化に必要な素材が詰まったセット。"
112602,★4ラキラ 進化セット,112602,200000300,"【お得なアイテムセット】
★4 ラキラの
進化に必要な素材が詰まったセット。"
112603,オールスター★5確定召喚チケット×10,112603,200006800,"オールスター★5確定召喚チケットの
10個セット"
112604,オールスター★5確定召喚チケット×4,112604,200006900,"オールスター★5確定召喚チケットの
4個セット"
112605,オールスター★5確定召喚チケット,112605,200007200,"オールスター★5確定召喚チケットの
1個セット"
112700,★4光【七夕】 進化セット,112700,200000100,"【お得なアイテムセット】
★4 光【七夕】の
進化に必要な素材が詰まったセット。"
112800,★4メリー【水着】 進化セット,112800,200000500,"【お得なアイテムセット】
★4 メリー【水着】の
進化に必要な素材が詰まったセット。"
112801,2022年夏休みセット,112801,200008100,"【お得なアイテムセット】
夏休み限定！
召喚やクエストがいっぱい遊べるオススメセット！"
112900,★4ソーニャ【水着】 進化セット,112900,200000700,"【お得なアイテムセット】
★4 ソーニャ【水着】の
進化に必要な素材が詰まったセット。"
113000,サマーメモリー星結晶セット,113000,200007600,"【お得なアイテムセット】
各クラスの星結晶が1個
合計5個はいったお得なセット。"
113600,★4クレア【温泉】 進化セット,113600,200001100,"【お得なアイテムセット】
★4 クレア【温泉】の
進化に必要な素材が詰まったセット。"
113700,★4虹夏 進化セット,113700,200000700,"【お得なアイテムセット】
★4 伊地知 虹夏の
進化に必要な素材が詰まったセット。"
113701,★4リョウ 進化セット,113701,200000500,"【お得なアイテムセット】
★4 山田 リョウの
進化に必要な素材が詰まったセット。"
113702,★4喜多 進化セット,113702,200000100,"【お得なアイテムセット】
★4 喜多 郁代の
進化に必要な素材が詰まったセット。"
113703,第2部外伝セット,113703,200005800,"【お得なアイテムセット】
期間限定！
召喚やクエストがいっぱい遊べるオススメセット！"
113900,スクロール・星粒セット（花影）,113900,200004200,"【アビリティツリーのアイテムセット】
アビリティツリーの解放に必要なスクロールと
スロット解放に必要な星粒のセット。"
113901,スクロール・星粒セット（露華）,113901,200004200,"【アビリティツリーのアイテムセット】
アビリティツリーの解放に必要なスクロールと
スロット解放に必要な星粒のセット。"
199999,お得な召喚チケットセット,199999,200001500,"【お得なアイテムセット】
「スタミナ回復アイテム　大」10個と
「召喚チケット」10枚のお得なセット。"
199998,お得なクエスト挑戦セット,199998,200001600,"【お得なアイテムセット】
「スタミナ回復アイテム　大」25個と
「クエストキー　金」25個のお得なセット。"
199997,クエストキー　樹×10,199997,100100903,"【お得なアイテムセット】
クエストキー　樹の
10個セット"
199996,[Grade1]生命の実×100,199996,104000003,"【お得なアイテムセット】
[Grade1]生命の実の
100個セット"
199995,[Grade1]力の実×100,199995,104000103,"【お得なアイテムセット】
[Grade1]力の実の
100個セット"
199994,[Grade1]魔力の実×100,199994,104000203,"【お得なアイテムセット】
[Grade1]魔力の実の
100個セット"
199993,[Grade1]防御の実×100,199993,104000303,"【お得なアイテムセット】
[Grade1]防御の実の
100個セット"
199992,[Grade1]魔防の実×100,199992,104000403,"【お得なアイテムセット】
[Grade1]魔防の実の
100個セット"
300000,,300000,105000003,
300001,,300001,0,
300002,,300002,0,
300003,,300003,0,
300004,,300004,0,
300005,,300005,0,
300006,,300006,0,
300007,,300007,100900503,
300008,,300008,100900803,
300009,,300009,200004200,
350000,,350000,200001700,
350001,,350001,200001800,
350002,,350002,200001900,
350003,,350003,200002000,
350004,,350004,200002100,
350005,,350005,200002200,
350006,,350006,200002300,
350007,,350007,200003500,
350008,,350008,200002200,
350009,,350009,0,
350010,,350010,0,
350011,,350011,0,
350012,,350012,0,
350013,,350013,0,
350014,,350014,0,
350015,,350015,0,
350016,,350016,0,
350017,,350017,200003600,
350018,,350018,0,
350019,,350019,200002200,
350020,,350020,200003700,
350021,,350021,0,
350022,,350022,200003900,
350023,,350023,0,
350024,,350024,200004000,
350025,,350025,200003500,
350026,,350026,0,
350027,,350027,200002200,
350028,,350028,200001900,
350029,,350029,0,
350030,,350030,200004100,
350031,,350031,200003600,
350032,,350032,200003900,
350033,,350033,0,
350034,,350034,200002200,
350035,,350035,200003500,
350036,,350036,0,
350037,,350037,0,
350038,,350038,200003900,
350039,,350039,200003600,
350040,,350040,0,
350041,,350041,0,
350042,,350042,0,
350043,,350043,0,
350044,,350044,0,
350045,,350045,0,
350046,,350046,200004300,
350047,,350047,0,
350048,,350048,200004200,
350049,,350049,200003500,
350050,,350050,200002200,
350051,,350051,200002200,
350052,,350052,0,
350053,,350053,200004400,
350054,,350054,200004500,
350055,,350055,200004600,
350056,,350056,0,
350057,,350057,200002200,
350058,,350058,200003600,
350059,,350059,200004700,
350060,,350060,200003500,
350061,,350061,200004200,
350062,,350062,200002200,
350063,,350063,200004800,
350064,,350064,200004900,
350065,,350065,200003500,
350066,,350066,200004200,
350067,,350067,0,
350068,,350068,200005000,
350069,,350069,200003900,
350070,,350070,200002200,
350071,,350071,200002200,
350072,,350072,200003500,
350073,,350073,200004200,
350074,,350074,0,
350075,,350075,200003500,
350076,,350076,200002200,
350077,,350077,0,
350078,,350078,200003500,
350079,,350079,200002200,
350080,,350080,0,
350081,,350081,0,
350082,,350082,200004200,
350083,,350083,200005100,
350084,,350084,200005200,
350085,,350085,200005300,
350086,,350086,200004200,
350087,,350087,0,
350088,,350088,200003500,
350089,,350089,200003500,
350090,,350090,200003600,
350091,,350091,200003600,
350092,,350092,200002200,
350093,,350093,200002200,
350094,,350094,200005400,
350095,,350095,200005500,
350096,,350096,200004200,
350097,,350097,0,
350098,,350098,200003500,
350099,,350099,200003600,
350100,,350100,200002200,
350101,,350101,200003900,
350102,,350102,200002200,
350103,,350103,200004200,
350104,,350104,200005600,
350105,,350105,200005700,
350106,,350106,200003600,
350107,,350107,0,
350108,,350108,200002200,
350109,,350109,200005900,
350110,,350110,200003500,
350111,,350111,200004200,
350112,,350112,200006000,
350113,,350113,200006100,
350114,,350114,200006200,
350115,,350115,0,
350116,,350116,200004200,
350117,,350117,200006300,
350118,,350118,200003500,
350119,,350119,200003600,
350120,,350120,200003900,
350121,,350121,200004200,
350122,,350122,200002200,
350123,,350123,200006600,
350124,,350124,0,
350125,,350125,200006700,
350126,,350126,0,
350127,,350127,200007000,
350128,,350128,200007100,
350129,,350129,0,
350130,,350130,200004200,
350131,,350131,200002200,
350132,,350132,200007300,
350133,,350133,200007400,
350134,,350134,200007700,
350135,,350135,200007800,
350136,,350136,200007900,
350137,,350137,200008000,
350138,,350138,200004200,
350139,,350139,200008200,
350140,,350140,200008300,
350141,,350141,200008400,
350142,,350142,200008500,
350143,,350143,200008600,
350144,,350144,0,
350145,,350145,200003600,
350146,,350146,200002200,
350147,,350147,200008700,
350148,,350148,200003500,
350149,,350149,200004200,
350150,,350150,200002200,
350151,,350151,200008800,
350152,,350152,200009100,
350153,,350153,200009200,
350154,,350154,200008900,
350155,,350155,200009000,
350156,,350156,200009400,
350157,,350157,200003900,
350158,,350158,200003600,
350159,,350159,200004200,
350160,,350160,200002200,
350161,,350161,200009500,
350162,,350162,200009600,
350163,,350163,0,
350164,,350164,200009900,
350165,,350165,200010000,
350166,,350166,200010100,
350167,,350167,200010200,
350168,,350168,200005700,
350169,,350169,200003900,
350170,,350170,200003600,
350171,,350171,200004200,
350172,,350172,200004200,
350173,,350173,200002200,
400000,炎の新芽500個,400000,100201803,"炎の新芽の
500個セット"
400001,風の新芽500個,400001,100201903,"風の新芽の
500個セット"
400002,土の新芽500個,400002,100202003,"土の新芽の
500個セット"
400003,水の新芽500個,400003,100202103,"水の新芽の
500個セット"
400004,月の新芽500個,400004,100202203,"月の新芽の
500個セット"
400005,陽の新芽500個,400005,100202303,"陽の新芽の
500個セット"
400006,せんしのクレスト750個,400006,100090003,"せんしのクレストの
750個セット"
400007,まほうつかいのクレスト750個,400007,100090203,"まほうつかいのクレストの
750個セット"
400008,そうりょのクレスト750個,400008,100090403,"そうりょのクレストの
750個セット"
400009,ナイトのクレスト750個,400009,100090103,"ナイトのクレストの
750個セット"
400010,アルケミストのクレスト750個,400010,100090303,"アルケミストのクレストの
750個セット"
450000,★5せんしの育成スペシャル応援セット,450000,200002400,"各属性の育成スペシャル応援セットとの
組み合わせでLv.100に育成できるセット"
450001,★5まほうつかいの育成スペシャル応援セット,450001,200002500,"各属性の育成スペシャル応援セットとの
組み合わせでLv.100に育成できるセット"
450002,★5そうりょの育成スペシャル応援セット,450002,200002600,"各属性の育成スペシャル応援セットとの
組み合わせでLv.100に育成できるセット"
450003,★5ナイトの育成スペシャル応援セット,450003,200002700,"各属性の育成スペシャル応援セットとの
組み合わせでLv.100に育成できるセット"
450004,★5アルケミストの育成スペシャル応援セット,450004,200002800,"各属性の育成スペシャル応援セットとの
組み合わせでLv.100に育成できるセット"
450005,★5炎属性の育成スペシャル応援セット,450005,200002900,"各クラスの育成スペシャル応援セットとの
組み合わせでLv.100に育成できるセット"
450006,★5風属性の育成スペシャル応援セット,450006,200003000,"各クラスの育成スペシャル応援セットとの
組み合わせでLv.100に育成できるセット"
450007,★5土属性の育成スペシャル応援セット,450007,200003100,"各クラスの育成スペシャル応援セットとの
組み合わせでLv.100に育成できるセット"
450008,★5水属性の育成スペシャル応援セット,450008,200003200,"各クラスの育成スペシャル応援セットとの
組み合わせでLv.100に育成できるセット"
450009,★5月属性の育成スペシャル応援セット,450009,200003300,"各クラスの育成スペシャル応援セットとの
組み合わせでLv.100に育成できるセット"
450010,★5陽属性の育成スペシャル応援セット,450010,200003400,"各クラスの育成スペシャル応援セットとの
組み合わせでLv.100に育成できるセット"
450011,★5せんしの育成スペシャル応援セット,450011,200002400,"各属性の育成スペシャル応援セットとの
組み合わせでLv.100に育成できるセット"
450012,★5まほうつかいの育成スペシャル応援セット,450012,200002500,"各属性の育成スペシャル応援セットとの
組み合わせでLv.100に育成できるセット"
450013,★5そうりょの育成スペシャル応援セット,450013,200002600,"各属性の育成スペシャル応援セットとの
組み合わせでLv.100に育成できるセット"
450014,★5ナイトの育成スペシャル応援セット,450014,200002700,"各属性の育成スペシャル応援セットとの
組み合わせでLv.100に育成できるセット"
450015,★5アルケミストの育成スペシャル応援セット,450015,200002800,"各属性の育成スペシャル応援セットとの
組み合わせでLv.100に育成できるセット"
450016,★5炎属性の育成スペシャル応援セット,450016,200002900,"各クラスの育成スペシャル応援セットとの
組み合わせでLv.100に育成できるセット"
450017,★5風属性の育成スペシャル応援セット,450017,200003000,"各クラスの育成スペシャル応援セットとの
組み合わせでLv.100に育成できるセット"
450018,★5土属性の育成スペシャル応援セット,450018,200003100,"各クラスの育成スペシャル応援セットとの
組み合わせでLv.100に育成できるセット"
450019,★5水属性の育成スペシャル応援セット,450019,200003200,"各クラスの育成スペシャル応援セットとの
組み合わせでLv.100に育成できるセット"
450020,★5月属性の育成スペシャル応援セット,450020,200003300,"各クラスの育成スペシャル応援セットとの
組み合わせでLv.100に育成できるセット"
450021,★5陽属性の育成スペシャル応援セット,450021,200003400,"各クラスの育成スペシャル応援セットとの
組み合わせでLv.100に育成できるセット"
450022,★5せんしの育成スペシャル応援セット,450022,200002400,"各属性の育成スペシャル応援セットとの
組み合わせでLv.100に育成できるセット"
450023,★5まほうつかいの育成スペシャル応援セット,450023,200002500,"各属性の育成スペシャル応援セットとの
組み合わせでLv.100に育成できるセット"
450024,★5そうりょの育成スペシャル応援セット,450024,200002600,"各属性の育成スペシャル応援セットとの
組み合わせでLv.100に育成できるセット"
450025,★5ナイトの育成スペシャル応援セット,450025,200002700,"各属性の育成スペシャル応援セットとの
組み合わせでLv.100に育成できるセット"
450026,★5アルケミストの育成スペシャル応援セット,450026,200002800,"各属性の育成スペシャル応援セットとの
組み合わせでLv.100に育成できるセット"
450027,★5炎属性の育成スペシャル応援セット,450027,200002900,"各クラスの育成スペシャル応援セットとの
組み合わせでLv.100に育成できるセット"
450028,★5風属性の育成スペシャル応援セット,450028,200003000,"各クラスの育成スペシャル応援セットとの
組み合わせでLv.100に育成できるセット"
450029,★5土属性の育成スペシャル応援セット,450029,200003100,"各クラスの育成スペシャル応援セットとの
組み合わせでLv.100に育成できるセット"
450030,★5水属性の育成スペシャル応援セット,450030,200003200,"各クラスの育成スペシャル応援セットとの
組み合わせでLv.100に育成できるセット"
450031,★5月属性の育成スペシャル応援セット,450031,200003300,"各クラスの育成スペシャル応援セットとの
組み合わせでLv.100に育成できるセット"
450032,★5陽属性の育成スペシャル応援セット,450032,200003400,"各クラスの育成スペシャル応援セットとの
組み合わせでLv.100に育成できるセット"
450033,★5せんしの育成スペシャル応援セット,450033,200002400,"各属性の育成スペシャル応援セットとの
組み合わせでLv.100に育成できるセット"
450034,★5まほうつかいの育成スペシャル応援セット,450034,200002500,"各属性の育成スペシャル応援セットとの
組み合わせでLv.100に育成できるセット"
450035,★5そうりょの育成スペシャル応援セット,450035,200002600,"各属性の育成スペシャル応援セットとの
組み合わせでLv.100に育成できるセット"
450036,★5ナイトの育成スペシャル応援セット,450036,200002700,"各属性の育成スペシャル応援セットとの
組み合わせでLv.100に育成できるセット"
450037,★5アルケミストの育成スペシャル応援セット,450037,200002800,"各属性の育成スペシャル応援セットとの
組み合わせでLv.100に育成できるセット"
450038,★5炎属性の育成スペシャル応援セット,450038,200002900,"各クラスの育成スペシャル応援セットとの
組み合わせでLv.100に育成できるセット"
450039,★5風属性の育成スペシャル応援セット,450039,200003000,"各クラスの育成スペシャル応援セットとの
組み合わせでLv.100に育成できるセット"
450040,★5土属性の育成スペシャル応援セット,450040,200003100,"各クラスの育成スペシャル応援セットとの
組み合わせでLv.100に育成できるセット"
450041,★5水属性の育成スペシャル応援セット,450041,200003200,"各クラスの育成スペシャル応援セットとの
組み合わせでLv.100に育成できるセット"
450042,★5月属性の育成スペシャル応援セット,450042,200003300,"各クラスの育成スペシャル応援セットとの
組み合わせでLv.100に育成できるセット"
450043,★5陽属性の育成スペシャル応援セット,450043,200003400,"各クラスの育成スペシャル応援セットとの
組み合わせでLv.100に育成できるセット"
450044,★5せんしの育成スペシャル応援セット,450044,200002400,"各属性の育成スペシャル応援セットとの
組み合わせでLv.100に育成できるセット"
450045,★5まほうつかいの育成スペシャル応援セット,450045,200002500,"各属性の育成スペシャル応援セットとの
組み合わせでLv.100に育成できるセット"
450046,★5そうりょの育成スペシャル応援セット,450046,200002600,"各属性の育成スペシャル応援セットとの
組み合わせでLv.100に育成できるセット"
450047,★5ナイトの育成スペシャル応援セット,450047,200002700,"各属性の育成スペシャル応援セットとの
組み合わせでLv.100に育成できるセット"
450048,★5アルケミストの育成スペシャル応援セット,450048,200002800,"各属性の育成スペシャル応援セットとの
組み合わせでLv.100に育成できるセット"
450049,★5炎属性の育成スペシャル応援セット,450049,200002900,"各クラスの育成スペシャル応援セットとの
組み合わせでLv.100に育成できるセット"
450050,★5風属性の育成スペシャル応援セット,450050,200003000,"各クラスの育成スペシャル応援セットとの
組み合わせでLv.100に育成できるセット"
450051,★5土属性の育成スペシャル応援セット,450051,200003100,"各クラスの育成スペシャル応援セットとの
組み合わせでLv.100に育成できるセット"
450052,★5水属性の育成スペシャル応援セット,450052,200003200,"各クラスの育成スペシャル応援セットとの
組み合わせでLv.100に育成できるセット"
450053,★5月属性の育成スペシャル応援セット,450053,200003300,"各クラスの育成スペシャル応援セットとの
組み合わせでLv.100に育成できるセット"
450054,★5陽属性の育成スペシャル応援セット,450054,200003400,"各クラスの育成スペシャル応援セットとの
組み合わせでLv.100に育成できるセット"
450055,★5せんしの育成スペシャル応援セット,450055,200002400,"各属性の育成スペシャル応援セットとの
組み合わせでLv.100に育成できるセット"
450056,★5まほうつかいの育成スペシャル応援セット,450056,200002500,"各属性の育成スペシャル応援セットとの
組み合わせでLv.100に育成できるセット"
450057,★5そうりょの育成スペシャル応援セット,450057,200002600,"各属性の育成スペシャル応援セットとの
組み合わせでLv.100に育成できるセット"
450058,★5ナイトの育成スペシャル応援セット,450058,200002700,"各属性の育成スペシャル応援セットとの
組み合わせでLv.100に育成できるセット"
450059,★5アルケミストの育成スペシャル応援セット,450059,200002800,"各属性の育成スペシャル応援セットとの
組み合わせでLv.100に育成できるセット"
450060,★5炎属性の育成スペシャル応援セット,450060,200002900,"各クラスの育成スペシャル応援セットとの
組み合わせでLv.100に育成できるセット"
450061,★5風属性の育成スペシャル応援セット,450061,200003000,"各クラスの育成スペシャル応援セットとの
組み合わせでLv.100に育成できるセット"
450062,★5土属性の育成スペシャル応援セット,450062,200003100,"各クラスの育成スペシャル応援セットとの
組み合わせでLv.100に育成できるセット"
450063,★5水属性の育成スペシャル応援セット,450063,200003200,"各クラスの育成スペシャル応援セットとの
組み合わせでLv.100に育成できるセット"
450064,★5月属性の育成スペシャル応援セット,450064,200003300,"各クラスの育成スペシャル応援セットとの
組み合わせでLv.100に育成できるセット"
450065,★5陽属性の育成スペシャル応援セット,450065,200003400,"各クラスの育成スペシャル応援セットとの
組み合わせでLv.100に育成できるセット"
450066,[Grade1]ステータス上昇持続の実,450066,0,"[Grade1]ステータス上昇持続の実の
1個セット"
450067,[Grade1]とっておき上昇の実,450067,0,"[Grade1]とっておき上昇の実の
1個セット"
450068,[Grade1]クリティカル持続の実,450068,0,"[Grade1]クリティカル持続の実の
1個セット"
450069,[Grade1]がまん持続の実,450069,0,"[Grade1]がまん持続の実の
1個セット"
450070,[Grade1]リカバリー持続の実,450070,0,"[Grade1]リカバリー持続の実の
1個セット"
450071,[Grade1]ステータス上昇持続の実,450071,0,"[Grade1]ステータス上昇持続の実の
1個セット"
450072,[Grade1]ステータス下降持続の実,450072,0,"[Grade1]ステータス下降持続の実の
1個セット"
450073,[Grade1]クリティカル持続の実,450073,0,"[Grade1]クリティカル持続の実の
1個セット"
450074,[Grade1]狙われ変化持続の実,450074,0,"[Grade1]狙われ変化持続の実の
1個セット"
450075,[Grade1]クイックドロウ持続の実,450075,0,"[Grade1]クイックドロウ持続の実の
1個セット"
450076,[Grade1]リカバリー持続の実,450076,0,"[Grade1]リカバリー持続の実の
1個セット"
450077,[Grade1]がまん持続の実,450077,0,"[Grade1]がまん持続の実の
1個セット"
450078,[Grade1]状態異常無効持続の実,450078,0,"[Grade1]状態異常無効持続の実の
1個セット"
450079,[Grade1]とっておき上昇の実,450079,0,"[Grade1]とっておき上昇の実の
1個セット"
450080,★5せんしの育成スペシャル応援セット,450080,200002400,"各属性の育成スペシャル応援セットとの
組み合わせでLv.100に育成できるセット"
450081,★5まほうつかいの育成スペシャル応援セット,450081,200002500,"各属性の育成スペシャル応援セットとの
組み合わせでLv.100に育成できるセット"
450082,★5そうりょの育成スペシャル応援セット,450082,200002600,"各属性の育成スペシャル応援セットとの
組み合わせでLv.100に育成できるセット"
450083,★5ナイトの育成スペシャル応援セット,450083,200002700,"各属性の育成スペシャル応援セットとの
組み合わせでLv.100に育成できるセット"
450084,★5アルケミストの育成スペシャル応援セット,450084,200002800,"各属性の育成スペシャル応援セットとの
組み合わせでLv.100に育成できるセット"
450085,★5炎属性の育成スペシャル応援セット,450085,200002900,"各クラスの育成スペシャル応援セットとの
組み合わせでLv.100に育成できるセット"
450086,★5風属性の育成スペシャル応援セット,450086,200003000,"各クラスの育成スペシャル応援セットとの
組み合わせでLv.100に育成できるセット"
450087,★5土属性の育成スペシャル応援セット,450087,200003100,"各クラスの育成スペシャル応援セットとの
組み合わせでLv.100に育成できるセット"
450088,★5水属性の育成スペシャル応援セット,450088,200003200,"各クラスの育成スペシャル応援セットとの
組み合わせでLv.100に育成できるセット"
450089,★5月属性の育成スペシャル応援セット,450089,200003300,"各クラスの育成スペシャル応援セットとの
組み合わせでLv.100に育成できるセット"
450090,★5陽属性の育成スペシャル応援セット,450090,200003400,"各クラスの育成スペシャル応援セットとの
組み合わせでLv.100に育成できるセット"
450091,[Grade1]クイックドロウ持続の実,450091,0,"[Grade1]クイックドロウ持続の実の
1個セット"
450092,[Grade1]状態異常無効持続の実,450092,0,"[Grade1]状態異常無効持続の実の
1個セット"
450093,[Grade1]ステータス下降持続の実,450093,0,"[Grade1]ステータス下降持続の実の
1個セット"
450094,[Grade1]クリティカル持続の実,450094,0,"[Grade1]クリティカル持続の実の
1個セット"
450095,[Grade1]リカバリー持続の実,450095,0,"[Grade1]リカバリー持続の実の
1個セット"
450096,[Grade1]がまん持続の実,450096,0,"[Grade1]がまん持続の実の
1個セット"
450097,[Grade1]クイックドロウ持続の実,450097,0,"[Grade1]クイックドロウ持続の実の
1個セット"
450098,[Grade1]状態異常無効持続の実,450098,0,"[Grade1]状態異常無効持続の実の
1個セット"
450099,[Grade1]とっておき上昇の実,450099,0,"[Grade1]とっておき上昇の実の
1個セット"
450100,[Grade1]狙われ変化持続の実,450100,0,"[Grade1]狙われ変化持続の実の
1個セット"
450101,★5せんしの育成スペシャル応援セット,450101,200002400,"各属性の育成スペシャル応援セットとの
組み合わせでLv.100に育成できるセット"
450102,★5まほうつかいの育成スペシャル応援セット,450102,200002500,"各属性の育成スペシャル応援セットとの
組み合わせでLv.100に育成できるセット"
450103,★5そうりょの育成スペシャル応援セット,450103,200002600,"各属性の育成スペシャル応援セットとの
組み合わせでLv.100に育成できるセット"
450104,★5ナイトの育成スペシャル応援セット,450104,200002700,"各属性の育成スペシャル応援セットとの
組み合わせでLv.100に育成できるセット"
450105,★5アルケミストの育成スペシャル応援セット,450105,200002800,"各属性の育成スペシャル応援セットとの
組み合わせでLv.100に育成できるセット"
450106,★5炎属性の育成スペシャル応援セット,450106,200002900,"各クラスの育成スペシャル応援セットとの
組み合わせでLv.100に育成できるセット"
450107,★5風属性の育成スペシャル応援セット,450107,200003000,"各クラスの育成スペシャル応援セットとの
組み合わせでLv.100に育成できるセット"
450108,★5土属性の育成スペシャル応援セット,450108,200003100,"各クラスの育成スペシャル応援セットとの
組み合わせでLv.100に育成できるセット"
450109,★5水属性の育成スペシャル応援セット,450109,200003200,"各クラスの育成スペシャル応援セットとの
組み合わせでLv.100に育成できるセット"
450110,★5月属性の育成スペシャル応援セット,450110,200003300,"各クラスの育成スペシャル応援セットとの
組み合わせでLv.100に育成できるセット"
450111,★5陽属性の育成スペシャル応援セット,450111,200003400,"各クラスの育成スペシャル応援セットとの
組み合わせでLv.100に育成できるセット"
450112,[Grade1]クリティカル持続の実,450112,0,"[Grade1]クリティカル持続の実の
1個セット"
450113,[Grade1]リカバリー持続の実,450113,0,"[Grade1]リカバリー持続の実の
1個セット"
450114,[Grade1]がまん持続の実,450114,0,"[Grade1]がまん持続の実の
1個セット"
450115,[Grade1]ステータス上昇持続の実,450115,0,"[Grade1]ステータス上昇持続の実の
1個セット"
450116,[Grade1]ステータス下降持続の実,450116,0,"[Grade1]ステータス下降持続の実の
1個セット"
450117,[Grade1]クリティカル持続の実,450117,0,"[Grade1]クリティカル持続の実の
1個セット"
450118,[Grade1]狙われ変化持続の実,450118,0,"[Grade1]狙われ変化持続の実の
1個セット"
450119,[Grade1]クイックドロウ持続の実,450119,0,"[Grade1]クイックドロウ持続の実の
1個セット"
450120,[Grade1]リカバリー持続の実,450120,0,"[Grade1]リカバリー持続の実の
1個セット"
450121,[Grade1]がまん持続の実,450121,0,"[Grade1]がまん持続の実の
1個セット"
450122,[Grade1]状態異常無効持続の実,450122,0,"[Grade1]状態異常無効持続の実の
1個セット"
450123,[Grade1]とっておき上昇の実,450123,0,"[Grade1]とっておき上昇の実の
1個セット"
450124,[Grade1]クイックドロウ持続の実,450124,0,"[Grade1]クイックドロウ持続の実の
1個セット"
450125,[Grade1]状態異常無効持続の実,450125,0,"[Grade1]状態異常無効持続の実の
1個セット"
450126,[Grade1]とっておき上昇の実,450126,0,"[Grade1]とっておき上昇の実の
1個セット"
450127,[Grade1]ステータス上昇持続の実,450127,0,"[Grade1]ステータス上昇持続の実の
1個セット"
450128,[Grade1]クリティカル持続の実,450128,0,"[Grade1]クリティカル持続の実の
1個セット"
450129,[Grade1]リカバリー持続の実,450129,0,"[Grade1]リカバリー持続の実の
1個セット"
450130,[Grade1]がまん持続の実,450130,0,"[Grade1]がまん持続の実の
1個セット"
450131,★5せんしの育成スペシャル応援セット,450131,200002400,"各属性の育成スペシャル応援セットとの
組み合わせでLv.100に育成できるセット"
450132,★5まほうつかいの育成スペシャル応援セット,450132,200002500,"各属性の育成スペシャル応援セットとの
組み合わせでLv.100に育成できるセット"
450133,★5そうりょの育成スペシャル応援セット,450133,200002600,"各属性の育成スペシャル応援セットとの
組み合わせでLv.100に育成できるセット"
450134,★5ナイトの育成スペシャル応援セット,450134,200002700,"各属性の育成スペシャル応援セットとの
組み合わせでLv.100に育成できるセット"
450135,★5アルケミストの育成スペシャル応援セット,450135,200002800,"各属性の育成スペシャル応援セットとの
組み合わせでLv.100に育成できるセット"
450136,★5炎属性の育成スペシャル応援セット,450136,200002900,"各クラスの育成スペシャル応援セットとの
組み合わせでLv.100に育成できるセット"
450137,★5風属性の育成スペシャル応援セット,450137,200003000,"各クラスの育成スペシャル応援セットとの
組み合わせでLv.100に育成できるセット"
450138,★5土属性の育成スペシャル応援セット,450138,200003100,"各クラスの育成スペシャル応援セットとの
組み合わせでLv.100に育成できるセット"
450139,★5水属性の育成スペシャル応援セット,450139,200003200,"各クラスの育成スペシャル応援セットとの
組み合わせでLv.100に育成できるセット"
450140,★5月属性の育成スペシャル応援セット,450140,200003300,"各クラスの育成スペシャル応援セットとの
組み合わせでLv.100に育成できるセット"
450141,★5陽属性の育成スペシャル応援セット,450141,200003400,"各クラスの育成スペシャル応援セットとの
組み合わせでLv.100に育成できるセット"
450142,[Grade1]クイックドロウ持続の実,450142,0,"[Grade1]クイックドロウ持続の実の
1個セット"
450143,[Grade1]状態異常無効持続の実,450143,0,"[Grade1]状態異常無効持続の実の
1個セット"
450144,[Grade1]とっておき上昇の実,450144,0,"[Grade1]とっておき上昇の実の
1個セット"
450145,[Grade1]クリティカル持続の実,450145,0,"[Grade1]クリティカル持続の実の
1個セット"
450146,[Grade1]がまん持続の実,450146,0,"[Grade1]がまん持続の実の
1個セット"
450147,[Grade1]リカバリー持続の実,450147,0,"[Grade1]リカバリー持続の実の
1個セット"
450148,[Grade1]ステータス下降持続の実,450148,0,"[Grade1]ステータス下降持続の実の
1個セット"
450149,[Grade1]とっておき上昇の実,450149,0,"[Grade1]とっておき上昇の実の
1個セット"
450150,[Grade1]状態異常無効持続の実,450150,0,"[Grade1]状態異常無効持続の実の
1個セット"
450151,[Grade1]クイックドロウ持続の実,450151,0,"[Grade1]クイックドロウ持続の実の
1個セット"
450152,まちカドまぞく★5コールセット,450152,200006400,"まちカドまぞく★5コールチケット3個と
まちカドまぞくメダル1個のセット"
450153,がっこうぐらし！★5コールセット,450153,200006500,"がっこうぐらし！★5コールチケット3個と
がっこうぐらし！メダル1個のセット"
450154,[Grade1]クリティカル持続の実,450154,0,"[Grade1]クリティカル持続の実の
1個セット"
450155,[Grade1]がまん持続の実,450155,0,"[Grade1]がまん持続の実の
1個セット"
450156,[Grade1]リカバリー持続の実,450156,0,"[Grade1]リカバリー持続の実の
1個セット"
450157,ゆるキャン△★5コールセット,450157,200007500,"ゆるキャン△★5コールチケット3個と
ゆるキャン△メダル1個のセット"
450158,[Grade1]とっておき上昇の実,450158,0,"[Grade1]とっておき上昇の実の
1個セット"
450159,[Grade1]状態異常無効持続の実,450159,0,"[Grade1]状態異常無効持続の実の
1個セット"
450160,[Grade1]クイックドロウ持続の実,450160,0,"[Grade1]クイックドロウ持続の実の
1個セット"
450161,[Grade1]狙われ変化持続の実,450161,0,"[Grade1]狙われ変化持続の実の
1個セット"
450162,[Grade1]クリティカル持続の実,450162,0,"[Grade1]クリティカル持続の実の
1個セット"
450163,[Grade1]がまん持続の実,450163,0,"[Grade1]がまん持続の実の
1個セット"
450164,[Grade1]リカバリー持続の実,450164,0,"[Grade1]リカバリー持続の実の
1個セット"
450165,[Grade1]ステータス上昇持続の実,450165,0,"[Grade1]ステータス上昇持続の実の
1個セット"
450166,[Grade1]ステータス下降持続の実,450166,0,"[Grade1]ステータス下降持続の実の
1個セット"
450167,[Grade1]クリティカル持続の実,450167,0,"[Grade1]クリティカル持続の実の
1個セット"
450168,[Grade1]狙われ変化持続の実,450168,0,"[Grade1]狙われ変化持続の実の
1個セット"
450169,[Grade1]クイックドロウ持続の実,450169,0,"[Grade1]クイックドロウ持続の実の
1個セット"
450170,[Grade1]リカバリー持続の実,450170,0,"[Grade1]リカバリー持続の実の
1個セット"
450171,[Grade1]がまん持続の実,450171,0,"[Grade1]がまん持続の実の
1個セット"
450172,[Grade1]状態異常無効持続の実,450172,0,"[Grade1]状態異常無効持続の実の
1個セット"
450173,[Grade1]とっておき上昇の実,450173,0,"[Grade1]とっておき上昇の実の
1個セット"
450174,★5せんしの育成スペシャル応援セット,450174,200002400,"各属性の育成スペシャル応援セットとの
組み合わせでLv.100に育成できるセット"
450175,★5まほうつかいの育成スペシャル応援セット,450175,200002500,"各属性の育成スペシャル応援セットとの
組み合わせでLv.100に育成できるセット"
450176,★5そうりょの育成スペシャル応援セット,450176,200002600,"各属性の育成スペシャル応援セットとの
組み合わせでLv.100に育成できるセット"
450177,★5ナイトの育成スペシャル応援セット,450177,200002700,"各属性の育成スペシャル応援セットとの
組み合わせでLv.100に育成できるセット"
450178,★5アルケミストの育成スペシャル応援セット,450178,200002800,"各属性の育成スペシャル応援セットとの
組み合わせでLv.100に育成できるセット"
450179,★5炎属性の育成スペシャル応援セット,450179,200002900,"各クラスの育成スペシャル応援セットとの
組み合わせでLv.100に育成できるセット"
450180,★5風属性の育成スペシャル応援セット,450180,200003000,"各クラスの育成スペシャル応援セットとの
組み合わせでLv.100に育成できるセット"
450181,★5土属性の育成スペシャル応援セット,450181,200003100,"各クラスの育成スペシャル応援セットとの
組み合わせでLv.100に育成できるセット"
450182,★5水属性の育成スペシャル応援セット,450182,200003200,"各クラスの育成スペシャル応援セットとの
組み合わせでLv.100に育成できるセット"
450183,★5月属性の育成スペシャル応援セット,450183,200003300,"各クラスの育成スペシャル応援セットとの
組み合わせでLv.100に育成できるセット"
450184,★5陽属性の育成スペシャル応援セット,450184,200003400,"各クラスの育成スペシャル応援セットとの
組み合わせでLv.100に育成できるセット"
450185,あんハピ♪★5コールセット,450185,200009300,"あんハピ♪★5コールチケット3個と
あんハピ♪メダル1個のセット"
450186,[Grade1]とっておき上昇の実,450186,0,"[Grade1]とっておき上昇の実の
1個セット"
450187,[Grade1]状態異常無効持続の実,450187,0,"[Grade1]状態異常無効持続の実の
1個セット"
450188,[Grade1]クイックドロウ持続の実,450188,0,"[Grade1]クイックドロウ持続の実の
1個セット"
450189,きんいろモザイク★5コールセット,450189,200009700,"きんいろモザイク★5コールチケット3個と
きんいろモザイクメダル1個のセット"
450190,うらら迷路帖★5コールセット,450190,200009800,"うらら迷路帖★5コールチケット3個と
うらら迷路帖メダル1個のセット"
450191,[Grade1]クリティカル持続の実,450191,0,"[Grade1]クリティカル持続の実の
1個セット"
450192,[Grade1]がまん持続の実,450192,0,"[Grade1]がまん持続の実の
1個セット"
450193,[Grade1]リカバリー持続の実,450193,0,"[Grade1]リカバリー持続の実の
1個セット"
450194,ぼっち・ざ・ろっく！参戦記念★5召喚セット,450194,200010300,"期間限定2022復刻★5確定召喚チケット3個と
ぼっち・ざ・ろっく！メダル1個のセット"
450195,オールスター★5コールチケット,450195,0,"オールスター★5コールチケットの
1個セット"
450196,オールスター★5確定召喚チケット,450196,0,"オールスター★5確定召喚チケットの
1個セット"
450197,[Grade1]とっておき上昇の実,450197,0,"[Grade1]とっておき上昇の実の
1個セット"
450198,[Grade1]とっておき上昇の実,450198,0,"[Grade1]とっておき上昇の実の
1個セット"
450199,[Grade1]クリティカル持続の実,450199,0,"[Grade1]クリティカル持続の実の
1個セット"
450200,[Grade1]状態異常無効持続の実,450200,0,"[Grade1]状態異常無効持続の実の
1個セット"
450201,[Grade1]状態異常無効持続の実,450201,0,"[Grade1]状態異常無効持続の実の
1個セット"
450202,[Grade1]がまん持続の実,450202,0,"[Grade1]がまん持続の実の
1個セット"
450203,[Grade1]クイックドロウ持続の実,450203,0,"[Grade1]クイックドロウ持続の実の
1個セット"
450204,[Grade1]クイックドロウ持続の実,450204,0,"[Grade1]クイックドロウ持続の実の
1個セット"
450205,[Grade1]リカバリー持続の実,450205,0,"[Grade1]リカバリー持続の実の
1個セット"
