﻿category,id,name,icon,badge,quests
0,0,"-プロローグ-
はるかなる旅立ち",https://texture-asset.kirafan.cn/advlibraryicon/advlibraryicon_0.png,Normal,{'1': 1100010}
0,1,"-1章-
この世界でも、笑顔を",https://texture-asset.kirafan.cn/advlibraryicon/advlibraryicon_1.png,Normal,"{'3': 1101030, '4': 1101040, '6': 1101060, '7': 1101070, '8': 1101080, '10': 1101100, '11': 1101110, '13': 1101130, '14': 1101140, '15': 1101150, '16': 1101160, '17': 1101170, '19': 1101190, '20': 1101200, '22': 1101220, '23': 1101230, '25': 1101250, '26': 1101260, '27': 1101270, '28': 1101280, '29': 1101290, '30': 1101300}"
0,2,"-2章-
続きから▷港町",https://texture-asset.kirafan.cn/advlibraryicon/advlibraryicon_2.png,Normal,"{'1': 1102010, '2': 1102020, '3': 1102030, '5': 1102050, '6': 1102060, '7': 1102070, '8': 1102080, '9': 1102090, '10': 1102100, '13': 1102130, '14': 1102140, '15': 1102150, '16': 1102160, '18': 1102180, '19': 1102190, '21': 1102210, '22': 1102220, '24': 1102240, '25': 1102250, '26': 1102260, '27': 1102270, '28': 1102280, '29': 1102290, '30': 1102300}"
0,3,"-3章-
さばくぐらし？",https://texture-asset.kirafan.cn/advlibraryicon/advlibraryicon_3.png,Normal,"{'1': 1103010, '2': 1103020, '4': 1103040, '5': 1103050, '6': 1103060, '12': 1103120, '14': 1103140, '15': 1103150, '16': 1103160, '17': 1103170, '18': 1103180, '19': 1103190, '20': 1103200, '21': 1103210, '22': 1103220, '24': 1103240, '25': 1103250, '26': 1103260, '28': 1103280, '29': 1103290}"
0,4,"-4章-
Ａのはざまにて",https://texture-asset.kirafan.cn/advlibraryicon/advlibraryicon_4.png,Normal,"{'1': 1104010, '2': 1104020, '3': 1104030, '4': 1104040, '6': 1104060, '8': 1104080, '9': 1104090, '10': 1104100, '12': 1104120, '13': 1104130, '14': 1104140, '15': 1104150, '16': 1104160, '17': 1104170, '18': 1104180, '19': 1104190, '21': 1104210, '22': 1104220, '23': 1104230, '24': 1104240, '25': 1104250, '30': 1104300}"
0,5,"-5章-
きんいろパニック",https://texture-asset.kirafan.cn/advlibraryicon/advlibraryicon_5.png,Normal,"{'2': 1105020, '3': 1105030, '5': 1105050, '6': 1105060, '9': 1105090, '11': 1105110, '12': 1105120, '13': 1105130, '14': 1105140, '15': 1105150, '16': 1105160, '17': 1105170, '18': 1105180, '20': 1105200, '21': 1105210, '22': 1105220, '23': 1105230, '24': 1105240, '25': 1105250, '26': 1105260, '27': 1105270, '29': 1105290, '30': 1105300}"
0,6,"-6章-
進め！デバッグ探検隊！",https://texture-asset.kirafan.cn/advlibraryicon/advlibraryicon_6.png,Normal,"{'1': 1106010, '2': 1106020, '3': 1106030, '4': 1106040, '5': 1106050, '6': 1106060, '7': 1106070, '8': 1106080, '9': 1106090, '11': 1106110, '12': 1106120, '13': 1106130, '14': 1106140, '16': 1106160, '17': 1106170, '18': 1106180, '19': 1106190, '20': 1106200, '21': 1106210, '22': 1106220, '23': 1106230, '24': 1106240, '27': 1106270, '28': 1106280, '30': 1106300, '31': 1106310, '32': 1106320}"
0,7,"-7章-
エトワリア学園情報処理部",https://texture-asset.kirafan.cn/advlibraryicon/advlibraryicon_7.png,Normal,"{'2': 1107020, '3': 1107030, '4': 1107040, '7': 1107070, '8': 1107080, '9': 1107090, '11': 1107110, '12': 1107120, '13': 1107130, '14': 1107140, '15': 1107150, '16': 1107160, '17': 1107170, '18': 1107180, '20': 1107200, '21': 1107210, '25': 1107250, '26': 1107260, '27': 1107270, '28': 1107280, '30': 1107300}"
0,8,"-8章-
導かれし未来",https://texture-asset.kirafan.cn/advlibraryicon/advlibraryicon_8.png,Normal,"{'3': 1108030, '5': 1108050, '6': 1108060, '8': 1108080, '9': 1108090, '11': 1108110, '13': 1108130, '14': 1108140, '15': 1108150, '16': 1108160, '17': 1108170, '18': 1108180, '20': 1108200, '21': 1108210, '23': 1108230, '26': 1108260, '27': 1108270}"
0,9,"-外伝-
筆頭神官の誓い",https://texture-asset.kirafan.cn/advlibraryicon/advlibraryicon_9.png,Normal,"{'8': 1108580, '9': 1108590, '13': 1108630, '14': 1108640, '15': 1108650}"
0,10,"-プロローグ-
はるかなる旅立ち",https://texture-asset.kirafan.cn/advlibraryicon/advlibraryicon_0.png,Hard,{'1': 1100011}
0,11,"-1章-
この世界でも、笑顔を",https://texture-asset.kirafan.cn/advlibraryicon/advlibraryicon_1.png,Hard,"{'3': 1101031, '4': 1101041, '6': 1101061, '7': 1101071, '8': 1101081, '10': 1101101, '11': 1101111, '13': 1101131, '14': 1101141, '15': 1101151, '16': 1101161, '17': 1101171, '19': 1101191, '20': 1101201, '22': 1101221, '23': 1101231, '25': 1101251, '26': 1101261, '27': 1101271, '28': 1101281, '29': 1101291, '30': 1101301}"
0,12,"-2章-
続きから▷港町",https://texture-asset.kirafan.cn/advlibraryicon/advlibraryicon_2.png,Hard,"{'1': 1102011, '2': 1102021, '3': 1102031, '5': 1102051, '6': 1102061, '7': 1102071, '8': 1102081, '9': 1102091, '10': 1102101, '13': 1102131, '14': 1102141, '15': 1102151, '16': 1102161, '18': 1102181, '19': 1102191, '21': 1102211, '22': 1102221, '24': 1102241, '25': 1102251, '26': 1102261, '27': 1102271, '28': 1102281, '29': 1102291, '30': 1102301}"
0,13,"-3章-
さばくぐらし？",https://texture-asset.kirafan.cn/advlibraryicon/advlibraryicon_3.png,Hard,"{'1': 1103011, '2': 1103021, '4': 1103041, '5': 1103051, '6': 1103061, '12': 1103121, '14': 1103141, '15': 1103151, '16': 1103161, '17': 1103171, '18': 1103181, '19': 1103191, '20': 1103201, '21': 1103211, '22': 1103221, '24': 1103241, '25': 1103251, '26': 1103261, '28': 1103281, '29': 1103291}"
0,14,"-4章-
Ａのはざまにて",https://texture-asset.kirafan.cn/advlibraryicon/advlibraryicon_4.png,Hard,"{'1': 1104011, '2': 1104021, '3': 1104031, '4': 1104041, '6': 1104061, '8': 1104081, '9': 1104091, '10': 1104101, '12': 1104121, '13': 1104131, '14': 1104141, '15': 1104151, '16': 1104161, '17': 1104171, '18': 1104181, '19': 1104191, '21': 1104211, '22': 1104221, '23': 1104231, '24': 1104241, '25': 1104251, '30': 1104301}"
0,15,"-5章-
きんいろパニック",https://texture-asset.kirafan.cn/advlibraryicon/advlibraryicon_5.png,Hard,"{'2': 1105021, '3': 1105031, '5': 1105051, '6': 1105061, '9': 1105091, '11': 1105111, '12': 1105121, '13': 1105131, '14': 1105141, '15': 1105151, '16': 1105161, '17': 1105171, '18': 1105181, '20': 1105201, '21': 1105211, '22': 1105221, '23': 1105231, '24': 1105241, '25': 1105251, '26': 1105261, '27': 1105271, '29': 1105291, '30': 1105301}"
0,16,"-6章-
進め！デバッグ探検隊！",https://texture-asset.kirafan.cn/advlibraryicon/advlibraryicon_6.png,Hard,"{'1': 1106011, '2': 1106021, '3': 1106031, '4': 1106041, '5': 1106051, '6': 1106061, '7': 1106071, '8': 1106081, '9': 1106091, '11': 1106111, '12': 1106121, '13': 1106131, '14': 1106141, '16': 1106161, '17': 1106171, '18': 1106181, '19': 1106191, '20': 1106201, '21': 1106211, '22': 1106221, '23': 1106231, '24': 1106241, '27': 1106271, '28': 1106281, '30': 1106301, '31': 1106311, '32': 1106321}"
0,17,"-7章-
エトワリア学園情報処理部",https://texture-asset.kirafan.cn/advlibraryicon/advlibraryicon_7.png,Hard,"{'2': 1107021, '3': 1107031, '4': 1107041, '7': 1107071, '8': 1107081, '9': 1107091, '11': 1107111, '12': 1107121, '13': 1107131, '14': 1107141, '15': 1107151, '16': 1107161, '17': 1107171, '18': 1107181, '20': 1107201, '21': 1107211, '25': 1107251, '26': 1107261, '27': 1107271, '28': 1107281, '30': 1107301}"
0,18,"-8章-
導かれし未来",https://texture-asset.kirafan.cn/advlibraryicon/advlibraryicon_8.png,Hard,"{'3': 1108031, '5': 1108051, '6': 1108061, '8': 1108081, '9': 1108091, '11': 1108111, '13': 1108131, '14': 1108141, '15': 1108151, '16': 1108161, '17': 1108171, '18': 1108181, '20': 1108201, '21': 1108211, '23': 1108231, '26': 1108261, '27': 1108271}"
0,20,"-プロローグ-
はるかなる旅立ち",https://texture-asset.kirafan.cn/advlibraryicon/advlibraryicon_0.png,Star,{'1': 1100012}
0,21,"-1章-
この世界でも、笑顔を",https://texture-asset.kirafan.cn/advlibraryicon/advlibraryicon_1.png,Star,"{'3': 1101032, '4': 1101042, '6': 1101062, '7': 1101072, '8': 1101082, '10': 1101102, '11': 1101112, '13': 1101132, '14': 1101142, '15': 1101152, '16': 1101162, '17': 1101172, '19': 1101192, '20': 1101202, '22': 1101222, '23': 1101232, '25': 1101252, '26': 1101262, '27': 1101272, '28': 1101282, '29': 1101292, '30': 1101302}"
0,22,"-2章-
続きから▷港町",https://texture-asset.kirafan.cn/advlibraryicon/advlibraryicon_2.png,Star,"{'1': 1102012, '2': 1102022, '3': 1102032, '5': 1102052, '6': 1102062, '7': 1102072, '8': 1102082, '9': 1102092, '10': 1102102, '13': 1102132, '14': 1102142, '15': 1102152, '16': 1102162, '18': 1102182, '19': 1102192, '21': 1102212, '22': 1102222, '24': 1102242, '25': 1102252, '26': 1102262, '27': 1102272, '28': 1102282, '29': 1102292, '30': 1102302}"
0,23,"-3章-
さばくぐらし？",https://texture-asset.kirafan.cn/advlibraryicon/advlibraryicon_3.png,Star,"{'1': 1103012, '2': 1103022, '4': 1103042, '5': 1103052, '6': 1103062, '12': 1103122, '14': 1103142, '15': 1103152, '16': 1103162, '17': 1103172, '18': 1103182, '19': 1103192, '20': 1103202, '21': 1103212, '22': 1103222, '24': 1103242, '25': 1103252, '26': 1103262, '28': 1103282, '29': 1103292}"
0,24,"-4章-
Ａのはざまにて",https://texture-asset.kirafan.cn/advlibraryicon/advlibraryicon_4.png,Star,"{'1': 1104012, '2': 1104022, '3': 1104032, '4': 1104042, '6': 1104062, '8': 1104082, '9': 1104092, '10': 1104102, '12': 1104122, '13': 1104132, '14': 1104142, '15': 1104152, '16': 1104162, '17': 1104172, '18': 1104182, '19': 1104192, '21': 1104212, '22': 1104222, '23': 1104232, '24': 1104242, '25': 1104252, '30': 1104302}"
0,100,"-プロローグ-
新たな旅、謎の女の子",https://texture-asset.kirafan.cn/advlibraryicon/advlibraryicon_100.png,Normal,"{'2': 1200020, '3': 1200030}"
0,101,"-1章-
まちカドまおう",https://texture-asset.kirafan.cn/advlibraryicon/advlibraryicon_101.png,Normal,"{'1': 1201010, '3': 1201030, '4': 1201040, '5': 1201050, '6': 1201060, '7': 1201070, '8': 1201080, '9': 1201090, '12': 1201120, '15': 1201150, '16': 1201160, '17': 1201170, '18': 1201180, '20': 1201200, '21': 1201210, '22': 1201220, '23': 1201230, '25': 1201250, '26': 1201260, '27': 1201270, '29': 1201290, '30': 1201300, '31': 1201310, '80': 1201800, '90': 1201900}"
0,102,"-2章-
頼りはボディーガード？",https://texture-asset.kirafan.cn/advlibraryicon/advlibraryicon_102.png,Normal,"{'2': 1202020, '3': 1202030, '4': 1202040, '5': 1202050, '6': 1202060, '8': 1202080, '10': 1202100, '11': 1202110, '13': 1202130, '14': 1202140, '15': 1202150, '16': 1202160, '17': 1202170, '20': 1202200, '21': 1202210, '22': 1202220, '23': 1202230, '25': 1202250, '26': 1202260, '28': 1202280, '29': 1202290, '30': 1202300, '31': 1202310, '80': 1202800, '90': 1202900}"
0,103,"-3章-
げいじゅつのみやこ",https://texture-asset.kirafan.cn/advlibraryicon/advlibraryicon_103.png,Normal,"{'2': 1203020, '3': 1203030, '4': 1203040, '5': 1203050, '6': 1203060, '7': 1203070, '9': 1203090, '10': 1203100, '12': 1203120, '13': 1203130, '15': 1203150, '16': 1203160, '17': 1203170, '18': 1203180, '19': 1203190, '23': 1203230, '24': 1203240, '26': 1203260, '28': 1203280, '29': 1203290, '30': 1203300, '80': 1203800, '90': 1203900}"
0,104,"-4章-
うつつはひとりぼっち",https://texture-asset.kirafan.cn/advlibraryicon/advlibraryicon_104.png,Normal,"{'2': 1204020, '3': 1204030, '4': 1204040, '5': 1204050, '6': 1204060, '7': 1204070, '9': 1204090, '10': 1204100, '12': 1204120, '14': 1204140, '15': 1204150, '16': 1204160, '18': 1204180, '19': 1204190, '21': 1204210, '22': 1204220, '24': 1204240, '25': 1204250, '26': 1204260, '27': 1204270, '29': 1204290, '30': 1204300, '31': 1204310, '80': 1204800, '90': 1204900}"
0,105,"-5章-
ご注文はゲリラですか？",https://texture-asset.kirafan.cn/advlibraryicon/advlibraryicon_105.png,Normal,"{'2': 1205020, '3': 1205030, '4': 1205040, '5': 1205050, '6': 1205060, '7': 1205070, '8': 1205080, '9': 1205090, '10': 1205100, '11': 1205110, '12': 1205120, '14': 1205140, '17': 1205170, '18': 1205180, '19': 1205190, '21': 1205210, '23': 1205230, '25': 1205250, '26': 1205260, '27': 1205270, '28': 1205280, '30': 1205300, '80': 1205800, '90': 1205900}"
0,106,"-6章-
はじまらなかったものがたり",https://texture-asset.kirafan.cn/advlibraryicon/advlibraryicon_106.png,Normal,"{'2': 1206020, '3': 1206030, '4': 1206040, '5': 1206050, '6': 1206060, '7': 1206070, '8': 1206080, '9': 1206090, '10': 1206100, '12': 1206120, '13': 1206130, '16': 1206160, '17': 1206170, '18': 1206180, '19': 1206190, '20': 1206200, '22': 1206220, '25': 1206250, '26': 1206260, '27': 1206270, '28': 1206280, '30': 1206300, '80': 1206800, '90': 1206900}"
0,107,"-7章-
連鎖する悪夢",https://texture-asset.kirafan.cn/advlibraryicon/advlibraryicon_107.png,Normal,"{'1': 1207010, '2': 1207020, '4': 1207040, '5': 1207050, '7': 1207070, '10': 1207100, '11': 1207110, '12': 1207120, '15': 1207150, '17': 1207170, '19': 1207190, '21': 1207210, '23': 1207230, '25': 1207250, '26': 1207260, '27': 1207270, '28': 1207280, '29': 1207290, '30': 1207300, '80': 1207800, '90': 1207900}"
0,108,"-8章-
旅の終わりは近づいて",https://texture-asset.kirafan.cn/advlibraryicon/advlibraryicon_108.png,Normal,"{'2': 1208020, '3': 1208030, '4': 1208040, '5': 1208050, '7': 1208070, '8': 1208080, '9': 1208090, '10': 1208100, '11': 1208110, '13': 1208130, '14': 1208140, '15': 1208150, '16': 1208160, '17': 1208170, '19': 1208190, '20': 1208200, '21': 1208210, '22': 1208220, '23': 1208230, '25': 1208250, '26': 1208260, '27': 1208270, '28': 1208280, '29': 1208290, '30': 1208300, '31': 1208310, '80': 1208800, '90': 1208900}"
0,109,"-最終章-
終わってから始まる物語",https://texture-asset.kirafan.cn/advlibraryicon/advlibraryicon_109.png,Normal,"{'4': 1209040, '5': 1209050}"
1,1000,マッシュルームベイベー,https://texture-asset.kirafan.cn/advlibraryicon/advlibraryicon_1000.png,,"{'2': 3100002, '3': 3100003, '4': 3100004, '5': 3100005, '6': 3100006, '7': 3100007, '8': 3100008, '9': 3100009, '10': 3100010, '11': 3100011, '12': 3100012, '13': 3100013, '15': 3100015, '16': 3100016, '17': 3100017, '18': 3100018, '19': 3100019, '20': 3100020}"
1,1001,エトワリアのサンタクロース,https://texture-asset.kirafan.cn/advlibraryicon/advlibraryicon_1001.png,,"{'2': 3100102, '3': 3100103, '4': 3100104, '5': 3100105, '6': 3100106, '7': 3100107, '8': 3100108, '9': 3100109, '10': 3100110, '11': 3100111, '12': 3100112, '13': 3100113, '15': 3100115, '16': 3100116, '17': 3100117, '18': 3100118, '19': 3100119, '20': 3100120, '21': 3100121, '22': 3100122, '23': 3100123}"
1,1002,きんいろNEW YEAR!,https://texture-asset.kirafan.cn/advlibraryicon/advlibraryicon_1002.png,,"{'3': 3100203, '4': 3100204, '6': 3100206, '7': 3100207, '9': 3100209, '10': 3100210, '12': 3100212, '13': 3100213, '17': 3100217, '18': 3100218, '19': 3100219, '20': 3100220}"
1,1003,スティーレ 2号店オープン！,https://texture-asset.kirafan.cn/advlibraryicon/advlibraryicon_1003.png,,"{'9': 3100309, '14': 3100314, '19': 3100319, '10': 3100310, '11': 3100311, '15': 3100315, '16': 3100316, '20': 3100320, '21': 3100321, '23': 3100323, '24': 3100324, '26': 3100326, '27': 3100327, '28': 3100328, '29': 3100329, '30': 3100330}"
1,1005,チョコレートクエスト,https://texture-asset.kirafan.cn/advlibraryicon/advlibraryicon_1005.png,,"{'2': 3100502, '3': 3100503, '4': 3100504, '5': 3100505, '6': 3100506, '9': 3100509, '10': 3100510, '13': 3100513, '14': 3100514, '15': 3100515, '17': 3100517, '18': 3100518, '19': 3100519, '20': 3100520, '21': 3100521, '22': 3100522, '23': 3100523}"
1,1006,鍛冶師の夢を喰らう者,https://texture-asset.kirafan.cn/advlibraryicon/advlibraryicon_1006.png,,"{'3': 3100603, '4': 3100604, '5': 3100605, '6': 3100606, '7': 3100607, '9': 3100609, '12': 3100612, '13': 3100613, '15': 3100615, '16': 3100616, '17': 3100617}"
1,1007,風雲！ヒナ祭り,https://texture-asset.kirafan.cn/advlibraryicon/advlibraryicon_1007.png,,"{'3': 3100703, '5': 3100705, '7': 3100707, '8': 3100708, '9': 3100709, '11': 3100711, '12': 3100712, '13': 3100713, '15': 3100715, '16': 3100716, '17': 3100717, '18': 3100718, '19': 3100719, '20': 3100720, '21': 3100721}"
1,1008,ねねっちクエスト,https://texture-asset.kirafan.cn/advlibraryicon/advlibraryicon_1008.png,,"{'2': 3100802, '3': 3100803, '4': 3100804, '5': 3100805, '8': 3100808, '9': 3100809, '10': 3100810, '11': 3100811, '13': 3100813, '14': 3100814, '15': 3100815, '16': 3100816, '19': 3100819, '20': 3100820, '21': 3100821}"
1,1009,Fairies Trick,https://texture-asset.kirafan.cn/advlibraryicon/advlibraryicon_1009.png,,"{'3': 3100903, '4': 3100904, '5': 3100905, '8': 3100908, '9': 3100909, '10': 3100910, '11': 3100911, '13': 3100913, '97': 3100997, '98': 3100998, '99': 3100999}"
1,1010,友達の友達は友達大作戦,https://texture-asset.kirafan.cn/advlibraryicon/advlibraryicon_1010.png,,"{'3': 3101003, '4': 3101004, '5': 3101005, '8': 3101008, '9': 3101009, '10': 3101010, '13': 3101013, '14': 3101014, '15': 3101015, '17': 3101017, '18': 3101018, '19': 3101019, '20': 3101020, '21': 3101021, '22': 3101022, '23': 3101023}"
1,1011,野クルと北の山と初キャンプ△,https://texture-asset.kirafan.cn/advlibraryicon/advlibraryicon_1011.png,,"{'3': 3101103, '5': 3101105, '7': 3101107, '10': 3101110, '11': 3101111, '12': 3101112, '13': 3101113, '14': 3101114, '15': 3101115, '16': 3101116, '97': 3101197, '98': 3101198, '99': 3101199}"
1,1012,エトワリアの歌姫,https://texture-asset.kirafan.cn/advlibraryicon/advlibraryicon_1012.png,,"{'2': 3101202, '3': 3101203, '4': 3101204, '5': 3101205, '6': 3101206, '7': 3101207, '9': 3101209, '11': 3101211, '13': 3101213, '14': 3101214, '97': 3101297, '98': 3101298, '99': 3101299}"
1,1013,リメンバー・よさこい,https://texture-asset.kirafan.cn/advlibraryicon/advlibraryicon_1013.png,,"{'3': 3101303, '5': 3101305, '6': 3101306, '12': 3101312, '14': 3101314, '15': 3101315, '16': 3101316, '17': 3101317, '18': 3101318, '19': 3101319, '20': 3101320, '21': 3101321, '22': 3101322, '23': 3101323, '24': 3101324, '25': 3101325, '26': 3101326, '27': 3101327, '28': 3101328, '29': 3101329, '30': 3101330}"
1,1014,創刊！コミックエトワリア,https://texture-asset.kirafan.cn/advlibraryicon/advlibraryicon_1014.png,,"{'2': 3101402, '3': 3101403, '4': 3101404, '5': 3101405, '6': 3101406, '7': 3101407, '8': 3101408, '9': 3101409, '10': 3101410, '11': 3101411, '12': 3101412, '13': 3101413, '15': 3101415, '16': 3101416, '17': 3101417, '18': 3101418, '98': 3101498, '99': 3101499}"
1,1015,くるみインワンダーランド,https://texture-asset.kirafan.cn/advlibraryicon/advlibraryicon_1015.png,,"{'2': 3101502, '5': 3101505, '6': 3101506, '7': 3101507, '8': 3101508, '9': 3101509, '14': 3101514, '15': 3101515, '16': 3101516, '17': 3101517, '18': 3101518, '19': 3101519, '20': 3101520, '21': 3101521, '22': 3101522, '23': 3101523, '99': 3101599}"
1,1016,けいおん！　エトワリアライブ！！,https://texture-asset.kirafan.cn/advlibraryicon/advlibraryicon_1016.png,,"{'5': 3101605, '6': 3101606, '7': 3101607, '8': 3101608, '9': 3101609, '11': 3101611, '12': 3101612, '13': 3101613, '14': 3101614, '16': 3101616, '18': 3101618, '19': 3101619, '20': 3101620, '22': 3101622, '26': 3101626, '27': 3101627, '28': 3101628, '29': 3101629, '30': 3101630, '31': 3101631, '32': 3101632, '33': 3101633, '99': 3101699}"
1,1017,海の家オブザイヤー,https://texture-asset.kirafan.cn/advlibraryicon/advlibraryicon_1017.png,,"{'3': 3101703, '5': 3101705, '12': 3101712, '14': 3101714, '15': 3101715, '16': 3101716, '17': 3101717, '18': 3101718, '20': 3101720, '21': 3101721, '22': 3101722, '23': 3101723, '24': 3101724, '25': 3101725, '99': 3101799}"
1,1018,海の底の玉手箱,https://texture-asset.kirafan.cn/advlibraryicon/advlibraryicon_1018.png,,"{'3': 3101803, '4': 3101804, '5': 3101805, '6': 3101806, '8': 3101808, '9': 3101809, '11': 3101811, '12': 3101812, '15': 3101815, '16': 3101816, '17': 3101817, '18': 3101818, '19': 3101819, '20': 3101820, '21': 3101821, '22': 3101822, '23': 3101823, '24': 3101824, '98': 3101898, '99': 3101899}"
1,1020,謎の島と絆の試練,https://texture-asset.kirafan.cn/advlibraryicon/advlibraryicon_1020.png,,"{'2': 3102002, '3': 3102003, '4': 3102004, '8': 3102008, '9': 3102009, '10': 3102010, '13': 3102013, '14': 3102014, '17': 3102017, '18': 3102018, '19': 3102019, '20': 3102020, '21': 3102021, '22': 3102022, '23': 3102023, '24': 3102024, '98': 3102098, '99': 3102099}"
1,1021,名探偵コロネット ユーの悲劇,https://texture-asset.kirafan.cn/advlibraryicon/advlibraryicon_1021.png,,"{'2': 3102102, '5': 3102105, '6': 3102106, '7': 3102107, '8': 3102108, '9': 3102109, '10': 3102110, '14': 3102114, '17': 3102117, '18': 3102118, '19': 3102119, '20': 3102120, '21': 3102121, '22': 3102122, '23': 3102123, '24': 3102124, '25': 3102125, '98': 3102198, '99': 3102199}"
1,1022,宮子とねこのうた,https://texture-asset.kirafan.cn/advlibraryicon/advlibraryicon_1022.png,,"{'3': 3102203, '4': 3102204, '5': 3102205, '9': 3102209, '10': 3102210, '11': 3102211, '12': 3102212, '13': 3102213, '14': 3102214, '15': 3102215, '18': 3102218, '19': 3102219, '20': 3102220, '21': 3102221, '22': 3102222, '23': 3102223, '99': 3102299}"
1,1023,復刻・スティーレ 2号店オープン！,https://texture-asset.kirafan.cn/advlibraryicon/advlibraryicon_1023.png,,"{'2': 3102302, '4': 3102304, '7': 3102307, '9': 3102309, '10': 3102310, '13': 3102313, '14': 3102314, '17': 3102317, '18': 3102318, '20': 3102320, '21': 3102321, '27': 3102327, '28': 3102328, '29': 3102329, '30': 3102330, '31': 3102331, '32': 3102332, '33': 3102333, '34': 3102334, '98': 3102398, '99': 3102399}"
1,1024,ヒバリとりーさんと幸福の花,https://texture-asset.kirafan.cn/advlibraryicon/advlibraryicon_1024.png,,"{'2': 3102402, '3': 3102403, '5': 3102405, '7': 3102407, '8': 3102408, '9': 3102409, '10': 3102410, '11': 3102411, '13': 3102413, '16': 3102416, '17': 3102417, '18': 3102418, '19': 3102419, '20': 3102420, '21': 3102421, '22': 3102422, '23': 3102423, '98': 3102498, '99': 3102499}"
1,1025,異世界でもうさぎですか？,https://texture-asset.kirafan.cn/advlibraryicon/advlibraryicon_1025.png,,"{'2': 3102502, '3': 3102503, '4': 3102504, '5': 3102505, '6': 3102506, '7': 3102507, '10': 3102510, '12': 3102512, '14': 3102514, '16': 3102516, '19': 3102519, '20': 3102520, '21': 3102521, '22': 3102522, '23': 3102523, '24': 3102524, '25': 3102525, '26': 3102526, '99': 3102599}"
1,1026,Yell for All,https://texture-asset.kirafan.cn/advlibraryicon/advlibraryicon_1026.png,,"{'3': 3102603, '6': 3102606, '8': 3102608, '10': 3102610, '11': 3102611, '12': 3102612, '13': 3102613, '14': 3102614, '15': 3102615, '16': 3102616, '20': 3102620, '22': 3102622, '23': 3102623, '24': 3102624, '25': 3102625, '26': 3102626, '27': 3102627, '28': 3102628, '29': 3102629, '30': 3102630, '31': 3102631, '32': 3102632, '33': 3102633, '99': 3102699}"
1,1027,エトワリアのブラック・クリスマス,https://texture-asset.kirafan.cn/advlibraryicon/advlibraryicon_1027.png,,"{'5': 3102705, '6': 3102706, '7': 3102707, '9': 3102709, '10': 3102710, '16': 3102716, '17': 3102717, '19': 3102719, '21': 3102721, '22': 3102722, '23': 3102723, '24': 3102724, '25': 3102725, '26': 3102726, '27': 3102727, '28': 3102728, '98': 3102798, '99': 3102799}"
1,1028,クリエメイト大集合！　お正月すごろく大会　予選,https://texture-asset.kirafan.cn/advlibraryicon/advlibraryicon_1028.png,,"{'6': 3102806, '7': 3102807, '8': 3102808, '9': 3102809, '10': 3102810, '11': 3102811, '12': 3102812, '13': 3102813, '99': 3102899}"
1,1029,クリエメイト大集合！　お正月すごろく大会　本戦,https://texture-asset.kirafan.cn/advlibraryicon/advlibraryicon_1029.png,,"{'1': 3102901, '2': 3102902, '3': 3102903, '4': 3102904, '5': 3102905, '6': 3102906, '7': 3102907, '8': 3102908, '9': 3102909, '10': 3102910, '11': 3102911, '12': 3102912, '13': 3102913, '14': 3102914, '15': 3102915, '17': 3102917, '18': 3102918, '19': 3102919, '20': 3102920, '21': 3102921, '23': 3102923, '24': 3102924, '25': 3102925, '26': 3102926, '27': 3102927, '28': 3102928, '29': 3102929, '30': 3102930, '99': 3102999}"
1,1030,復刻・野クルと北の山と初キャンプ△,https://texture-asset.kirafan.cn/advlibraryicon/advlibraryicon_1030.png,,"{'3': 3103003, '5': 3103005, '7': 3103007, '10': 3103010, '11': 3103011, '12': 3103012, '13': 3103013, '14': 3103014, '15': 3103015, '16': 3103016, '98': 3103098, '99': 3103099}"
1,1031,チョコレートパニック,https://texture-asset.kirafan.cn/advlibraryicon/advlibraryicon_1031.png,,"{'7': 3103107, '8': 3103108, '9': 3103109, '10': 3103110, '11': 3103111, '12': 3103112, '13': 3103113, '14': 3103114, '17': 3103117, '18': 3103118, '19': 3103119, '20': 3103120, '21': 3103121, '22': 3103122, '23': 3103123, '24': 3103124, '98': 3103198, '99': 3103199}"
1,1032,エトワリア冒険譚　リゼ教官の秘密特訓,https://texture-asset.kirafan.cn/advlibraryicon/advlibraryicon_1032.png,,"{'2': 3103202, '3': 3103203, '4': 3103204, '7': 3103207, '8': 3103208, '9': 3103209, '10': 3103210, '11': 3103211, '12': 3103212, '13': 3103213, '14': 3103214, '16': 3103216, '17': 3103217, '18': 3103218, '19': 3103219, '23': 3103223, '25': 3103225, '26': 3103226, '27': 3103227, '28': 3103228, '98': 3103298, '99': 3103299}"
1,1033,エトワリア冒険譚　目覚める鋼鉄の巨人,https://texture-asset.kirafan.cn/advlibraryicon/advlibraryicon_1033.png,,"{'2': 3103302, '3': 3103303, '4': 3103304, '5': 3103305, '6': 3103306, '7': 3103307, '8': 3103308, '9': 3103309, '10': 3103310, '12': 3103312, '14': 3103314, '15': 3103315, '16': 3103316, '17': 3103317, '18': 3103318, '20': 3103320, '22': 3103322, '23': 3103323, '24': 3103324, '25': 3103325, '28': 3103328, '29': 3103329, '31': 3103331, '32': 3103332, '33': 3103333, '34': 3103334, '97': 3103397, '98': 3103398, '99': 3103399}"
1,1034,復刻・友達の友達は友達大作戦,https://texture-asset.kirafan.cn/advlibraryicon/advlibraryicon_1034.png,,"{'3': 3103403, '4': 3103404, '5': 3103405, '8': 3103408, '9': 3103409, '10': 3103410, '13': 3103413, '14': 3103414, '15': 3103415, '17': 3103417, '18': 3103418, '19': 3103419, '20': 3103420, '21': 3103421, '22': 3103422, '23': 3103423, '24': 3103424, '99': 3103499}"
1,1035,三者三葉ぶらり旅,https://texture-asset.kirafan.cn/advlibraryicon/advlibraryicon_1035.png,,"{'3': 3103503, '7': 3103507, '8': 3103508, '9': 3103509, '10': 3103510, '12': 3103512, '13': 3103513, '16': 3103516, '17': 3103517, '18': 3103518, '19': 3103519, '20': 3103520, '21': 3103521, '22': 3103522, '23': 3103523, '98': 3103598, '99': 3103599}"
1,1036,棺担ぎとＧＡと黄金のクロモン像,https://texture-asset.kirafan.cn/advlibraryicon/advlibraryicon_1036.png,,"{'6': 3103606, '7': 3103607, '8': 3103608, '9': 3103609, '11': 3103611, '14': 3103614, '15': 3103615, '16': 3103616, '19': 3103619, '20': 3103620, '21': 3103621, '22': 3103622, '23': 3103623, '24': 3103624, '25': 3103625, '26': 3103626, '99': 3103699}"
1,1037,甘兎庵の野望,https://texture-asset.kirafan.cn/advlibraryicon/advlibraryicon_1037.png,,"{'3': 3103703, '5': 3103705, '9': 3103709, '10': 3103710, '11': 3103711, '13': 3103713, '16': 3103716, '17': 3103717, '18': 3103718, '19': 3103719, '20': 3103720, '21': 3103721, '22': 3103722, '23': 3103723, '24': 3103724, '25': 3103725, '26': 3103726, '27': 3103727, '99': 3103799}"
1,1039,開催！　エトワリア大運動会,https://texture-asset.kirafan.cn/advlibraryicon/advlibraryicon_1039.png,,"{'4': 3103904, '5': 3103905, '8': 3103908, '11': 3103911, '12': 3103912, '15': 3103915, '17': 3103917, '20': 3103920, '21': 3103921, '22': 3103922, '23': 3103923, '24': 3103924, '25': 3103925, '26': 3103926, '27': 3103927, '28': 3103928, '29': 3103929, '30': 3103930, '31': 3103931, '32': 3103932, '99': 3103999}"
1,1040,さすらいの賞金稼ぎ リン＆カレン,https://texture-asset.kirafan.cn/advlibraryicon/advlibraryicon_1040.png,,"{'2': 3104002, '4': 3104004, '5': 3104005, '6': 3104006, '9': 3104009, '10': 3104010, '13': 3104013, '14': 3104014, '16': 3104016, '17': 3104017, '18': 3104018, '19': 3104019, '20': 3104020, '21': 3104021, '22': 3104022, '23': 3104023, '98': 3104098, '99': 3104099}"
1,1041,復刻・創刊！コミックエトワリア,https://texture-asset.kirafan.cn/advlibraryicon/advlibraryicon_1041.png,,"{'2': 3104102, '3': 3104103, '4': 3104104, '5': 3104105, '6': 3104106, '7': 3104107, '8': 3104108, '9': 3104109, '10': 3104110, '11': 3104111, '12': 3104112, '13': 3104113, '15': 3104115, '16': 3104116, '17': 3104117, '18': 3104118, '98': 3104198, '99': 3104199}"
1,1042,復刻・謎の島と絆の試練,https://texture-asset.kirafan.cn/advlibraryicon/advlibraryicon_1042.png,,"{'2': 3104202, '3': 3104203, '4': 3104204, '8': 3104208, '9': 3104209, '10': 3104210, '13': 3104213, '14': 3104214, '17': 3104217, '18': 3104218, '19': 3104219, '20': 3104220, '21': 3104221, '22': 3104222, '23': 3104223, '24': 3104224, '98': 3104298, '99': 3104299}"
1,1044,エトワリア夏の一幕2019,https://texture-asset.kirafan.cn/advlibraryicon/advlibraryicon_1044.png,,"{'6': 3104406, '7': 3104407, '8': 3104408, '9': 3104409, '10': 3104410, '11': 3104411, '12': 3104412, '13': 3104413, '99': 3104499}"
1,1045,リュウグウ・アドベンチャー,https://texture-asset.kirafan.cn/advlibraryicon/advlibraryicon_1045.png,,"{'6': 3104506, '7': 3104507, '8': 3104508, '9': 3104509, '10': 3104510, '11': 3104511, '12': 3104512, '13': 3104513, '15': 3104515, '16': 3104516, '17': 3104517, '18': 3104518, '19': 3104519, '20': 3104520, '21': 3104521, '22': 3104522, '23': 3104523, '24': 3104524, '25': 3104525, '26': 3104526, '98': 3104598, '99': 3104599}"
1,1047,パイレーツオブエトワリア,https://texture-asset.kirafan.cn/advlibraryicon/advlibraryicon_1047.png,,"{'4': 3104704, '5': 3104705, '6': 3104706, '7': 3104707, '8': 3104708, '9': 3104709, '12': 3104712, '15': 3104715, '16': 3104716, '17': 3104717, '18': 3104718, '19': 3104719, '20': 3104720, '21': 3104721, '22': 3104722, '97': 3104797, '98': 3104798, '99': 3104799}"
1,1049,いせかいまぞくとごせん像,https://texture-asset.kirafan.cn/advlibraryicon/advlibraryicon_1049.png,,"{'2': 3104902, '3': 3104903, '5': 3104905, '8': 3104908, '9': 3104909, '11': 3104911, '12': 3104912, '15': 3104915, '16': 3104916, '17': 3104917, '18': 3104918, '19': 3104919, '20': 3104920, '21': 3104921, '22': 3104922, '98': 3104998, '99': 3104999}"
1,1051,はたらくチマメ隊,https://texture-asset.kirafan.cn/advlibraryicon/advlibraryicon_1051.png,,"{'2': 3105102, '3': 3105103, '4': 3105104, '5': 3105105, '7': 3105107, '8': 3105108, '10': 3105110, '14': 3105114, '16': 3105116, '17': 3105117, '18': 3105118, '19': 3105119, '20': 3105120, '21': 3105121, '22': 3105122, '23': 3105123, '98': 3105198, '99': 3105199}"
1,1052,トリックオアトリート大作戦,https://texture-asset.kirafan.cn/advlibraryicon/advlibraryicon_1052.png,,"{'4': 3105204, '8': 3105208, '9': 3105209, '11': 3105211, '12': 3105212, '13': 3105213, '14': 3105214, '17': 3105217, '18': 3105218, '19': 3105219, '20': 3105220, '21': 3105221, '22': 3105222, '23': 3105223, '24': 3105224, '98': 3105298, '99': 3105299}"
1,1053,ユタカの弟子入り志願,https://texture-asset.kirafan.cn/advlibraryicon/advlibraryicon_1053.png,,"{'3': 3105303, '4': 3105304, '6': 3105306, '9': 3105309, '10': 3105310, '13': 3105313, '14': 3105314, '16': 3105316, '17': 3105317, '18': 3105318, '19': 3105319, '20': 3105320, '21': 3105321, '22': 3105322, '23': 3105323, '98': 3105398, '99': 3105399}"
1,1054,エトワリア&エクスプローラー,https://texture-asset.kirafan.cn/advlibraryicon/advlibraryicon_1054.png,,"{'6': 3105406, '7': 3105407, '9': 3105409, '10': 3105410, '11': 3105411, '14': 3105414, '15': 3105415, '17': 3105417, '18': 3105418, '19': 3105419, '20': 3105420, '21': 3105421, '22': 3105422, '23': 3105423, '24': 3105424, '98': 3105498, '99': 3105499}"
1,1055,ランプの限界チャレンジ！,https://texture-asset.kirafan.cn/advlibraryicon/advlibraryicon_1055.png,,{'99': 3105599}
1,1056,ハングリークリスマス,https://texture-asset.kirafan.cn/advlibraryicon/advlibraryicon_1056.png,,"{'2': 3105602, '8': 3105608, '9': 3105609, '11': 3105611, '12': 3105612, '13': 3105613, '15': 3105615, '16': 3105616, '17': 3105617, '18': 3105618, '19': 3105619, '20': 3105620, '21': 3105621, '22': 3105622, '98': 3105698, '99': 3105699}"
1,1057,年末年始特番！　お正月だよエトワリア,https://texture-asset.kirafan.cn/advlibraryicon/advlibraryicon_1057.png,,"{'3': 3105703, '5': 3105705, '6': 3105706, '9': 3105709, '10': 3105710, '14': 3105714, '16': 3105716, '17': 3105717, '19': 3105719, '20': 3105720, '21': 3105721, '22': 3105722, '23': 3105723, '24': 3105724, '25': 3105725, '26': 3105726, '98': 3105798, '99': 3105799}"
1,1058,新春！　育成応援キャンペーン,https://texture-asset.kirafan.cn/advlibraryicon/advlibraryicon_1058.png,,"{'1': 3105801, '2': 3105802, '3': 3105803, '4': 3105804, '99': 3105899}"
1,1059,闇チョコシンジケートを追え！,https://texture-asset.kirafan.cn/advlibraryicon/advlibraryicon_1059.png,,"{'2': 3105902, '5': 3105905, '6': 3105906, '7': 3105907, '9': 3105909, '14': 3105914, '15': 3105915, '17': 3105917, '18': 3105918, '19': 3105919, '20': 3105920, '21': 3105921, '22': 3105922, '23': 3105923, '24': 3105924, '98': 3105998, '99': 3105999}"
1,1061,勇者のグルメ～エトワリア食紀行～,https://texture-asset.kirafan.cn/advlibraryicon/advlibraryicon_1061.png,,"{'5': 3106105, '6': 3106106, '7': 3106107, '9': 3106109, '10': 3106110, '11': 3106111, '12': 3106112, '15': 3106115, '16': 3106116, '17': 3106117, '18': 3106118, '19': 3106119, '20': 3106120, '21': 3106121, '22': 3106122, '98': 3106198, '99': 3106199}"
1,1062,暗雲！　ヒナ祭り,https://texture-asset.kirafan.cn/advlibraryicon/advlibraryicon_1062.png,,"{'4': 3106204, '5': 3106205, '6': 3106206, '7': 3106207, '9': 3106209, '11': 3106211, '13': 3106213, '16': 3106216, '17': 3106217, '18': 3106218, '19': 3106219, '20': 3106220, '21': 3106221, '22': 3106222, '23': 3106223, '98': 3106298, '99': 3106299}"
1,1063,奇跡が生まれる星,https://texture-asset.kirafan.cn/advlibraryicon/advlibraryicon_1063.png,,"{'3': 3106303, '4': 3106304, '6': 3106306, '7': 3106307, '9': 3106309, '11': 3106311, '12': 3106312, '15': 3106315, '16': 3106316, '17': 3106317, '18': 3106318, '19': 3106319, '20': 3106320, '21': 3106321, '22': 3106322, '98': 3106398, '99': 3106399}"
1,1065,どきどきエトワリア学園,https://texture-asset.kirafan.cn/advlibraryicon/advlibraryicon_1065.png,,"{'3': 3106503, '4': 3106504, '6': 3106506, '7': 3106507, '8': 3106508, '12': 3106512, '13': 3106513, '16': 3106516, '17': 3106517, '18': 3106518, '19': 3106519, '20': 3106520, '21': 3106521, '22': 3106522, '23': 3106523, '98': 3106598, '99': 3106599}"
1,1066,復刻・三者三葉ぶらり旅,https://texture-asset.kirafan.cn/advlibraryicon/advlibraryicon_1066.png,,"{'3': 3106603, '7': 3106607, '8': 3106608, '9': 3106609, '10': 3106610, '12': 3106612, '13': 3106613, '16': 3106616, '17': 3106617, '18': 3106618, '19': 3106619, '20': 3106620, '21': 3106621, '22': 3106622, '23': 3106623, '98': 3106698, '99': 3106699}"
1,1067,メイドは見た！　～金髪館怪人事件～,https://texture-asset.kirafan.cn/advlibraryicon/advlibraryicon_1067.png,,"{'2': 3106702, '5': 3106705, '6': 3106706, '7': 3106707, '8': 3106708, '11': 3106711, '14': 3106714, '15': 3106715, '16': 3106716, '19': 3106719, '20': 3106720, '21': 3106721, '22': 3106722, '23': 3106723, '24': 3106724, '25': 3106725, '26': 3106726, '97': 3106797, '98': 3106798, '99': 3106799}"
1,1068,お姉ちゃんズ11,https://texture-asset.kirafan.cn/advlibraryicon/advlibraryicon_1068.png,,"{'2': 3106802, '5': 3106805, '7': 3106807, '8': 3106808, '12': 3106812, '13': 3106813, '14': 3106814, '15': 3106815, '17': 3106817, '18': 3106818, '19': 3106819, '20': 3106820, '21': 3106821, '22': 3106822, '23': 3106823, '24': 3106824, '97': 3106897, '98': 3106898}"
1,1069,大運動会と女神の聖杯,https://texture-asset.kirafan.cn/advlibraryicon/advlibraryicon_1069.png,,"{'3': 3106903, '4': 3106904, '5': 3106905, '8': 3106908, '10': 3106910, '12': 3106912, '13': 3106913, '16': 3106916, '18': 3106918, '19': 3106919, '20': 3106920, '21': 3106921, '22': 3106922, '23': 3106923, '24': 3106924, '25': 3106925, '26': 3106926, '27': 3106927, '28': 3106928, '29': 3106929, '99': 3106999}"
1,1070,エトワリア野球対決,https://texture-asset.kirafan.cn/advlibraryicon/advlibraryicon_1070.png,,"{'3': 3107003, '6': 3107006, '7': 3107007, '8': 3107008, '11': 3107011, '12': 3107012, '14': 3107014, '16': 3107016, '17': 3107017, '18': 3107018, '19': 3107019, '20': 3107020, '21': 3107021, '22': 3107022, '23': 3107023, '98': 3107098, '99': 3107099}"
1,1071,七夕の約束,https://texture-asset.kirafan.cn/advlibraryicon/advlibraryicon_1071.png,,"{'2': 3107102, '3': 3107103, '6': 3107106, '7': 3107107, '12': 3107112, '13': 3107113, '16': 3107116, '17': 3107117, '18': 3107118, '19': 3107119, '20': 3107120, '21': 3107121, '22': 3107122, '23': 3107123, '98': 3107198, '99': 3107199}"
1,1072,大騒動！エトワリア同人誌即売会,https://texture-asset.kirafan.cn/advlibraryicon/advlibraryicon_1072.png,,"{'2': 3107202, '5': 3107205, '6': 3107206, '8': 3107208, '12': 3107212, '13': 3107213, '15': 3107215, '16': 3107216, '17': 3107217, '18': 3107218, '19': 3107219, '20': 3107220, '21': 3107221, '22': 3107222, '98': 3107298, '99': 3107299}"
1,1073,エトワリア夏の一幕2020,https://texture-asset.kirafan.cn/advlibraryicon/advlibraryicon_1073.png,,"{'7': 3107307, '8': 3107308, '9': 3107309, '10': 3107310, '11': 3107311, '12': 3107312, '13': 3107313, '14': 3107314, '98': 3107398}"
1,1074,夏休み！宿題大作戦,https://texture-asset.kirafan.cn/advlibraryicon/advlibraryicon_1074.png,,"{'3': 3107403, '5': 3107405, '6': 3107406, '7': 3107407, '9': 3107409, '11': 3107411, '12': 3107412, '15': 3107415, '16': 3107416, '17': 3107417, '18': 3107418, '19': 3107419, '20': 3107420, '21': 3107421, '22': 3107422, '98': 3107498, '99': 3107499}"
1,1075,夏休み企画アルティメットクイズ,https://texture-asset.kirafan.cn/advlibraryicon/advlibraryicon_1075.png,,"{'3': 3107503, '4': 3107504, '6': 3107506, '8': 3107508, '10': 3107510, '13': 3107513, '14': 3107514, '17': 3107517, '18': 3107518, '19': 3107519, '20': 3107520, '21': 3107521, '22': 3107522, '23': 3107523, '24': 3107524, '97': 3107597, '98': 3107598, '99': 3107599}"
1,1076,バトルオブパイレーツ　-囚われのチアと水着海賊-,https://texture-asset.kirafan.cn/advlibraryicon/advlibraryicon_1076.png,,"{'3': 3107603, '5': 3107605, '6': 3107606, '8': 3107608, '9': 3107609, '11': 3107611, '15': 3107615, '17': 3107617, '18': 3107618, '19': 3107619, '20': 3107620, '21': 3107621, '22': 3107622, '23': 3107623, '24': 3107624, '97': 3107697, '98': 3107698}"
1,1078,ラブラブトラベル大作戦,https://texture-asset.kirafan.cn/advlibraryicon/advlibraryicon_1078.png,,"{'2': 3107802, '3': 3107803, '4': 3107804, '6': 3107806, '8': 3107808, '9': 3107809, '12': 3107812, '15': 3107815, '16': 3107816, '17': 3107817, '18': 3107818, '19': 3107819, '20': 3107820, '21': 3107821, '22': 3107822, '97': 3107897, '98': 3107898}"
1,1079,キセキの出会いと夢のパーティー,https://texture-asset.kirafan.cn/advlibraryicon/advlibraryicon_1079.png,,"{'2': 3107902, '3': 3107903, '4': 3107904, '7': 3107907, '9': 3107909, '11': 3107911, '15': 3107915, '17': 3107917, '18': 3107918, '19': 3107919, '20': 3107920, '21': 3107921, '22': 3107922, '23': 3107923, '24': 3107924, '97': 3107997, '98': 3107998}"
1,1080,おちこぼれアイドルの異世界ＴＶ,https://texture-asset.kirafan.cn/advlibraryicon/advlibraryicon_1080.png,,"{'2': 3108002, '4': 3108004, '5': 3108005, '8': 3108008, '9': 3108009, '12': 3108012, '13': 3108013, '15': 3108015, '16': 3108016, '17': 3108017, '18': 3108018, '19': 3108019, '20': 3108020, '21': 3108021, '22': 3108022, '97': 3108097, '98': 3108098}"
1,1081,ハロウィンの怪盗伝説,https://texture-asset.kirafan.cn/advlibraryicon/advlibraryicon_1081.png,,"{'2': 3108102, '6': 3108106, '7': 3108107, '9': 3108109, '10': 3108110, '11': 3108111, '13': 3108113, '15': 3108115, '16': 3108116, '17': 3108117, '18': 3108118, '19': 3108119, '20': 3108120, '21': 3108121, '22': 3108122, '97': 3108197, '98': 3108198}"
1,1082,異世界召喚されたら救世主だった？,https://texture-asset.kirafan.cn/advlibraryicon/advlibraryicon_1082.png,,"{'4': 3108204, '5': 3108205, '6': 3108206, '7': 3108207, '8': 3108208, '10': 3108210, '12': 3108212, '15': 3108215, '16': 3108216, '17': 3108217, '18': 3108218, '19': 3108219, '20': 3108220, '21': 3108221, '22': 3108222, '97': 3108297, '98': 3108298}"
1,1083,忘却の夢魔たち,https://texture-asset.kirafan.cn/advlibraryicon/advlibraryicon_1083.png,,"{'3': 3108303, '5': 3108305, '8': 3108308, '9': 3108309, '11': 3108311, '12': 3108312, '13': 3108313, '15': 3108315, '16': 3108316, '17': 3108317, '18': 3108318, '19': 3108319, '20': 3108320, '21': 3108321, '22': 3108322, '97': 3108397, '98': 3108398}"
1,1085,クロモンと巨大なクリスマスツリー,https://texture-asset.kirafan.cn/advlibraryicon/advlibraryicon_1085.png,,"{'3': 3108503, '5': 3108505, '7': 3108507, '10': 3108510, '11': 3108511, '12': 3108512, '13': 3108513, '14': 3108514, '16': 3108516, '17': 3108517, '18': 3108518, '19': 3108519, '20': 3108520, '21': 3108521, '22': 3108522, '23': 3108523, '97': 3108597, '98': 3108598}"
1,1086,本日の主役は君だ！　新年会だョ全員集合,https://texture-asset.kirafan.cn/advlibraryicon/advlibraryicon_1086.png,,"{'2': 3108602, '4': 3108604, '5': 3108605, '6': 3108606, '7': 3108607, '10': 3108610, '12': 3108612, '13': 3108613, '17': 3108617, '19': 3108619, '20': 3108620, '21': 3108621, '22': 3108622, '23': 3108623, '24': 3108624, '25': 3108625, '26': 3108626, '97': 3108697, '98': 3108698}"
1,1087,スペースエイリアンゲーム,https://texture-asset.kirafan.cn/advlibraryicon/advlibraryicon_1087.png,,"{'3': 3108703, '5': 3108705, '6': 3108706, '7': 3108707, '9': 3108709, '11': 3108711, '13': 3108713, '14': 3108714, '15': 3108715, '18': 3108718, '19': 3108719, '20': 3108720, '21': 3108721, '22': 3108722, '23': 3108723, '24': 3108724, '25': 3108725, '97': 3108797, '98': 3108798}"
1,1088,異世界饅頭たちとエトワリアに迫る闇,https://texture-asset.kirafan.cn/advlibraryicon/advlibraryicon_1088.png,,"{'3': 3108803, '5': 3108805, '7': 3108807, '8': 3108808, '9': 3108809, '10': 3108810, '12': 3108812, '15': 3108815, '16': 3108816, '17': 3108817, '18': 3108818, '19': 3108819, '20': 3108820, '21': 3108821, '22': 3108822, '97': 3108897, '98': 3108898}"
1,1089,愛のバレンタインチョコバトル,https://texture-asset.kirafan.cn/advlibraryicon/advlibraryicon_1089.png,,"{'7': 3108907, '8': 3108908, '9': 3108909, '10': 3108910, '11': 3108911, '13': 3108913, '14': 3108914, '15': 3108915, '16': 3108916, '17': 3108917, '18': 3108918, '19': 3108919, '20': 3108920, '21': 3108921, '97': 3108997, '98': 3108998}"
1,1090,復讐のホワイトデーコロシアム,https://texture-asset.kirafan.cn/advlibraryicon/advlibraryicon_1090.png,,"{'3': 3109003, '5': 3109005, '8': 3109008, '9': 3109009, '10': 3109010, '13': 3109013, '14': 3109014, '15': 3109015, '16': 3109016, '17': 3109017, '18': 3109018, '19': 3109019, '20': 3109020, '21': 3109021, '97': 3109097, '98': 3109098, '99': 3109099}"
1,1091,新春育成キャンペーン,https://texture-asset.kirafan.cn/advlibraryicon/advlibraryicon_1091.png,,"{'1': 3109101, '2': 3109102, '3': 3109103, '4': 3109104, '98': 3109198}"
1,1092,ランプの魔女 マジカルトオルン,https://texture-asset.kirafan.cn/advlibraryicon/advlibraryicon_1092.png,,"{'2': 3109202, '5': 3109205, '7': 3109207, '8': 3109208, '11': 3109211, '12': 3109212, '13': 3109213, '16': 3109216, '17': 3109217, '18': 3109218, '19': 3109219, '20': 3109220, '21': 3109221, '22': 3109222, '23': 3109223, '97': 3109297, '98': 3109298}"
1,1093,エトワリア湯煙事件録-化猫旅館と木天蓼の湯-,https://texture-asset.kirafan.cn/advlibraryicon/advlibraryicon_1093.png,,"{'2': 3109302, '5': 3109305, '7': 3109307, '11': 3109311, '12': 3109312, '13': 3109313, '14': 3109314, '15': 3109315, '18': 3109318, '19': 3109319, '20': 3109320, '21': 3109321, '22': 3109322, '23': 3109323, '24': 3109324, '25': 3109325, '97': 3109397, '98': 3109398}"
1,1094,私たちだって野球したい！,https://texture-asset.kirafan.cn/advlibraryicon/advlibraryicon_1094.png,,"{'4': 3109404, '6': 3109406, '8': 3109408, '9': 3109409, '11': 3109411, '14': 3109414, '15': 3109415, '17': 3109417, '18': 3109418, '19': 3109419, '20': 3109420, '21': 3109421, '22': 3109422, '23': 3109423, '24': 3109424, '97': 3109497, '98': 3109498}"
1,1095,メイド館では笑えない！,https://texture-asset.kirafan.cn/advlibraryicon/advlibraryicon_1095.png,,"{'3': 3109503, '6': 3109506, '7': 3109507, '8': 3109508, '9': 3109509, '12': 3109512, '14': 3109514, '15': 3109515, '16': 3109516, '17': 3109517, '18': 3109518, '19': 3109519, '20': 3109520, '21': 3109521, '97': 3109597, '98': 3109598}"
1,1096,ジャイアントクロモンＶＳメカマッチ,https://texture-asset.kirafan.cn/advlibraryicon/advlibraryicon_1096.png,,"{'4': 3109604, '6': 3109606, '7': 3109607, '9': 3109609, '12': 3109612, '13': 3109613, '15': 3109615, '16': 3109616, '20': 3109620, '22': 3109622, '23': 3109623, '24': 3109624, '25': 3109625, '26': 3109626, '27': 3109627, '28': 3109628, '29': 3109629, '30': 3109630, '31': 3109631, '32': 3109632, '33': 3109633, '97': 3109697, '98': 3109698}"
1,1097,ブライダル・オア・ヘル,https://texture-asset.kirafan.cn/advlibraryicon/advlibraryicon_1097.png,,"{'3': 3109703, '4': 3109704, '8': 3109708, '10': 3109710, '12': 3109712, '13': 3109713, '15': 3109715, '16': 3109716, '17': 3109717, '18': 3109718, '19': 3109719, '20': 3109720, '21': 3109721, '22': 3109722, '97': 3109797, '98': 3109798}"
1,1098,近くて遠い世界の少女たち,https://texture-asset.kirafan.cn/advlibraryicon/advlibraryicon_1098.png,,"{'2': 3109802, '3': 3109803, '8': 3109808, '10': 3109810, '11': 3109811, '12': 3109812, '13': 3109813, '14': 3109814, '15': 3109815, '18': 3109818, '19': 3109819, '20': 3109820, '21': 3109821, '22': 3109822, '23': 3109823, '24': 3109824, '25': 3109825, '97': 3109897, '98': 3109898}"
1,1099,育てて挑もう！アビリティツリー実装記念クエスト,https://texture-asset.kirafan.cn/advlibraryicon/advlibraryicon_1099.png,,"{'1': 3109901, '2': 3109902, '3': 3109903, '4': 3109904, '5': 3109905, '6': 3109906, '7': 3109907, '8': 3109908, '99': 3109999}"
1,1100,どきどきエトワリア学園　新任教師編,https://texture-asset.kirafan.cn/advlibraryicon/advlibraryicon_1100.png,,"{'4': 3110004, '5': 3110005, '6': 3110006, '7': 3110007, '8': 3110008, '13': 3110013, '14': 3110014, '16': 3110016, '17': 3110017, '18': 3110018, '19': 3110019, '20': 3110020, '21': 3110021, '22': 3110022, '23': 3110023, '97': 3110097, '98': 3110098}"
1,1101,エトワリア夏の一幕2021,https://texture-asset.kirafan.cn/advlibraryicon/advlibraryicon_1101.png,,"{'7': 3110107, '8': 3110108, '9': 3110109, '10': 3110110, '11': 3110111, '12': 3110112, '13': 3110113, '14': 3110114, '97': 3110197}"
1,1102,サマーナイト・レディオ,https://texture-asset.kirafan.cn/advlibraryicon/advlibraryicon_1102.png,,"{'7': 3110207, '8': 3110208, '9': 3110209, '10': 3110210, '11': 3110211, '12': 3110212, '14': 3110214, '15': 3110215, '16': 3110216, '17': 3110217, '18': 3110218, '19': 3110219, '20': 3110220, '21': 3110221, '97': 3110297, '98': 3110298}"
1,1103,サマーナイト・リゾート,https://texture-asset.kirafan.cn/advlibraryicon/advlibraryicon_1103.png,,"{'2': 3110302, '3': 3110303, '5': 3110305, '7': 3110307, '11': 3110311, '13': 3110313, '14': 3110314, '15': 3110315, '16': 3110316, '17': 3110317, '18': 3110318, '19': 3110319, '20': 3110320, '21': 3110321, '22': 3110322, '97': 3110397, '98': 3110398, '99': 3110399}"
1,1104,きんいろ郵便局とヤギさんのてがみ,https://texture-asset.kirafan.cn/advlibraryicon/advlibraryicon_1104.png,,"{'2': 3110402, '3': 3110403, '5': 3110405, '6': 3110406, '8': 3110408, '9': 3110409, '10': 3110410, '11': 3110411, '13': 3110413, '16': 3110416, '17': 3110417, '18': 3110418, '19': 3110419, '20': 3110420, '21': 3110421, '22': 3110422, '23': 3110423, '97': 3110497, '98': 3110498}"
1,1105,無人島アイドル生活,https://texture-asset.kirafan.cn/advlibraryicon/advlibraryicon_1105.png,,"{'2': 3110502, '4': 3110504, '7': 3110507, '8': 3110508, '9': 3110509, '11': 3110511, '12': 3110512, '14': 3110514, '15': 3110515, '16': 3110516, '17': 3110517, '18': 3110518, '19': 3110519, '20': 3110520, '21': 3110521, '97': 3110597, '98': 3110598}"
1,1106,現在NEW GAME制作中,https://texture-asset.kirafan.cn/advlibraryicon/advlibraryicon_1106.png,,"{'3': 3110603, '5': 3110605, '6': 3110606, '9': 3110609, '10': 3110610, '12': 3110612, '13': 3110613, '15': 3110615, '16': 3110616, '17': 3110617, '18': 3110618, '19': 3110619, '20': 3110620, '21': 3110621, '22': 3110622, '97': 3110697, '98': 3110698}"
1,1107,歩き続ける君のために,https://texture-asset.kirafan.cn/advlibraryicon/advlibraryicon_1107.png,,"{'2': 3110702, '3': 3110703, '4': 3110704, '5': 3110705, '6': 3110706, '7': 3110707, '8': 3110708, '9': 3110709, '10': 3110710, '11': 3110711, '12': 3110712, '13': 3110713, '14': 3110714, '15': 3110715, '16': 3110716, '19': 3110719, '20': 3110720, '21': 3110721, '22': 3110722, '23': 3110723, '24': 3110724, '25': 3110725, '26': 3110726, '97': 3110797, '98': 3110798}"
1,1108,ハロウィン魔女魔城,https://texture-asset.kirafan.cn/advlibraryicon/advlibraryicon_1108.png,,"{'3': 3110803, '5': 3110805, '6': 3110806, '8': 3110808, '10': 3110810, '11': 3110811, '12': 3110812, '14': 3110814, '16': 3110816, '17': 3110817, '18': 3110818, '19': 3110819, '20': 3110820, '21': 3110821, '22': 3110822, '23': 3110823, '97': 3110897, '98': 3110898}"
1,1109,超難関への道～オルバ編～,https://texture-asset.kirafan.cn/advlibraryicon/advlibraryicon_1109.png,,"{'1': 3110901, '2': 3110902, '3': 3110903, '4': 3110904, '5': 3110905, '6': 3110906, '7': 3110907, '8': 3110908, '99': 3110999}"
1,1110,ジャボンを斬る！,https://texture-asset.kirafan.cn/advlibraryicon/advlibraryicon_1110.png,,"{'2': 3111002, '4': 3111004, '7': 3111007, '10': 3111010, '12': 3111012, '14': 3111014, '15': 3111015, '17': 3111017, '18': 3111018, '19': 3111019, '20': 3111020, '21': 3111021, '22': 3111022, '23': 3111023, '24': 3111024, '97': 3111097, '98': 3111098}"
1,1111,スーパー・クリスマス・キャロル　エトワリア公演,https://texture-asset.kirafan.cn/advlibraryicon/advlibraryicon_1111.png,,"{'4': 3111104, '5': 3111105, '8': 3111108, '10': 3111110, '11': 3111111, '13': 3111113, '15': 3111115, '16': 3111116, '17': 3111117, '18': 3111118, '19': 3111119, '20': 3111120, '21': 3111121, '22': 3111122, '97': 3111197, '98': 3111198}"
1,1112,お正月中止を阻止せよ十二支大集結！,https://texture-asset.kirafan.cn/advlibraryicon/advlibraryicon_1112.png,,"{'3': 3111203, '7': 3111207, '8': 3111208, '9': 3111209, '10': 3111210, '11': 3111211, '12': 3111212, '13': 3111213, '15': 3111215, '17': 3111217, '18': 3111218, '19': 3111219, '20': 3111220, '21': 3111221, '22': 3111222, '23': 3111223, '24': 3111224, '97': 3111297, '98': 3111298}"
1,1114,クリスマス育成応援キャンペーン,https://texture-asset.kirafan.cn/advlibraryicon/advlibraryicon_1114.png,,"{'1': 3111401, '2': 3111402, '3': 3111403, '4': 3111404, '98': 3111498, '99': 3111499}"
1,1115,新春！育成応援キャンペーン,https://texture-asset.kirafan.cn/advlibraryicon/advlibraryicon_1115.png,,"{'1': 3111501, '2': 3111502, '3': 3111503, '4': 3111504, '98': 3111598, '99': 3111599}"
1,1116,SNS部と復活の魔王,https://texture-asset.kirafan.cn/advlibraryicon/advlibraryicon_1116.png,,"{'4': 3111604, '8': 3111608, '9': 3111609, '10': 3111610, '11': 3111611, '13': 3111613, '15': 3111615, '16': 3111616, '17': 3111617, '18': 3111618, '19': 3111619, '20': 3111620, '21': 3111621, '22': 3111622, '97': 3111697, '98': 3111698}"
1,1117,バレンタインと恋の四角関係,https://texture-asset.kirafan.cn/advlibraryicon/advlibraryicon_1117.png,,"{'3': 3111703, '5': 3111705, '7': 3111707, '9': 3111709, '13': 3111713, '14': 3111714, '16': 3111716, '17': 3111717, '18': 3111718, '19': 3111719, '20': 3111720, '21': 3111721, '22': 3111722, '23': 3111723, '97': 3111797, '98': 3111798}"
1,1118,育成応援キャンペーン,https://texture-asset.kirafan.cn/advlibraryicon/advlibraryicon_1118.png,,"{'1': 3111801, '2': 3111802, '3': 3111803, '4': 3111804, '98': 3111898, '99': 3111899}"
1,1119,ホワイトデー大爆発,https://texture-asset.kirafan.cn/advlibraryicon/advlibraryicon_1119.png,,"{'6': 3111906, '7': 3111907, '8': 3111908, '9': 3111909, '10': 3111910, '11': 3111911, '13': 3111913, '15': 3111915, '16': 3111916, '17': 3111917, '18': 3111918, '19': 3111919, '20': 3111920, '21': 3111921, '22': 3111922, '97': 3111997, '98': 3111998, '99': 3111999}"
1,1120,フライフィッシュメモリー,https://texture-asset.kirafan.cn/advlibraryicon/advlibraryicon_1120.png,,"{'2': 3112002, '3': 3112003, '6': 3112006, '8': 3112008, '11': 3112011, '12': 3112012, '15': 3112015, '16': 3112016, '17': 3112017, '18': 3112018, '19': 3112019, '20': 3112020, '21': 3112021, '22': 3112022, '97': 3112097, '98': 3112098}"
1,1121,異種族混浴温泉街,https://texture-asset.kirafan.cn/advlibraryicon/advlibraryicon_1121.png,,"{'5': 3112105, '8': 3112108, '9': 3112109, '10': 3112110, '11': 3112111, '12': 3112112, '14': 3112114, '16': 3112116, '17': 3112117, '18': 3112118, '19': 3112119, '20': 3112120, '21': 3112121, '22': 3112122, '23': 3112123, '97': 3112197, '98': 3112198}"
1,1122,女神のイースターエッグ,https://texture-asset.kirafan.cn/advlibraryicon/advlibraryicon_1122.png,,"{'2': 3112202, '5': 3112205, '7': 3112207, '9': 3112209, '11': 3112211, '12': 3112212, '15': 3112215, '16': 3112216, '17': 3112217, '18': 3112218, '19': 3112219, '20': 3112220, '21': 3112221, '22': 3112222, '97': 3112297, '98': 3112298}"
1,1123,超難関への道～タイタン編～,https://texture-asset.kirafan.cn/advlibraryicon/advlibraryicon_1123.png,,"{'1': 3112301, '2': 3112302, '3': 3112303, '4': 3112304, '5': 3112305, '6': 3112306, '7': 3112307, '8': 3112308, '98': 3112398, '99': 3112399}"
1,1124,ブレンドコールアクシデント,https://texture-asset.kirafan.cn/advlibraryicon/advlibraryicon_1124.png,,"{'2': 3112402, '4': 3112404, '5': 3112405, '6': 3112406, '12': 3112412, '13': 3112413, '15': 3112415, '16': 3112416, '17': 3112417, '18': 3112418, '19': 3112419, '20': 3112420, '21': 3112421, '22': 3112422, '97': 3112497, '98': 3112498}"
1,1125,ホーンテッド・ブライダル,https://texture-asset.kirafan.cn/advlibraryicon/advlibraryicon_1125.png,,"{'2': 3112502, '4': 3112504, '6': 3112506, '10': 3112510, '13': 3112513, '14': 3112514, '15': 3112515, '17': 3112517, '18': 3112518, '19': 3112519, '20': 3112520, '21': 3112521, '22': 3112522, '23': 3112523, '24': 3112524, '97': 3112597, '98': 3112598}"
1,1126,お仕事探しとおうち探し,https://texture-asset.kirafan.cn/advlibraryicon/advlibraryicon_1126.png,,"{'2': 3112602, '3': 3112603, '5': 3112605, '6': 3112606, '9': 3112609, '11': 3112611, '15': 3112615, '16': 3112616, '17': 3112617, '18': 3112618, '19': 3112619, '20': 3112620, '21': 3112621, '22': 3112622, '97': 3112697, '98': 3112698}"
1,1127,七夕のわかれ星,https://texture-asset.kirafan.cn/advlibraryicon/advlibraryicon_1127.png,,"{'2': 3112702, '4': 3112704, '7': 3112707, '11': 3112711, '12': 3112712, '13': 3112713, '14': 3112714, '16': 3112716, '17': 3112717, '18': 3112718, '19': 3112719, '20': 3112720, '21': 3112721, '22': 3112722, '23': 3112723, '97': 3112797, '98': 3112798}"
1,1128,真夏のエトワリアフェス,https://texture-asset.kirafan.cn/advlibraryicon/advlibraryicon_1128.png,,"{'3': 3112803, '4': 3112804, '6': 3112806, '8': 3112808, '11': 3112811, '12': 3112812, '15': 3112815, '16': 3112816, '17': 3112817, '18': 3112818, '19': 3112819, '20': 3112820, '21': 3112821, '22': 3112822, '97': 3112897, '98': 3112898}"
1,1129,ビーチシャークパニック,https://texture-asset.kirafan.cn/advlibraryicon/advlibraryicon_1129.png,,"{'3': 3112903, '5': 3112905, '6': 3112906, '7': 3112907, '8': 3112908, '10': 3112910, '14': 3112914, '16': 3112916, '17': 3112917, '18': 3112918, '19': 3112919, '20': 3112920, '21': 3112921, '22': 3112922, '23': 3112923, '97': 3112997, '98': 3112998, '99': 3112999}"
1,1131,育成応援キャンペーン,https://texture-asset.kirafan.cn/advlibraryicon/advlibraryicon_1131.png,,"{'1': 3113101, '2': 3113102, '3': 3113103, '4': 3113104, '98': 3113198, '99': 3113199}"
1,1132,復刻・くるみインワンダーランド,https://texture-asset.kirafan.cn/advlibraryicon/advlibraryicon_1132.png,,"{'2': 3113202, '5': 3113205, '6': 3113206, '7': 3113207, '8': 3113208, '9': 3113209, '14': 3113214, '15': 3113215, '16': 3113216, '17': 3113217, '18': 3113218, '19': 3113219, '20': 3113220, '21': 3113221, '98': 3113298}"
1,1133,復刻・ヒバリとりーさんと幸福の花,https://texture-asset.kirafan.cn/advlibraryicon/advlibraryicon_1133.png,,"{'2': 3113302, '3': 3113303, '5': 3113305, '7': 3113307, '8': 3113308, '9': 3113309, '10': 3113310, '11': 3113311, '13': 3113313, '16': 3113316, '17': 3113317, '18': 3113318, '19': 3113319, '20': 3113320, '21': 3113321, '22': 3113322, '23': 3113323, '97': 3113397, '98': 3113398}"
1,1134,開催！エトワリア学園文化祭,https://texture-asset.kirafan.cn/advlibraryicon/advlibraryicon_1134.png,,"{'4': 3113404, '6': 3113406, '7': 3113407, '8': 3113408, '10': 3113410, '13': 3113413, '15': 3113415, '16': 3113416, '17': 3113417, '18': 3113418, '19': 3113419, '20': 3113420, '21': 3113421, '22': 3113422, '97': 3113497, '98': 3113498}"
1,1135,お宝ザクザクキャンペーン,https://texture-asset.kirafan.cn/advlibraryicon/advlibraryicon_1135.png,,"{'1': 3113501, '2': 3113502, '3': 3113503, '4': 3113504}"
1,1136,大脱出！温泉プリズン,https://texture-asset.kirafan.cn/advlibraryicon/advlibraryicon_1136.png,,"{'4': 3113604, '7': 3113607, '10': 3113610, '11': 3113611, '12': 3113612, '13': 3113613, '15': 3113615, '16': 3113616, '17': 3113617, '18': 3113618, '19': 3113619, '20': 3113620, '21': 3113621, '22': 3113622, '97': 3113697, '98': 3113698}"
1,1137,ぼっち・ざ・路上ライブツアー,https://texture-asset.kirafan.cn/advlibraryicon/advlibraryicon_1137.png,,"{'3': 3113703, '4': 3113704, '5': 3113705, '7': 3113707, '8': 3113708, '10': 3113710, '11': 3113711, '13': 3113713, '15': 3113715, '17': 3113717, '18': 3113718, '19': 3113719, '20': 3113720, '21': 3113721, '22': 3113722, '23': 3113723, '24': 3113724, '97': 3113797, '98': 3113798}"
1,1138,リアリストたちの未来,https://texture-asset.kirafan.cn/advlibraryicon/advlibraryicon_1138.png,,"{'3': 3113803, '5': 3113805, '7': 3113807, '9': 3113809, '11': 3113811, '13': 3113813, '14': 3113814, '16': 3113816, '17': 3113817, '18': 3113818, '19': 3113819, '20': 3113820, '21': 3113821, '22': 3113822, '23': 3113823, '97': 3113897, '98': 3113898}"
1,1139,復刻・リアリストたちの未来,https://texture-asset.kirafan.cn/advlibraryicon/advlibraryicon_1139.png,,"{'3': 3113903, '5': 3113905, '7': 3113907, '9': 3113909, '11': 3113911, '13': 3113913, '14': 3113914, '16': 3113916, '17': 3113917, '18': 3113918, '19': 3113919, '20': 3113920, '21': 3113921, '22': 3113922, '23': 3113923, '97': 3113997, '98': 3113998, '99': 3113999}"
2,2001,ＰＥＣＯ　-A trial version-,https://texture-asset.kirafan.cn/advlibraryicon/advlibraryicon_2001.png,,"{'1': 5001010, '2': 5001020, '4': 5001040, '6': 5001060, '7': 5001070, '8': 5001080, '9': 5001090, '10': 5001100, '11': 5001110, '12': 5001120, '13': 5001130, '14': 5001140, '15': 5001150, '16': 5001160, '18': 5001180, '19': 5001190, '20': 5001200, '23': 5001230, '24': 5001240, '25': 5001250, '26': 5001260, '27': 5001270}"
2,2002,きんいろダークネス,https://texture-asset.kirafan.cn/advlibraryicon/advlibraryicon_2002.png,,"{'1': 5002010, '2': 5002020, '7': 5002070, '9': 5002090, '10': 5002100, '11': 5002110, '13': 5002130, '17': 5002170, '19': 5002190, '26': 5002260, '27': 5002270, '28': 5002280, '29': 5002290, '30': 5002300}"
2,2003,からみねーしょん,https://texture-asset.kirafan.cn/advlibraryicon/advlibraryicon_2003.png,,"{'4': 5003040, '7': 5003070, '12': 5003120, '15': 5003150, '20': 5003200, '23': 5003230, '24': 5003240, '28': 5003280, '31': 5003310, '33': 5003330, '34': 5003340, '35': 5003350, '36': 5003360, '37': 5003370}"
2,2004,森の小屋のゆゆしき着ぐるみ,https://texture-asset.kirafan.cn/advlibraryicon/advlibraryicon_2004.png,,"{'3': 5004030, '4': 5004040, '5': 5004050, '6': 5004060, '11': 5004110, '12': 5004120, '13': 5004130, '14': 5004140, '17': 5004170, '18': 5004180, '20': 5004200, '22': 5004220, '25': 5004250, '26': 5004260, '27': 5004270, '28': 5004280, '29': 5004290}"
2,2005,野クルと鋼鉄の咆哮,https://texture-asset.kirafan.cn/advlibraryicon/advlibraryicon_2005.png,,"{'1': 5005010, '3': 5005030, '4': 5005040, '5': 5005050, '6': 5005060, '7': 5005070, '10': 5005100, '11': 5005110, '16': 5005160, '18': 5005180, '25': 5005250, '26': 5005260, '27': 5005270, '28': 5005280, '29': 5005290}"
2,2006,スロウテイマーズ,https://texture-asset.kirafan.cn/advlibraryicon/advlibraryicon_2006.png,,"{'4': 5006040, '9': 5006090, '12': 5006120, '13': 5006130, '14': 5006140, '15': 5006150, '16': 5006160, '18': 5006180, '21': 5006210, '22': 5006220, '25': 5006250, '26': 5006260, '27': 5006270, '28': 5006280, '29': 5006290}"
3,3100,強化種収穫場・陽,https://texture-asset.kirafan.cn/questgroupicon/questgroupicon_100.png,日,"{'0': 200150, '1': 200151, '2': 200152, '3': 200153, '4': 200154}"
3,3101,強化種収穫場・月,https://texture-asset.kirafan.cn/questgroupicon/questgroupicon_101.png,月,"{'0': 200140, '1': 200141, '2': 200142, '3': 200143, '4': 200144}"
3,3102,強化種収穫場・炎,https://texture-asset.kirafan.cn/questgroupicon/questgroupicon_102.png,火,"{'0': 200100, '1': 200101, '2': 200102, '3': 200103, '4': 200104}"
3,3103,強化種収穫場・水,https://texture-asset.kirafan.cn/questgroupicon/questgroupicon_103.png,水,"{'0': 200110, '1': 200111, '2': 200112, '3': 200113, '4': 200114}"
3,3104,強化種収穫場・風,https://texture-asset.kirafan.cn/questgroupicon/questgroupicon_104.png,木,"{'0': 200130, '1': 200131, '2': 200132, '3': 200133, '4': 200134}"
3,3105,強化種収穫場・土,https://texture-asset.kirafan.cn/questgroupicon/questgroupicon_105.png,土,"{'0': 200120, '1': 200121, '2': 200122, '3': 200123, '4': 200124}"
3,3200,進化珠採掘場・陽,https://texture-asset.kirafan.cn/questgroupicon/questgroupicon_200.png,日,"{'0': 201150, '1': 201151, '2': 201152, '3': 201153, '4': 201154}"
3,3201,進化珠採掘場・月,https://texture-asset.kirafan.cn/questgroupicon/questgroupicon_201.png,月,"{'0': 201140, '1': 201141, '2': 201142, '3': 201143, '4': 201144}"
3,3202,進化珠採掘場・炎,https://texture-asset.kirafan.cn/questgroupicon/questgroupicon_202.png,火,"{'0': 201100, '1': 201101, '2': 201102, '3': 201103, '4': 201104}"
3,3203,進化珠採掘場・水,https://texture-asset.kirafan.cn/questgroupicon/questgroupicon_203.png,水,"{'0': 201110, '1': 201111, '2': 201112, '3': 201113, '4': 201114}"
3,3204,進化珠採掘場・風,https://texture-asset.kirafan.cn/questgroupicon/questgroupicon_204.png,木,"{'0': 201130, '1': 201131, '2': 201132, '3': 201133, '4': 201134}"
3,3205,進化珠採掘場・土,https://texture-asset.kirafan.cn/questgroupicon/questgroupicon_205.png,土,"{'0': 201120, '1': 201121, '2': 201122, '3': 201123, '4': 201124}"
3,3300,進化の認定場,https://texture-asset.kirafan.cn/questgroupicon/questgroupicon_300.png,常設,"{'0': 201160, '1': 201161, '2': 201162, '3': 201163, '4': 201164}"
3,3400,黄金平原,https://texture-asset.kirafan.cn/questgroupicon/questgroupicon_400.png,月水金,"{'0': 2030, '1': 2031, '2': 2032, '3': 2033, '4': 2034}"
3,3500,せんしの修練場,https://texture-asset.kirafan.cn/questgroupicon/questgroupicon_500.png,月木土,"{'0': 202100, '1': 202110}"
3,3501,ナイトの修練場,https://texture-asset.kirafan.cn/questgroupicon/questgroupicon_501.png,火土,"{'0': 202103, '1': 202113}"
3,3502,まほうつかいの修練場,https://texture-asset.kirafan.cn/questgroupicon/questgroupicon_502.png,水金日,"{'0': 202101, '1': 202111}"
3,3503,アルケミストの修練場,https://texture-asset.kirafan.cn/questgroupicon/questgroupicon_503.png,木日,"{'0': 202104, '1': 202114}"
3,3504,そうりょの修練場,https://texture-asset.kirafan.cn/questgroupicon/questgroupicon_504.png,火金日,"{'0': 202102, '1': 202112}"
4,4003,5月・強敵チャレンジクエスト,https://texture-asset.kirafan.cn/advlibraryicon/advlibraryicon_20180500.png,2018.5,{'1': 204003}
4,4004,6月・強敵チャレンジクエスト,https://texture-asset.kirafan.cn/advlibraryicon/advlibraryicon_20180600.png,2018.6,{'1': 204004}
4,4005,7月・強敵チャレンジクエスト,https://texture-asset.kirafan.cn/advlibraryicon/advlibraryicon_20180700.png,2018.7,{'1': 204005}
4,4006,8月・強敵チャレンジクエスト,https://texture-asset.kirafan.cn/advlibraryicon/advlibraryicon_20180800.png,2018.8,{'1': 204006}
4,4007,9月・強敵チャレンジクエスト,https://texture-asset.kirafan.cn/advlibraryicon/advlibraryicon_20180900.png,2018.9,{'1': 204007}
4,4008,10月・強敵チャレンジクエスト,https://texture-asset.kirafan.cn/advlibraryicon/advlibraryicon_20181000.png,2018.10,{'1': 204008}
4,4009,11月・強敵チャレンジクエスト,https://texture-asset.kirafan.cn/advlibraryicon/advlibraryicon_20181100.png,2018.11,{'1': 204009}
4,4010,12月・強敵チャレンジクエスト,https://texture-asset.kirafan.cn/advlibraryicon/advlibraryicon_20181200.png,2018.12,{'1': 204010}
4,4011,1月・強敵チャレンジクエスト,https://texture-asset.kirafan.cn/advlibraryicon/advlibraryicon_20190100.png,2019.1,{'1': 204011}
4,4012,2月・強敵チャレンジクエスト,https://texture-asset.kirafan.cn/advlibraryicon/advlibraryicon_20190200.png,2019.2,{'1': 204012}
4,4013,3月・強敵チャレンジクエスト,https://texture-asset.kirafan.cn/advlibraryicon/advlibraryicon_20190300.png,2019.3,{'1': 204013}
4,4014,4月・強敵チャレンジクエスト,https://texture-asset.kirafan.cn/advlibraryicon/advlibraryicon_20190400.png,2019.4,{'1': 204014}
4,4015,5月・強敵チャレンジクエスト,https://texture-asset.kirafan.cn/advlibraryicon/advlibraryicon_20190500.png,2019.5,{'1': 204015}
4,4016,6月・強敵チャレンジクエスト,https://texture-asset.kirafan.cn/advlibraryicon/advlibraryicon_20190600.png,2019.6,{'1': 204016}
4,4017,7月・強敵チャレンジクエスト,https://texture-asset.kirafan.cn/advlibraryicon/advlibraryicon_20190700.png,2019.7,{'1': 204017}
4,4018,8月・強敵チャレンジクエスト,https://texture-asset.kirafan.cn/advlibraryicon/advlibraryicon_20190800.png,2019.8,{'1': 204018}
4,4019,9月・強敵チャレンジクエスト,https://texture-asset.kirafan.cn/advlibraryicon/advlibraryicon_20190900.png,2019.9,{'1': 204019}
4,4020,10月・強敵チャレンジクエスト,https://texture-asset.kirafan.cn/advlibraryicon/advlibraryicon_20191000.png,2019.10,{'1': 204020}
4,4021,11月・強敵チャレンジクエスト,https://texture-asset.kirafan.cn/advlibraryicon/advlibraryicon_20191100.png,2019.11,{'1': 204021}
4,4022,12月・強敵チャレンジクエスト,https://texture-asset.kirafan.cn/advlibraryicon/advlibraryicon_20191200.png,2019.12,{'1': 204022}
4,4023,1月・強敵チャレンジクエスト,https://texture-asset.kirafan.cn/advlibraryicon/advlibraryicon_20200100.png,2020.1,{'1': 204023}
4,4024,2月・強敵チャレンジクエスト,https://texture-asset.kirafan.cn/advlibraryicon/advlibraryicon_20200200.png,2020.2,{'1': 204024}
4,4025,3月・強敵チャレンジクエスト,https://texture-asset.kirafan.cn/advlibraryicon/advlibraryicon_20200300.png,2020.3,{'1': 204025}
4,4026,4月・強敵チャレンジクエスト,https://texture-asset.kirafan.cn/advlibraryicon/advlibraryicon_20200400.png,2020.4,{'1': 204026}
4,4027,5月・強敵チャレンジクエスト,https://texture-asset.kirafan.cn/advlibraryicon/advlibraryicon_20200500.png,2020.5,{'1': 204027}
4,4028,6月・強敵チャレンジクエスト,https://texture-asset.kirafan.cn/advlibraryicon/advlibraryicon_20200600.png,2020.6,{'1': 204028}
4,4029,7月・強敵チャレンジクエスト,https://texture-asset.kirafan.cn/advlibraryicon/advlibraryicon_20200700.png,2020.7,{'1': 204029}
4,4030,8月・強敵チャレンジクエスト,https://texture-asset.kirafan.cn/advlibraryicon/advlibraryicon_20200800.png,2020.8,{'1': 204030}
4,4031,9月・強敵チャレンジクエスト,https://texture-asset.kirafan.cn/advlibraryicon/advlibraryicon_20200900.png,2020.9,{'1': 204031}
4,4032,10月・強敵チャレンジクエスト,https://texture-asset.kirafan.cn/advlibraryicon/advlibraryicon_20201000.png,2020.10,{'1': 204032}
4,4033,11月・強敵チャレンジクエスト,https://texture-asset.kirafan.cn/advlibraryicon/advlibraryicon_20201100.png,2020.11,{'1': 204033}
4,4091,12月・強敵チャレンジクエスト,https://texture-asset.kirafan.cn/advlibraryicon/advlibraryicon_20201200.png,2020.12,{'1': 204091}
4,4092,1月・強敵チャレンジクエスト,https://texture-asset.kirafan.cn/advlibraryicon/advlibraryicon_20210100.png,2021.1,{'1': 204092}
4,4093,2月・強敵チャレンジクエスト,https://texture-asset.kirafan.cn/advlibraryicon/advlibraryicon_20210200.png,2021.2,{'1': 204093}
4,4094,3月・強敵チャレンジクエスト,https://texture-asset.kirafan.cn/advlibraryicon/advlibraryicon_20210300.png,2021.3,{'1': 204094}
4,4095,4月・強敵チャレンジクエスト,https://texture-asset.kirafan.cn/advlibraryicon/advlibraryicon_20210400.png,2021.4,{'1': 204095}
4,4096,5月・強敵チャレンジクエスト,https://texture-asset.kirafan.cn/advlibraryicon/advlibraryicon_20210500.png,2021.5,{'1': 204096}
4,4097,6月・強敵チャレンジクエスト,https://texture-asset.kirafan.cn/advlibraryicon/advlibraryicon_20210600.png,2021.6,{'1': 204097}
4,4098,7月・強敵チャレンジクエスト,https://texture-asset.kirafan.cn/advlibraryicon/advlibraryicon_20210700.png,2021.7,{'1': 204098}
4,4099,8月・強敵チャレンジクエスト,https://texture-asset.kirafan.cn/advlibraryicon/advlibraryicon_20210800.png,2021.8,{'1': 204099}
4,4900,9月・強敵チャレンジクエスト,https://texture-asset.kirafan.cn/advlibraryicon/advlibraryicon_20210900.png,2021.9,{'1': 204900}
4,4901,10月・強敵チャレンジクエスト,https://texture-asset.kirafan.cn/advlibraryicon/advlibraryicon_20211000.png,2021.10,{'1': 204901}
4,4902,11月・強敵チャレンジクエスト,https://texture-asset.kirafan.cn/advlibraryicon/advlibraryicon_20211100.png,2021.11,{'1': 204902}
4,4903,12月・強敵チャレンジクエスト(1),https://texture-asset.kirafan.cn/advlibraryicon/advlibraryicon_20211200.png,2021.12,{'1': 204903}
4,4904,12月・強敵チャレンジクエスト(2),https://texture-asset.kirafan.cn/advlibraryicon/advlibraryicon_20211200.png,2021.12,{'1': 204904}
4,4905,12月・強敵チャレンジクエスト(3),https://texture-asset.kirafan.cn/advlibraryicon/advlibraryicon_20211200.png,2021.12,{'1': 204905}
4,4906,12月・強敵チャレンジクエスト(4),https://texture-asset.kirafan.cn/advlibraryicon/advlibraryicon_20211200.png,2021.12,{'1': 204906}
4,4907,12月・強敵チャレンジクエスト(5),https://texture-asset.kirafan.cn/advlibraryicon/advlibraryicon_20211200.png,2021.12,{'1': 204907}
4,4908,12月・強敵チャレンジクエスト(6),https://texture-asset.kirafan.cn/advlibraryicon/advlibraryicon_20211200.png,2021.12,{'1': 204908}
4,4909,12月・強敵チャレンジクエスト(7),https://texture-asset.kirafan.cn/advlibraryicon/advlibraryicon_20211200.png,2021.12,{'1': 204909}
4,4910,12月・強敵チャレンジクエスト(8),https://texture-asset.kirafan.cn/advlibraryicon/advlibraryicon_20211200.png,2021.12,{'1': 204910}
4,4911,1月・強敵チャレンジクエスト,https://texture-asset.kirafan.cn/advlibraryicon/advlibraryicon_20220100.png,2022.1,{'1': 204911}
4,4912,2月・強敵チャレンジクエスト,https://texture-asset.kirafan.cn/advlibraryicon/advlibraryicon_20220200.png,2022.2,{'1': 204912}
4,4913,3月・強敵チャレンジクエスト,https://texture-asset.kirafan.cn/advlibraryicon/advlibraryicon_20220300.png,2022.3,{'1': 204913}
4,4914,4月・強敵チャレンジクエスト,https://texture-asset.kirafan.cn/advlibraryicon/advlibraryicon_20220400.png,2022.4,{'1': 204914}
4,4915,5月・強敵チャレンジクエスト,https://texture-asset.kirafan.cn/advlibraryicon/advlibraryicon_20220500.png,2022.5,{'1': 204915}
4,4916,6月・強敵チャレンジクエスト,https://texture-asset.kirafan.cn/advlibraryicon/advlibraryicon_20220600.png,2022.6,{'1': 204916}
4,4917,7月・強敵チャレンジクエスト,https://texture-asset.kirafan.cn/advlibraryicon/advlibraryicon_20220700.png,2022.7,{'1': 204917}
4,4918,8月・強敵チャレンジクエスト,https://texture-asset.kirafan.cn/advlibraryicon/advlibraryicon_20220800.png,2022.8,{'1': 204918}
4,4919,9月・強敵チャレンジクエスト,https://texture-asset.kirafan.cn/advlibraryicon/advlibraryicon_20220900.png,2022.9,{'1': 204919}
4,4920,10月・強敵チャレンジクエスト,https://texture-asset.kirafan.cn/advlibraryicon/advlibraryicon_20221000.png,2022.10,{'1': 204920}
4,4921,11月・強敵チャレンジクエスト,https://texture-asset.kirafan.cn/advlibraryicon/advlibraryicon_20221100.png,2022.11,{'1': 204921}
4,4922,12月・強敵チャレンジクエスト,https://texture-asset.kirafan.cn/advlibraryicon/advlibraryicon_20221200.png,2022.12,{'1': 204922}
4,4923,1月・強敵チャレンジクエスト,https://texture-asset.kirafan.cn/advlibraryicon/advlibraryicon_20230100.png,2023.1,{'1': 204923}
4,4924,2月・強敵チャレンジクエスト,https://texture-asset.kirafan.cn/advlibraryicon/advlibraryicon_20230200.png,2023.2,{'1': 204924}
4,4925,3月・強敵チャレンジクエスト,https://texture-asset.kirafan.cn/advlibraryicon/advlibraryicon_20230300.png,2023.3,{'1': 204925}
4,4926,4月・強敵チャレンジクエスト,https://texture-asset.kirafan.cn/advlibraryicon/advlibraryicon_20230400.png,2023.4,{'1': 204926}
4,4927,5月・強敵チャレンジクエスト,https://texture-asset.kirafan.cn/advlibraryicon/advlibraryicon_20230500.png,2023.5,{'1': 204927}
4,4928,6月・強敵チャレンジクエスト,https://texture-asset.kirafan.cn/advlibraryicon/advlibraryicon_20230600.png,2023.6,{'1': 204928}
4,4929,7月・強敵チャレンジクエスト,https://texture-asset.kirafan.cn/advlibraryicon/advlibraryicon_20230700.png,2023.7,{'1': 204929}
4,4930,8月・強敵チャレンジクエスト,https://texture-asset.kirafan.cn/advlibraryicon/advlibraryicon_20230800.png,2023.8,{'1': 204930}
4,4931,9月・強敵チャレンジクエスト,https://texture-asset.kirafan.cn/advlibraryicon/advlibraryicon_20230900.png,2023.9,{'1': 204931}
4,4932,10月・強敵チャレンジクエスト,https://texture-asset.kirafan.cn/advlibraryicon/advlibraryicon_20231000.png,2023.10,{'1': 204932}
4,4933,11月・強敵チャレンジクエスト,https://texture-asset.kirafan.cn/advlibraryicon/advlibraryicon_20231100.png,2023.11,{'1': 204933}
4,4934,12月・強敵チャレンジクエスト,https://texture-asset.kirafan.cn/advlibraryicon/advlibraryicon_20231200.png,2023.12,{'1': 204934}
4,4935,1月・強敵チャレンジクエスト,https://texture-asset.kirafan.cn/advlibraryicon/advlibraryicon_20240100.png,2024.1,{'1': 204935}
4,4936,2月・強敵チャレンジクエスト,https://texture-asset.kirafan.cn/advlibraryicon/advlibraryicon_20240200.png,2024.2,{'1': 204936}
4,4937,3月・強敵チャレンジクエスト,https://texture-asset.kirafan.cn/advlibraryicon/advlibraryicon_20240300.png,2024.3,{'1': 204937}
4,4938,4月・強敵チャレンジクエスト,https://texture-asset.kirafan.cn/advlibraryicon/advlibraryicon_20240400.png,2024.4,{'1': 204938}
4,4939,5月・強敵チャレンジクエスト,https://texture-asset.kirafan.cn/advlibraryicon/advlibraryicon_20240500.png,2024.5,{'1': 204939}
4,4940,6月・強敵チャレンジクエスト,https://texture-asset.kirafan.cn/advlibraryicon/advlibraryicon_20240600.png,2024.6,{'1': 204940}
4,4941,7月・強敵チャレンジクエスト,https://texture-asset.kirafan.cn/advlibraryicon/advlibraryicon_20240700.png,2024.7,{'1': 204941}
5,5000,ひだまりスケッチ,https://texture-asset.kirafan.cn/contenttitlelogo/contentslogo0.png,,"{'10002000': 41000200, '10012000': 41001200, '10002010': 41000201}"
5,5001,ゆゆ式,https://texture-asset.kirafan.cn/contenttitlelogo/contentslogo1.png,,"{'11002000': 41100200, '11012000': 41101200, '11002010': 41100201, '11022000': 41102200}"
5,5002,がっこうぐらし！,https://texture-asset.kirafan.cn/contenttitlelogo/contentslogo2.png,,"{'12002000': 41200200, '12012000': 41201200, '12002010': 41200201, '12022000': 41202200, '12012010': 41201201}"
5,5003,Aチャンネル,https://texture-asset.kirafan.cn/contenttitlelogo/contentslogo3.png,,"{'13002000': 41300200, '13022000': 41302200, '13012000': 41301200, '13002010': 41300201}"
5,5004,きんいろモザイク,https://texture-asset.kirafan.cn/contenttitlelogo/contentslogo4.png,,"{'14002000': 41400200, '14012000': 41401200, '14032010': 41403201, '14032000': 41403200, '14022000': 41402200}"
5,5005,NEW GAME!,https://texture-asset.kirafan.cn/contenttitlelogo/contentslogo5.png,,"{'15002000': 41500200, '15022000': 41502200, '15042000': 41504200, '15012010': 41501201, '15032000': 41503200, '15062000': 41506200, '15012000': 41501200}"
5,5006,ステラのまほう,https://texture-asset.kirafan.cn/contenttitlelogo/contentslogo6.png,,"{'16022000': 41602200, '16002000': 41600200, '16012000': 41601200}"
5,5007,うらら迷路帖,https://texture-asset.kirafan.cn/contenttitlelogo/contentslogo7.png,,"{'17002000': 41700200, '17002010': 41700201, '17012010': 41701201, '17022010': 41702201}"
5,5008,キルミーベイベー,https://texture-asset.kirafan.cn/contenttitlelogo/contentslogo8.png,,"{'18002000': 41800200, '18012000': 41801200, '18002010': 41800201}"
5,5009,桜Trick,https://texture-asset.kirafan.cn/contenttitlelogo/contentslogo9.png,,"{'19002000': 41900200, '19022000': 41902200}"
5,5010,ブレンド・S,https://texture-asset.kirafan.cn/contenttitlelogo/contentslogo10.png,,"{'20002000': 42000200, '20012000': 42001200, '20012010': 42001201, '20002010': 42000201, '20022000': 42002200}"
5,5011,スロウスタート,https://texture-asset.kirafan.cn/contenttitlelogo/contentslogo11.png,,"{'21002000': 42100200, '21032000': 42103200, '21012000': 42101200}"
5,5012,けいおん！,https://texture-asset.kirafan.cn/contenttitlelogo/contentslogo12.png,,"{'22002000': 42200200, '22042000': 42204200, '22012000': 42201200, '22002010': 42200201}"
5,5013,ゆるキャン△,https://texture-asset.kirafan.cn/contenttitlelogo/contentslogo13.png,,"{'23002000': 42300200, '23012000': 42301200, '23032000': 42303200, '23012010': 42301201, '23032010': 42303201}"
5,5014,こみっくがーるず,https://texture-asset.kirafan.cn/contenttitlelogo/contentslogo14.png,,"{'24002000': 42400200, '24002010': 42400201}"
5,5015,GA 芸術科アートデザインクラス,https://texture-asset.kirafan.cn/contenttitlelogo/contentslogo15.png,,{'25002000': 42500200}
5,5016,夢喰いメリー,https://texture-asset.kirafan.cn/contenttitlelogo/contentslogo16.png,,"{'26002000': 42600200, '26002010': 42600201, '26012000': 42601200}"
5,5017,ハナヤマタ,https://texture-asset.kirafan.cn/contenttitlelogo/contentslogo17.png,,"{'27002000': 42700200, '27012000': 42701200}"
5,5018,あんハピ♪,https://texture-asset.kirafan.cn/contenttitlelogo/contentslogo18.png,,"{'28002000': 42800200, '28012000': 42801200}"
5,5019,はるかなレシーブ,https://texture-asset.kirafan.cn/contenttitlelogo/contentslogo19.png,,"{'29002000': 42900200, '29012000': 42901200}"
5,5020,ご注文はうさぎですか？,https://texture-asset.kirafan.cn/contenttitlelogo/contentslogo20.png,,"{'30002000': 43000200, '30012000': 43001200, '30022000': 43002200, '30032000': 43003200, '30042000': 43004200, '30012010': 43001201}"
5,5021,アニマエール！,https://texture-asset.kirafan.cn/contenttitlelogo/contentslogo21.png,,{'31002000': 43100200}
5,5022,きららファンタジア,https://texture-asset.kirafan.cn/contenttitlelogo/contentslogo22.png,,"{'32012010': 43201201, '32012000': 43201200, '32032000': 43203200, '32102000': 43210200, '32042000': 43204200, '32002000': 43200200, '32082000': 43208200}"
5,5023,三者三葉,https://texture-asset.kirafan.cn/contenttitlelogo/contentslogo23.png,,{'33002000': 43300200}
5,5024,棺担ぎのクロ。～懐中旅話～,https://texture-asset.kirafan.cn/contenttitlelogo/contentslogo24.png,,{'34002000': 43400200}
5,5025,まちカドまぞく,https://texture-asset.kirafan.cn/contenttitlelogo/contentslogo25.png,,"{'35002000': 43500200, '35012000': 43501200}"
5,5026,はるみねーしょん,https://texture-asset.kirafan.cn/contenttitlelogo/contentslogo26.png,,{'36002000': 43600200}
5,5027,幸腹グラフィティ,https://texture-asset.kirafan.cn/contenttitlelogo/contentslogo27.png,,{'37002000': 43700200}
5,5028,恋する小惑星,https://texture-asset.kirafan.cn/contenttitlelogo/contentslogo28.png,,{'38002000': 43800200}
5,5030,あっちこっち,https://texture-asset.kirafan.cn/contenttitlelogo/contentslogo30.png,,{'40002000': 44000200}
5,5031,おちこぼれフルーツタルト,https://texture-asset.kirafan.cn/contenttitlelogo/contentslogo31.png,,{'41002000': 44100200}
6,6000,ひだまりスケッチ,https://texture-asset.kirafan.cn/contenttitlelogo/contentslogo0.png,,"{'1': 610010, '2': 610020, '3': 610030, '4': 610040, '5': 610050, '6': 610060, '7': 610070, '8': 610080, '9': 610090, '10': 610100, '11': 610110}"
6,6001,ゆゆ式,https://texture-asset.kirafan.cn/contenttitlelogo/contentslogo1.png,,"{'1': 611010, '2': 611020, '3': 611030, '4': 611040, '5': 611050, '6': 611060, '7': 611070, '8': 611080, '9': 611090, '10': 611100, '11': 611110}"
6,6002,がっこうぐらし！,https://texture-asset.kirafan.cn/contenttitlelogo/contentslogo2.png,,"{'1': 612010, '2': 612020, '3': 612030, '4': 612040, '5': 612050, '6': 612060, '7': 612070, '8': 612080, '9': 612090, '10': 612100, '11': 612110}"
6,6003,Aチャンネル,https://texture-asset.kirafan.cn/contenttitlelogo/contentslogo3.png,,"{'1': 613010, '2': 613020, '3': 613030, '4': 613040, '5': 613050, '6': 613060, '7': 613070, '8': 613080, '9': 613090, '10': 613100, '11': 613110}"
6,6004,きんいろモザイク,https://texture-asset.kirafan.cn/contenttitlelogo/contentslogo4.png,,"{'1': 614010, '2': 614020, '3': 614030, '4': 614040, '5': 614050, '6': 614060, '7': 614070, '8': 614080, '9': 614090, '10': 614100, '11': 614110}"
6,6005,NEW GAME!,https://texture-asset.kirafan.cn/contenttitlelogo/contentslogo5.png,,"{'1': 615010, '2': 615020, '3': 615030, '4': 615040, '5': 615050, '6': 615060, '7': 615070, '8': 615080, '9': 615090, '10': 615100, '11': 615110}"
6,6006,ステラのまほう,https://texture-asset.kirafan.cn/contenttitlelogo/contentslogo6.png,,"{'1': 616010, '2': 616020, '3': 616030, '4': 616040, '5': 616050, '6': 616060, '7': 616070, '8': 616080, '9': 616090, '10': 616100, '11': 616110}"
6,6007,うらら迷路帖,https://texture-asset.kirafan.cn/contenttitlelogo/contentslogo7.png,,"{'1': 617010, '2': 617020, '3': 617030, '4': 617040, '5': 617050, '6': 617060, '7': 617070, '8': 617080, '9': 617090, '10': 617100, '11': 617110}"
6,6008,キルミーベイベー,https://texture-asset.kirafan.cn/contenttitlelogo/contentslogo8.png,,"{'1': 618010, '2': 618020, '3': 618030, '4': 618040, '5': 618050, '6': 618060, '7': 618070, '8': 618080, '9': 618090, '10': 618100, '11': 618110}"
6,6009,桜Trick,https://texture-asset.kirafan.cn/contenttitlelogo/contentslogo9.png,,"{'1': 619010, '2': 619020, '3': 619030, '4': 619040, '5': 619050, '6': 619060, '7': 619070, '8': 619080, '9': 619090, '10': 619100, '11': 619110}"
6,6010,ブレンド・S,https://texture-asset.kirafan.cn/contenttitlelogo/contentslogo10.png,,"{'1': 620010, '2': 620020, '3': 620030, '4': 620040, '5': 620050, '6': 620060, '7': 620070, '8': 620080, '9': 620090, '10': 620100, '11': 620110}"
6,6011,スロウスタート,https://texture-asset.kirafan.cn/contenttitlelogo/contentslogo11.png,,"{'1': 621010, '2': 621020, '3': 621030, '4': 621040, '5': 621050, '6': 621060, '7': 621070, '8': 621080, '9': 621090, '10': 621100, '11': 621110}"
6,6012,けいおん！,https://texture-asset.kirafan.cn/contenttitlelogo/contentslogo12.png,,"{'1': 622010, '2': 622020, '3': 622030, '4': 622040, '5': 622050, '6': 622060, '7': 622070, '8': 622080, '9': 622090, '10': 622100, '11': 622110}"
6,6013,ゆるキャン△,https://texture-asset.kirafan.cn/contenttitlelogo/contentslogo13.png,,"{'1': 623010, '2': 623020, '3': 623030, '4': 623040, '5': 623050, '6': 623060, '7': 623070, '8': 623080, '9': 623090, '10': 623100, '11': 623110}"
6,6014,こみっくがーるず,https://texture-asset.kirafan.cn/contenttitlelogo/contentslogo14.png,,"{'1': 624010, '2': 624020, '3': 624030, '4': 624040, '5': 624050, '6': 624060, '7': 624070, '8': 624080, '9': 624090, '10': 624100, '11': 624110}"
6,6015,GA 芸術科アートデザインクラス,https://texture-asset.kirafan.cn/contenttitlelogo/contentslogo15.png,,"{'1': 625010, '2': 625020, '3': 625030, '4': 625040, '5': 625050, '6': 625060, '7': 625070, '8': 625080, '9': 625090, '10': 625100, '11': 625110}"
6,6016,夢喰いメリー,https://texture-asset.kirafan.cn/contenttitlelogo/contentslogo16.png,,"{'1': 626010, '2': 626020, '3': 626030, '4': 626040, '5': 626050, '6': 626060, '7': 626070, '8': 626080, '9': 626090, '10': 626100, '11': 626110}"
6,6017,ハナヤマタ,https://texture-asset.kirafan.cn/contenttitlelogo/contentslogo17.png,,"{'1': 627010, '2': 627020, '3': 627030, '4': 627040, '5': 627050, '6': 627060, '7': 627070, '8': 627080, '9': 627090, '10': 627100, '11': 627110}"
6,6018,あんハピ♪,https://texture-asset.kirafan.cn/contenttitlelogo/contentslogo18.png,,"{'1': 628010, '2': 628020, '3': 628030, '4': 628040, '5': 628050, '6': 628060, '7': 628070, '8': 628080, '9': 628090, '10': 628100, '11': 628110}"
6,6019,はるかなレシーブ,https://texture-asset.kirafan.cn/contenttitlelogo/contentslogo19.png,,"{'1': 629010, '2': 629020, '3': 629030, '4': 629040, '5': 629050, '6': 629060, '7': 629070, '8': 629080, '9': 629090, '10': 629100, '11': 629110}"
6,6020,ご注文はうさぎですか？,https://texture-asset.kirafan.cn/contenttitlelogo/contentslogo20.png,,"{'1': 630010, '2': 630020, '3': 630030, '4': 630040, '5': 630050, '6': 630060, '7': 630070, '8': 630080, '9': 630090, '10': 630100, '11': 630110}"
6,6021,アニマエール！,https://texture-asset.kirafan.cn/contenttitlelogo/contentslogo21.png,,"{'1': 631010, '2': 631020, '3': 631030, '4': 631040, '5': 631050, '6': 631060, '7': 631070, '8': 631080, '9': 631090, '10': 631100, '11': 631110}"
6,6022,きららファンタジア,https://texture-asset.kirafan.cn/contenttitlelogo/contentslogo22.png,,"{'1': 632010, '2': 632020, '3': 632030, '4': 632040, '5': 632050, '6': 632060, '7': 632070, '8': 632080, '9': 632090, '10': 632100, '11': 632110}"
6,6023,三者三葉,https://texture-asset.kirafan.cn/contenttitlelogo/contentslogo23.png,,"{'1': 633010, '2': 633020, '3': 633030, '4': 633040, '5': 633050, '6': 633060, '7': 633070, '8': 633080, '9': 633090, '10': 633100, '11': 633110}"
6,6024,棺担ぎのクロ。～懐中旅話～,https://texture-asset.kirafan.cn/contenttitlelogo/contentslogo24.png,,"{'1': 634010, '2': 634020, '3': 634030, '4': 634040, '5': 634050, '6': 634060, '7': 634070, '8': 634080, '9': 634090, '10': 634100, '11': 634110}"
6,6025,まちカドまぞく,https://texture-asset.kirafan.cn/contenttitlelogo/contentslogo25.png,,"{'1': 635010, '2': 635020, '3': 635030, '4': 635040, '5': 635050, '6': 635060, '7': 635070, '8': 635080, '9': 635090, '10': 635100, '11': 635110}"
6,6026,はるみねーしょん,https://texture-asset.kirafan.cn/contenttitlelogo/contentslogo26.png,,"{'1': 636010, '2': 636020, '3': 636030, '4': 636040, '5': 636050, '6': 636060, '7': 636070, '8': 636080, '9': 636090, '10': 636100, '11': 636110}"
6,6027,幸腹グラフィティ,https://texture-asset.kirafan.cn/contenttitlelogo/contentslogo27.png,,"{'1': 637010, '2': 637020, '3': 637030, '4': 637040, '5': 637050, '6': 637060, '7': 637070, '8': 637080, '9': 637090, '10': 637100, '11': 637110}"
6,6028,恋する小惑星,https://texture-asset.kirafan.cn/contenttitlelogo/contentslogo28.png,,"{'1': 638010, '2': 638020, '3': 638030, '4': 638040, '5': 638050, '6': 638060, '7': 638070, '8': 638080, '9': 638090, '10': 638100, '11': 638110}"
6,6029,球詠,https://texture-asset.kirafan.cn/contenttitlelogo/contentslogo29.png,,"{'1': 639010, '2': 639020, '3': 639030, '4': 639040, '5': 639050, '6': 639060, '7': 639070, '8': 639080, '9': 639090, '10': 639100, '11': 639110}"
6,6030,あっちこっち,https://texture-asset.kirafan.cn/contenttitlelogo/contentslogo30.png,,"{'1': 640010, '2': 640020, '3': 640030, '4': 640040, '5': 640050, '6': 640060, '7': 640070, '8': 640080, '9': 640090, '10': 640100, '11': 640110}"
6,6031,おちこぼれフルーツタルト,https://texture-asset.kirafan.cn/contenttitlelogo/contentslogo31.png,,"{'1': 641010, '2': 641020, '3': 641030, '4': 641040, '5': 641050, '6': 641060, '7': 641070, '8': 641080, '9': 641090, '10': 641100, '11': 641110}"
6,6032,ぱわーおぶすまいる。,https://texture-asset.kirafan.cn/contenttitlelogo/contentslogo32.png,,"{'1': 642010, '2': 642020, '3': 642030, '4': 642040, '5': 642050, '6': 642060, '7': 642070, '8': 642080, '9': 642090, '10': 642100, '11': 642110}"
6,6033,こはる日和。,https://texture-asset.kirafan.cn/contenttitlelogo/contentslogo33.png,,"{'1': 643010, '2': 643020, '3': 643030, '4': 643040, '5': 643050, '6': 643060, '7': 643070, '8': 643080, '9': 643090, '10': 643100, '11': 643110}"
6,6035,スローループ,https://texture-asset.kirafan.cn/contenttitlelogo/contentslogo35.png,,"{'1': 645010, '2': 645020, '3': 645030, '4': 645040, '5': 645050, '6': 645060, '7': 645070, '8': 645080, '9': 645090, '10': 645100, '11': 645110}"
6,6036,RPG不動産,https://texture-asset.kirafan.cn/contenttitlelogo/contentslogo36.png,,"{'1': 646010, '2': 646020, '3': 646030, '4': 646040, '5': 646050, '6': 646060, '7': 646070, '8': 646080, '9': 646090, '10': 646100, '11': 646110}"
6,6037,ぼっち・ざ・ろっく！,https://texture-asset.kirafan.cn/contenttitlelogo/contentslogo37.png,,"{'1': 647010, '2': 647020, '3': 647030, '4': 647040, '5': 647050, '6': 647060, '7': 647070, '8': 647080, '9': 647090, '10': 647100, '11': 647110}"
