﻿m_ID,m_CueName,m_CueSheetID
-1,bgm_title,0
0,bgm_title,0
10000,bgm_town_1,1
10001,bgm_town_2,1
10002,bgm_town_3,1
10003,bgm_questselect,1
10004,bgm_gacha,1
10005,bgm_gachaplay,1
10006,bgm_battle_1,1
10007,bgm_battle_2,1
10008,bgm_battle_3,1
10009,bgm_battle_4,1
10010,bgm_battle_5,1
10011,bgm_battle_win,1
20012,bgm_adv_1,2
20013,bgm_adv_2,2
20014,bgm_adv_3,2
20015,bgm_adv_4,2
20016,bgm_adv_5,2
20017,bgm_adv_6,2
20018,bgm_adv_7,2
20019,bgm_adv_8,2
20020,bgm_adv_9,2
20021,bgm_adv_10,2
20022,bgm_adv_11,2
20023,bgm_adv_12,2
20024,bgm_adv_13,2
20025,bgm_adv_14,2
20026,bgm_adv_15,2
20027,bgm_adv_16,2
20028,bgm_adv_17,2
20029,bgm_adv_18,2
30000,bgm_5_fighter,3
30001,bgm_5_priest,3
30002,bgm_5_knight,3
30003,bgm_5_magician,3
30004,bgm_5_alchemist,3
30005,bgm_4_common,3
10012,bgm_town_xmas,1
10013,bgm_town_shougatu,1
10014,bgm_town_4,1
10015,bgm_questselect_2,1
10016,bgm_town_5,1
10017,bgm_questselect_3,1
