﻿m_ID,m_Text,m_VoiceCueName,m_LimitedCharaId
21000,"この世界にも
ベースはあるのかな
今度聞いてみよう",voice_300,[]
21001,"はじめましての人が
いっぱい……
ど……どうしよう",voice_301,[]
21002,"この中に左利きの人
とかベースやってる人
いないかな",voice_302,[]
21003,"あそこに
エリザベスを飾ったら
かっこいいかも",voice_303,[]
21004,"今ならいい詞が
作れそうな気がする",voice_3000,[]
21005,"早くいつもみたいに
みんなと演奏したいな",voice_3001,[]
21006,"模様替えで
気分を変えたいな",voice_3002,[]
21007,"律に似合いそうな
ヘアバンド
つい買ってしまった",voice_3003,[]
22000,"息抜きも必要だからな
今日はゆっくり
過ごすとするか",voice_312,[]
22001,"練習やライブも
楽しいけど
休日はほっとするな",voice_313,[]
22002,"海を眺めてると
良いアイデアが
浮かぶんだ",voice_3300,[]
22003,"じ、自分で歌うのは
まだ恥ずかしくて……",voice_3301,[]
22004,"うん！
我ながらいい歌詞が
書けたんじゃないか？",voice_3302,[]
22005,"そろそろ弦の
替えどきだな",voice_3303,[]
23000,おはよう　いい一日のスタートだな,voice_002,[]
23001,おやすみなさい,,[]
23002,いってきます,,[]
23003,ただいま戻りました♪,,[]
23004,おじゃまします,,[]
31000,"今日は音楽室の
大掃除をするか
……おもちゃだらけだ",voice_304,[]
31001,"学校にいると
練習したく
なってくるな",voice_305,[]
31002,"くっ……
また律に勉強を
教えてしまった",voice_3100,[]
31003,"唯は
どんなときでも
マイペースだよな",voice_3101,[]
31004,"それにしても
すごい世界だよな
毎日が海外旅行だ",voice_3102,[]
31005,"お茶を飲んで
休憩するか……",voice_3103,[]
32000,"唯はゲームを買っても
説明書読まない
タイプなんだ……",voice_308,[]
32001,"弱点の克服
がんばらなくっちゃ",voice_309,[]
32002,"ムギ……どうして
たまにニヤニヤ
してるんだろ？",voice_3200,[]
32003,"梓は年下なのに
ほんと
しっかりものだなぁ",voice_3201,[]
32004,"ほっとくと際限なく
ものが増えるからなぁ
近々大掃除だな",voice_3202,[]
32005,"つぎのライブに向けて
練習時間を増やすぞ",voice_3203,[]
33000,"わっ……！
なんかいいもの出たぞ！",voice_200,[]
33001,えへへ……うれしいな。,voice_201,[]
33002,も、もしかしてサプライズ……？　やったな！,voice_202,[]
33003,そんなに喜んでくれると私も嬉しくなるよ。,voice_203,[]
33004,日頃の行いかな。,voice_204,[]
33005,へぇ、律にでもやるか。,voice_205,[]
41000,それじゃあ行ってくる,voice_009,[]
41001,べつに　緊張してない……,voice_010,[]
41002,お手並み拝見といこうか,voice_011,[]
41000,"悪いんだけど
これをお願いしても
いいかな？",voice_012,[]
41000,"ありがとう
思った以上に
頼りになるんだな",voice_013,[]
51000,"ベース担当の秋山澪です、よろしく。
歌詞を考えたりもしてるよ。",voice_014,[]
51001,"や、やるしかないな。
気合いをいれなくちゃ。",voice_015,[]
51002,あんまり注目されるとツライ……うぅ……。,voice_016,[]
51003,大丈夫か？　あんまり無理するなよ。,voice_017,[]
240001027,"やっぱりおいしい
だけど甘いお菓子は
控えめにしておくかな",voice_316,[]
240501053,"エリザベス♡
……なんてな",voice_317,[]
240101001,"甘い匂いのする
お菓子の森で
小鳥さんたちと～♪",voice_318,[]
240201004,"えぇーっ！？
レフティ特集号！？
あとでじっくり読もう",voice_319,[]
240401003,"ひっ！！
なんでここに
学祭ライブの映像が！？",voice_320,[]
