﻿m_ID,m_Text,m_VoiceCueName,m_LimitedCharaId
21000,"あいたっ！
金髪に目が
くらんじゃって……",voice_300,[]
21001,"カレンちゃんの
メイドに
なりたいなぁ……",voice_301,[]
21002,"るらら～る～♪
何でもない日にも
幸せはあるんだなー",voice_302,[]
21003,"カレンちゃんの
サイン入りブロマイド
一生大事にするね！",voice_303,[]
21004,"私と忍ちゃんによる
金髪同盟は
同志募集中だよ",voice_3000,[]
21005,"テニスよりも
玉乗りのほうが
得意かな",voice_3001,[]
22000,"カレンちゃんと2人で
お買い物に
行けたらいいなぁ",voice_312,[]
22001,"家のレストランに
みんなが来てくれるの
嬉しいなー",voice_313,[]
22002,"カレンちゃんに
あげるお菓子
作ってみようかな",voice_314,[]
22003,"アリスちゃんの金髪は
スイートな輝き！",voice_315,[]
22004,"私でよければ
荷物持ちでも
なんでもしちゃうよ",voice_3300,[]
22005,"いつもお休みの日は
お店のお手伝いしてるの",voice_3301,[]
23000,"オハヨウゴジャイマ～ス！
なんてカレンちゃんの真似！",voice_002,[]
23001,おやすみなさい,,[]
23002,いってきます,,[]
23003,ただいま戻りました♪,,[]
23004,おじゃまします,,[]
31000,"忍ちゃんとは
金髪を愛する
金髪同盟を結んでるの",voice_304,[]
31001,"むにゃむにゃ……ハッ！
スタンドバイミー！",voice_305,[]
31002,"私って考えが
顔に出やすいみたい
なんだよね……",voice_306,[]
31003,"そろそろテニスの
練習試合の日か……
緊張するなぁ",voice_307,[]
31004,"どこかから
カレンちゃんの
声がするよ！",voice_3100,[]
31005,"私もいつか
カレンちゃんみたいに
なりたいの",voice_3101,[]
32000,"部活行かなきゃ！
カレンちゃんも
応援してくれてるし！",voice_308,[]
32001,"今日はちょっと
疲れちゃったな……",voice_309,[]
32002,"金髪に癒されるー！
ものすごい
ヒーリング効果が！",voice_310,[]
32003,"どうしようー
カレンちゃんが
警戒モードだよー",voice_311,[]
32004,"甘いもの好き？
お菓子作ってきたの
よかったらどうぞ",voice_3200,[]
32005,"いつもは部活が
あるからあんまり
遊べなくて……",voice_3201,[]
33000,ああ……目の前に金色のお星様が……！,voice_200,[]
33001,今日は色々と頑張れそうな気がする！,voice_201,[]
33002,みんなが喜んでくれると嬉しいな。,voice_202,[]
33003,金髪への想いが幸運を招いたのかも？,voice_203,[]
41000,大玉ころがしとか玉入れとかは…やらないよね,voice_009,[]
41001,どう？　役に立てたかな？,voice_010,[]
41002,私が足引っ張らないか、ちょっと心配だな…,voice_011,[]
41000,"お願いできそう？
無理にとは
言わないよー",voice_012,[]
41000,"わぁーありがとう！
何だかとっても
心強いよ！",voice_013,[]
51000,"松原穂乃花って言います。カレンちゃんとは
クラスがずっと一緒なんだよ～",voice_014,[]
51001,"テニス部だけどあんまり上手じゃなくて…
うまくできるのは玉乗りくらいだよ",voice_015,[]
51002,テニスよりハンバーグより金髪が好きだよ！,voice_016,[]
51003,"私も応援するから一緒に頑張ろう！
金！髪！金！髪！",voice_017,[]
240101001,"私…目を開けて
寝てたり
してないかな…",voice_316,[]
240601001,"きっとこんな子たちが
カレンちゃんのお家の
枕元に…はあはあ",voice_317,[]
240501001,"カレンちゃんって
お花育てるの
上手なんだよね",voice_318,[]
240201006,"金髪少女が主人公の
物語で何かいい本
ないかなぁ",voice_319,[]
240401004,"カレンちゃんのお肌…
どんなお手入れ
してるんだろう",voice_320,[]
