﻿m_ID,m_Text,m_VoiceCueName,m_LimitedCharaId
21000,"毎日まんがが
描けるだけで
満たされてるよ",voice_300,[]
21001,"描き続けるしかない
おのれの理想に
近づきたくば！",voice_301,[]
21002,"アニメに対する
かおすの考察は
深くて勉強になるなー",voice_302,[]
21003,"小夢と一緒にいると
女子をもっとかわいく
描こうって気になる",voice_303,[]
21004,"ランニング10ｋｍ
腹筋背筋腕立て
スクワットを3セット",voice_3000,[]
21005,"がんばってる子を
見ていると
何かあげたくなる……",voice_3001,[]
22000,"デッサン会してたの？
私も呼んでくれれば
良かったのにー",voice_312,[]
22001,"ネームが降りてきた！
勢いで一気に
仕上げる！",voice_313,[]
22002,"私の中で
ヒロインといえば
小夢だから",voice_3300,[]
22003,"うっ……！
封印したはずの
あの力が……",voice_3301,[]
23000,眠い……でも授業中に寝てるとるっきーが怒るから頑張る,voice_002,[]
23001,おやすみなさい,,[]
23002,いってきます,,[]
23003,ただいま戻りました♪,,[]
23004,おじゃまします,,[]
31000,"我は魔族に生まれし
暗黒の勇者……
ごめん、原稿描いてた",voice_304,[]
31001,"ちゃんと個性を
出せれば、まんがは
おもしろくなる",voice_305,[]
31002,"おばけ？
頭からインクかぶった
まんが家とかでしょ",voice_3100,[]
31003,"読切のネタ出し
どこでしようかな",voice_3101,[]
32000,"取材とか付き合うし
私でよければ
何でも言いなよ",voice_308,[]
32001,"まんがのための
人間観察だと思うと
疲れないよ",voice_309,[]
32002,"まんがと勉強の両立は
切り替えが大事！",voice_3200,[]
32003,"ひよこ……
かわいい……",voice_3201,[]
33000,おっ、いいこともあるもんだな。,voice_200,[]
33001,こういうとき主人公ならどう反応するかな……。,voice_201,[]
33002,ん？　頭に何か付いてた？,voice_202,[]
33003,あ、これこれ！　欲しかったんだ。,voice_203,[]
41000,旅の支度はできてるぞ,voice_009,[]
41001,いい報酬は得られた？,voice_010,[]
41002,おまえが魔王か！,voice_011,[]
41000,"悪いんだけど
ちょっと
頼まれてくれない？",voice_012,[]
41000,"ありがとう
やってくれると
信じてたよ",voice_013,[]
51000,"勝木翼、激アツの少年まんが家だ。
るっきーとは幼なじみだよ。",voice_014,[]
51001,"主人公になりきる……。
そうすれば原稿に集中できる。",voice_015,[]
51002,"さあ行こう！
幻のアイテムが眠るダンジョンへ……！",voice_016,[]
51003,"一生懸命やろうとしたのは伝わる。
そういう奴は成長するから大丈夫だ。",voice_017,[]
240001025,"編集者が見立てた
将来性なんて
超える気でいけ",voice_316,[]
240101001,"良いイスに変えたら
もっと良いまんがが
描けるだろうか",voice_317,[]
240201006,"ぜんぶまんがの
資料に見える
これが職業病か……",voice_318,[]
240401010,"小夢が入れてくれた
コーヒーの甘さは
すさまじかったな……",voice_319,[]
240201008,"かおすがダンボールの
中に入ってたときは
ビックリしたな",voice_320,[]
