﻿m_ID,m_Text,m_VoiceCueName,m_LimitedCharaId
21000,"隙間風が入ってこない
素晴らしい部屋……
とても快適ですわね！",voice_300,[]
21001,"良い節約方法が
あったら
教えてくださらない？",voice_301,[]
21002,"服、ほつれてますわよ　
山路に
繕わせましょうか？",voice_302,[]
21003,"パンの耳は素晴らしい
食べ物ですわ！
安いし、満腹になるし",voice_303,[]
21004,"双葉さんと葉山さんを
お誘いしてお参りに
行こうかしら",voice_3000,[33002010]
21005,"冬暖かく、夏は涼しい
本当に素晴らしい
場所ですわね",voice_3001,[]
22000,"お休みですので、
お買物にお洗濯に
有効的に使わなくては",voice_312,[]
22001,"みなさんにお料理を
振る舞おうかと！
やめたほうが良い……？",voice_313,[]
22002,"さあ、お休みの間に
穴の空いた靴下を
繕わなくては！",voice_3300,[]
22003,"里のお店で買える
マヨネーズはとっても
質が良いんですの！",voice_3301,[]
23000,あら、おはようございます。朝から元気ですのね,voice_002,[]
23001,おやすみなさい,,[]
23002,いってきます,,[]
23003,ただいま戻りました♪,,[]
23004,おじゃまします,,[]
31000,"お手伝いさせて
頂いているの
何事も経験ですから",voice_304,[]
31001,"先程お茶とお菓子を
いただきましたの　
ありがたいですわ！",voice_305,[]
31002,"パンの耳とマヨネーズ
これだけで立派な
ごちそうですわ！",voice_3100,[]
31003,"辻さんに格好を
褒めていただいたの
どうかしら？",voice_3101,[]
32000,"楽しそうですわね
え？　わたくしも？
し、仕方ありませんわね",voice_308,[]
32001,"みんなで何かをする
というのはあまり
経験が無いですわね",voice_309,[]
32002,"薗部のお店を
覗きに行って
みようかしら",voice_3200,[]
32003,"今から双葉さんたちと
銭湯に行きますの
代金分入らなければ！",voice_3201,[]
33000,見てください！　先程見つけたんですの。,voice_200,[]
33001,"わたくしには使い方が
わからないから差し上げますわ。",voice_201,[]
33002,"キラキラして綺麗ですわね。
お守り代わりにどうぞ。",voice_202,[]
33003,幸せは実は身近にあるのかもしれませんわね。,voice_203,[]
41000,道中、食べられる野草は生えていないかしら,voice_009,[]
41001,どう？この結果。これがわたくしの実力でしてよ！,voice_010,[]
41002,このわたくしが負けるとでも思って！,voice_011,[]
41000,"今、山路も薗部も
居なくて……
お願いできないかしら？",voice_012,[]
41000,"流石ですわね！
お礼はマヨネーズでよろしいかしら？",voice_013,[]
51000,"西川葉子と申します。以前は裕福だったのですが
父の会社が倒産してしまってこのような生活を。",voice_014,[]
51001,"わたくし、負けませんわ！　没落した頃に
比べればなんてことありませんもの！",voice_015,[]
51002,"とりあえずマヨネーズがあれば
なんとかなるものですわ！",voice_016,[]
51003,"前向きに暮らしていれば、
きっと良いことがありますわ。",voice_017,[]
240001034,"ん～この味！
最強の組み合わせ　
美味しいですわ！",voice_316,[]
240501001,"育ったら
双葉さんに調理して
頂きましょう",voice_317,[]
240201016,"身だしなみは
きちんとしなければ！
女性の嗜みですわ",voice_318,[]
240401012,"少し残ってますわね
支払った分は全て
飲み干さないと！",voice_319,[]
240201004,"雑誌は高価で
なかなか買えないから
勉強になりましたわ",voice_320,[]
