﻿m_ID,m_Text,m_VoiceCueName,m_LimitedCharaId
21000,"宗次郎のエサ……
大丈夫かな……？",voice_300,[]
21001,"もう少し……
話せるように……
なりたいな……",voice_301,[]
21002,"ファンタジーの世界……
なんか……新鮮……",voice_302,[]
21003,"ここにきちゃって……
次のゲーム開発……
大丈夫……かな……？",voice_303,[]
21004,"やっぱり
笑顔でいるのが
一番だよね",voice_3002,[]
21005,"新しい衣装も
うまくできると
いいなぁ～",voice_3003,[]
21006,"自分の思ってること、
ちゃんとみんなに
言えるように……",voice_3000,[]
21007,"ふぁ、ふぁいとー……
おー……
なんでもないです……！",voice_3001,[]
21008,"ファンタジー世界も
スタイリッシュな現代
ものもいい……よね",voice_3004,[]
21009,"マッチのお腹
宗次郎みたい……
もふもふしたい……",voice_3005,[]
21010,"よくよく考えたら
コスプレと水着の
違いって……？",voice_3006,[15012030]
21011,"せ、先輩として
ちゃんと引率
しないと……！",voice_3007,[]
22000,"た……たまには……
い……いめちぇん……
してみたい……！",voice_312,[]
22001,"笑顔の練習……
スマイル……
スマイル……",voice_313,[]
22002,"色んな人がいるから……
コスプレの参考に……",voice_314,[]
22003,"こ、ここなら……
コスプレ……してても
違和感ない……？",voice_315,[]
22004,"うふふ(*´3`*)
今日は何して
遊ぼうかなー？",voice_3302,[]
22005,"青葉ちゃん
一緒に出掛けて
くれるかな？",voice_3303,[]
22006,"宗次郎……
元気にしてる、よね……？",voice_3300,[]
22007,"しゃ、しゃべりすぎて……
疲れちゃった……
ＺＺＺＺＺ……",voice_3301,[]
22008,"頼れる先輩か……後輩に
甘えてないで……私も
しっかりしよう……！",voice_3304,[]
22009,"みんなの服……見てると
かわいいのばかりで
時間を忘れそう……",voice_3305,[]
22010,"今日は青葉ちゃんたち
と新しい水着を
見にいかなきゃ……！",voice_3306,[15012030]
22011,"夏にみんなと旅行は
珍しいよね
……楽しみ",voice_3307,[15012030]
23000,おはようございます。……よろしく。,voice_002,[]
23001,おやすみなさい,,[]
23002,いってきます,,[]
23003,ただいま戻りました♪,,[]
23004,おじゃまします,,[]
31000,"かわいくつくれたー
（●´3｀）~♪",voice_304,[]
31001,"青葉ちゃん
大丈夫……かな……",voice_305,[]
31002,"このキャラモデル……
どうしようかな……",voice_306,[]
31003,"3Ｄモデル作るの
もっと……
うまくなりたいな",voice_307,[]
31004,"うん(*´▽`*)
今日はけっこう
いい感じ☆",voice_3102,[]
31005,"そろそろ休憩……
おやつ食べよっと
σ(´～`*)",voice_3103,[]
31006,"青葉ちゃんが作る
デザイン……
好き、なの……",voice_3100,[]
31007,"最近のコウちゃん
笑ってて
安心する……",voice_3101,[]
31008,"これが……
イーグルジャンプの主
もずく……！",voice_3104,[]
31009,"自信は……ないけど
コウちゃんの言葉を
信じてみようと思う",voice_3105,[]
31010,"ゲームで水着イベント
ってあるけど……
なんなんだろうね？",voice_3106,[15012030]
31011,"エトワリアで
海水浴って
大丈夫なのかな？",voice_3107,[15012030]
32000,"このままだと
帰れない……かも……",voice_308,[]
32001,"おわらないよ～
ヽ(´Д｀;≡;´Д｀)ﾉ",voice_309,[]
32002,"今日は……
ちょっと残ります",voice_310,[]
32003,"宗次郎は……
さみしがっていない
……かな？",voice_311,[]
32004,"ええっ！？
もうこんな
時間なの( ﾟДﾟ)",voice_3202,[]
32005,"う～んう～ん……
どうすればもっと
かわいくなるかなぁ？",voice_3203,[]
32006,"みんなで行った
温泉とスキー
また行きたいな……",voice_3200,[]
32007,"マスター前は寝ないで
作業しないとね
((((；´ﾟДﾟ)))",voice_3201,[]
32008,"1人でコスプ……あ！
き……れいな服とかを
着るのが好きなので",voice_3204,[]
32009,"エトワリアの観光の
穴場とかあったら
教えて……ね？",voice_3205,[]
32010,"パラソルとかも
準備したほうが
いいよね",voice_3206,[15012030]
32011,"みんなのかわいい
水着を見れると思えば
……人がいても大丈夫",voice_3207,[15012030]
33000,何かいいことありそうだねヽ(*>▽<*)ﾉ,voice_200,[]
33001,あ……えっと……おめでとう。,voice_201,[]
33002,あ、あの……これ……見つけました……。,voice_202,[]
33003,わ～い！　良いものゲットだよ～！,voice_203,[]
33004,ラッキー☆　やったねー(*≧∀≦)ﾉ,voice_204,[]
33005,日ごろの行いがいいからかな？,voice_205,[]
33006,あの……これ使って……がんばってね！,voice_206,[]
33007,"やったー☆　運が良かったね！
おめでとう！　(⌒▽⌒)／",voice_207,[]
33008,このサーフボード……かわいいかも。,voice_208,[15012030]
33009,あのお店、青葉ちゃんたちも誘っていこうかな。,voice_209,[]
41000,ひとりで…大丈夫かな？,voice_009,[]
41001,それほどでも…まあまあ…です…,voice_010,[]
41002,なんか…でてきた…,voice_011,[]
41000,"あの…これ…
お願いします…",voice_012,[]
41000,"ありがと～！
たすかったよー
ヽ( ´ω`)ﾉ ﾜ～ｲ",voice_013,[]
51000,滝本ひふみ……です。よろしく……。,voice_014,[]
51001,"みんなががんばってるから……
私も……がんばる！",voice_015,[]
51002,"普段は喋るの苦手なんだけど、
メッセなら大丈夫！",voice_016,[]
51003,"あ、あの……えっと……ね……ふぁいと。
いっしょにがんばろう？",voice_017,[]
240001015,"……っぷ……くっ……
ふふふ……",voice_316,[]
240401003,"おもしろい番組
……やってないかな？",voice_317,[]
240401011,……ふぅ,voice_318,[]
240401009,"いまのうちに……
……資料……
まとめよう……",voice_319,[]
240601001,"……かわいい
青葉ちゃんみたい
……ふふ",voice_320,[]
