﻿m_ID,m_Text,m_VoiceCueName,m_LimitedCharaId
21000,"かおすちゃんと
同じ部屋で暮らすの
すっごく楽しいよー！",voice_300,[]
21001,"好きって何！？
恋って何！？
何って何～！？",voice_301,[]
21002,"翼さんを見てると
いろんな種類の
男の子が描けるんだ～",voice_302,[]
21003,"るきちゃんは翼さんの
お母さんみたいになる
ときがあるよね",voice_303,[]
21004,"よーし今日の
ノルマ終わり～♪
おでかけしちゃお",voice_3000,[]
21005,"可愛い服って
着てるだけで
元気出るよね～",voice_3001,[]
21006,"あっ！
私、かぜひいたことない",voice_3002,[]
21007,"やきいものために
ボツネームも
もやすしかないよね！",voice_3003,[]
22000,"今日はネームの
気分じゃないから
パーッとおでかけ！",voice_312,[]
22001,"休日はウキウキするね
お買い物もいいし
遊園地もいいなぁ",voice_313,[]
22002,"気分転換に
甘いもの食べに
行こうよ！",voice_3300,[]
22003,"まんがの道具
買いに行こう～♪
一緒にどう？",voice_3301,[]
22004,"私めがね
似合わないんだ～
しょんぼり……",voice_3302,[]
22005,"ひゃわぁ～！
夢に翼さんが
でてきたよぉぉ～",voice_3303,[]
23000,おはよー！　さーて朝ごはん…って、遅刻しちゃうー！,voice_002,[]
23001,おやすみなさい,,[]
23002,いってきます,,[]
23003,ただいま戻りました♪,,[]
23004,おじゃまします,,[]
31000,"彼氏いる子の話を
聞くのは新鮮！
まんがの参考になるよ",voice_304,[]
31001,"恋愛のこと考えてたら
翼さんのまぼろしが
みえてきた……！",voice_305,[]
31002,"かおすちゃんの
髪の毛ふわふわで
アレンジ楽しい～♪",voice_3100,[]
31003,"るきちゃんのまんが
モデルが私だから
見ないで～！",voice_3101,[]
31004,"紛失物コーナーに
なくしたと思ってた
ものがよく入ってるの",voice_3102,[]
31005,おなかすいちゃった……,voice_3103,[]
32000,"よーし！
連載目指して
一緒にがんばろうね！",voice_308,[]
32001,"見て見て～！
今度描くまんがの
新キャラクターだよ",voice_309,[]
32002,"翼さんを見てる
だけでエピソードが
たくさん浮かぶの！",voice_3200,[]
32003,"ここでのことも
いっぱいまんがに
いかせたらいいな",voice_3201,[]
32004,"はちみつとジャム
持って来ていいかなぁ",voice_3202,[]
32005,"校長せんせーが
おすすめしてくれた
お団子おいしかった～",voice_3203,[]
33000,ラッキーアイテム、ゲットできた？,voice_200,[]
33001,まだまだいっぱい遊べるね！,voice_201,[]
33002,わーい！　良いもの見つけたよー！,voice_202,[]
33003,この調子でどんどんラッキー探そうねっ。,voice_203,[]
33004,あっドーナツ！？　……じゃなかったぁ～。,voice_204,[]
33005,これは食べられるのかなぁ～？,voice_205,[]
41000,いってみよー！,voice_009,[]
41001,ただいま！　はい、おみやげだよ！,voice_010,[]
41002,やっちゃうぞー！,voice_011,[]
41000,"ちょっとお願いが
あるんだけど
聞いてくれるかなぁ？",voice_012,[]
41000,"おつかれさま～！
ホントにすごいね！
ありがとう～！",voice_013,[]
51000,"私は少女まんが家の恋塚小夢！
甘いものが大好きだよ！　よろしくね！",voice_014,[]
51001,"いい一日を過ごしたらいいネームが
描けるんだよ。",voice_015,[]
51002,恋してる女の子を見てるとワクワクする～。,voice_016,[]
51003,"集中できるようにお手伝いするので、
なんでも言ってください！",voice_017,[]
240001025,"もしかして私
すごいまんが
思いついちゃった！？",voice_316,[]
240101001,"イスに座ったら
甘いものが
食べたくなっちゃった",voice_317,[]
240201006,"もっともっと
恋愛まんがを
研究しなきゃね！",voice_318,[]
240401010,"コーヒーのお砂糖は
力いっぱい入れるのが
おいしいよね！",voice_319,[]
240001014,"先生キャラクターの
三角関係まんがって
面白いかも！",voice_320,[]
