﻿m_ID,m_Text,m_VoiceCueName,m_LimitedCharaId
21000,"みなさんにお茶を
お淹れしなくっちゃ
腕が鳴るわ～",voice_300,[]
21001,"ふふっ
合宿みたいで
楽しいですね",voice_301,[]
21002,"私、両方の眉を
一度に取られると
ゲル状になっちゃうの",voice_302,[]
21003,"このお部屋
女の子がいっぱい……
うっとり……",voice_303,[]
22000,"いろいろな国に
行ったけれど
この世界もステキね",voice_312,[]
22001,"今度のライブは
どんな衣装に
なるのかしら",voice_313,[]
23000,おはようございますっ　目覚めの一杯いかがですか？,voice_002,[]
23001,おやすみなさい,,[]
23002,いってきます,,[]
23003,ただいま戻りました♪,,[]
23004,おじゃまします,,[]
31000,"叩いたり叩かれたりの
スキンシップ……
いいなぁ～",voice_304,[]
31001,"今度来るときは
いつもと違う紅茶を
持ってこようかしら",voice_305,[]
32000,"もしかしたら
私物がいちばん多いの
私なのかしら？",voice_308,[]
32001,"みんなが
喜んでくれると
私もうれしい♡",voice_309,[]
33000,いいもの見つけましたよ～。,voice_200,[]
33001,これは大発見ね♪,voice_201,[]
41000,いってまいります！,voice_009,[]
41001,特訓の成果は出たでしょうか？,voice_010,[]
41002,あらあら　負けませんよ♪,voice_011,[]
41000,"すみません
こちら……
お願いできますか？",voice_012,[]
41000,"わぁ！
終わったんですか？
ありがとうございます",voice_013,[]
51000,"琴吹紬です、軽音部では
キーボードやお茶を担当してます♪",voice_014,[]
51001,"本人同士がいいなら
いいんじゃないでしょうかっ。",voice_015,[]
51002,"クセ毛だから雨のときは
鏡の前で格闘しているの……。",voice_016,[]
51003,"大変でしたね……でも、もうちょっとだけ
いっしょにがんばってみませんか？",voice_017,[]
240001027,"同じ紅茶なのに
みんなと飲むほうが
おいしいわ～",voice_316,[]
240501052,"あの曲のアレンジを
考えてみようかしら",voice_317,[]
240101001,"ホッと一息……
あ、お茶菓子を
用意しなくっちゃ",voice_318,[]
240201007,"ティーカップを
しまっておきましょ",voice_319,[]
240401012,"飲みたいものが
すぐに出てきて
便利ね～♪",voice_320,[]
