﻿m_ID,m_Text,m_VoiceCueName,m_LimitedCharaId
21000,"この世界の本も
読んでいて楽しい
参考になる",voice_300,[]
21001,"お内裏様には
斬馬刀を持たせた方が
強そうでいいと思う",voice_301,[]
21002,"最近はお姉の天下統一の
参考になりそうな
本も読んでる",voice_302,[]
21003,"お姉は今大事な
戦いをしてるって
お母さんが言ってた",voice_303,[]
21004,"この世界にもお姉の
軍勢に相応しい人が
たくさんいそうだね",voice_3000,[]
21005,"エトワリアなら
ごせんぞ様の
写真撮れるかな",voice_3001,[]
22000,"やっぱり桃さんは
お姉の軍勢の
魔法少女だったんだ",voice_312,[]
22001,"桃さんに多重バック
アップの大切さを
教えてもらった",voice_313,[]
22002,"暇になったらで
いいからお姉の
撮影会をしたい",voice_3300,[]
22003,"この世界には元の世界
に無いものがいっぱい
あって勉強になる……",voice_3301,[]
23000,おはようございます。今日もお姉のためにがんばります,voice_002,[]
23001,おやすみなさい,,[]
23002,いってきます,,[]
23003,ただいま戻りました♪,,[]
23004,おじゃまします,,[]
31000,"お姉のしっぽ
……最近楽しそう",voice_304,[]
31001,"配下の者にちらし寿司を
ふるまうなんて
お姉はがんばってる",voice_305,[]
31002,"お姉の戦ってる姿
良はかっこいいと
思うよ！！",voice_3100,[]
31003,"里の地形を
下調べしておくのも
軍師の仕事",voice_3101,[]
32000,"ミカンさん……
柑橘類以外も
買わないと",voice_308,[]
32001,"桃さん身のこなしが
完全に武将の
それだった……",voice_309,[]
32002,"エトワリアにも
兵法書ってあるのかな
あったら読んでみたい",voice_3200,[]
32003,"ここには
お姉のために
なるものあるかな",voice_3201,[]
33000,これをお姉がつよくなるように使ってください。,voice_200,[]
33001,これは便利だと思う。,voice_201,[]
33002,落とした物は拾い徳です。,voice_202,[]
33003,お姉の役に立ててね。,voice_203,[]
41000,お姉のためにがんばってきます,voice_009,[]
41001,いいかんじにがんばりました,voice_010,[]
41002,つよい相手でもお姉は負けない,voice_011,[]
41000,"お願いが
あるんですけど
大丈夫ですか？",voice_012,[]
41000,"さすがです
とても助かりました
ありがとうございます！",voice_013,[]
51000,"優子の妹の良子です。
お姉の参謀になるべく毎日勉強しています。",voice_014,[]
51001,お姉のためにがんばる……！,voice_015,[]
51002,"馬に乗り戦場を駆けるお姉の軍勢を
城塞から見守りたい！",voice_016,[]
51003,"がんばって。素材さえとれれば脚色しまくって
いい感じにするから。",voice_017,[]
240501107,"ごせんぞ
だいじょうぶ？
お供えしてあげる",voice_316,[]
240401009,"お姉の活躍写真集を
プリントアウトして
まとめておこう",voice_317,[]
240001015,"お姉の写真を修正して
エフェクトをかけて
かっこよく加工するね",voice_318,[]
240001013,"なるほど……
この兵法書は
とても参考になる",voice_319,[]
240701011,"いっぱい勉強して
お姉の軍勢の
参謀になりたい！",voice_320,[]
