﻿m_ID,m_Text,m_VoiceCueName,m_LimitedCharaId
21000,"ファーを見なかった？
服を着ないでどこかに
行っちゃって……",voice_300,[]
21001,"サトナ様は
私の憧れの神官なの",voice_301,[]
21002,"もしもファーのツノが
うさ耳でふわふわ
だったら……可愛い！",voice_302,[]
21003,"わ、私はお化けなんて
信じてないけど！",voice_303,[]
22000,"もう何もしたくない～
ラキラ、ご飯
あ～んして！",voice_312,[]
22001,"今日はお休みだし
読めてなかった本を
読破するんだ～♪",voice_313,[]
23000,「起きてほしいにゃ」……って何やらせるのー！,voice_002,[]
23001,おやすみなさい,,[]
23002,いってきます,,[]
23003,ただいま戻りました♪,,[]
23004,おじゃまします,,[]
31000,"ラキラも琴音も
社会情勢にちっとも
興味ないんだから……",voice_304,[]
31001,"ラキラは小さいとき
男の子みたい
だったのよ",voice_305,[]
32000,"働けど働けど
仕事が終わらず
今日は残業かあ……",voice_308,[]
32001,"んー。頑張ったから
ちょっと息抜き
しようかしら",voice_309,[]
33000,"わからないところがあるの？
教えてあげようか？",voice_200,[]
33001,あなたにお勧めの物件があるのよ。,voice_201,[]
41000,若いうちは修行と思ってなんでもやらないとね,voice_009,[]
41001,まずまずの成果、ってところかしら,voice_010,[]
41002,ここはやるしかないみたいね……,voice_011,[]
41000,"出かけなくちゃいけな
いんだけど少しここを
お願いしてもいい？",voice_012,[]
41000,"おかげで助かったわ
あなたにお願いできて
本当によかった",voice_013,[]
51000,"国王に政治的助言ができるぐらいの
神官になるのが夢なの。",voice_014,[]
51001,"成績優秀、真面目で努力家な私に
スキなんてないわ。",voice_015,[]
51002,私だって可愛いものが好きなの。,voice_016,[]
51003,"第一印象が大切だから
挨拶はきちんとしないとね。",voice_017,[]
240001075,"エトワリアで出世
したら神殿でお仕事
できるのかしら",voice_316,[]
240401010,"苦っ……くないわよ！
いつもブラックで
飲んでるもの！",voice_317,[]
240601001,"ネクロマンサーなら
この子も
動かせるのかな？",voice_318,[]
240201001,"ファーが服を
脱ぎ捨てないか
注意しておかないと",voice_319,[]
240201013,"こっちでも働く以上は
こっちの不動産業の
ことも勉強しないとね",voice_320,[]
