﻿m_ID,m_Text,m_VoiceCueName,m_LimitedCharaId
21000,"編集さんに言われて
文芳社の女子寮に
入ることになりました！",voice_300,[]
21001,"自分がちんちくりんで
スタイルいい子が
描けない……！",voice_301,[]
21002,"琉姫さんは
あこがれの
センパイです……！",voice_302,[]
21003,"背が小4でとまった
私にとって、長い髪は
成長のあかしです",voice_303,[]
21004,"おなか冷えたら
困るので
腹巻していいですか？",voice_3000,[24002010]
21005,"みなさん
私にとっては
絶世のマーメイドです",voice_3001,[24002010]
21006,"にゃおす先生を
なでなでしたく
なってきました……",voice_3002,[]
21007,"クリスマスは
見ているだけで
十分なのです……",voice_3003,[24002020]
21008,"にゃっぱれにゃっぱれ
恋ゴコロ♪",voice_3004,[]
21009,"ゲシュタルト崩壊
五臓六腑が
ホニャララーン♪",voice_3005,[]
22000,"もう子供じゃないので
一人でお出掛け
できますよ……？",voice_312,[]
22001,"萌えるとテンションが
おかしくなって
しまいます……！",voice_313,[]
22002,"溜まった深夜アニメ
消化したい……
でも原稿ががが",voice_3300,[]
22003,"見てください
このフィギュア
計算された造形美！",voice_3301,[]
22004,"サンタ服姿の
るかにゃん……
ふへふへへへへ",voice_3302,[]
22005,"クリスマスが来ると
思い出すんです
年末の戦いを……",voice_3303,[24002020]
22006,"みきちゃんと
くりすちゃんの
中学生コンビたまらん",voice_3304,[]
22007,"女性とねこの顔は
決して忘れない……
かおすです",voice_3305,[]
23000,おはようございます。ネームも冒険も頑張ります！,voice_002,[]
23001,おやすみなさい,,[]
23002,いってきます,,[]
23003,ただいま戻りました♪,,[]
23004,おじゃまします,,[]
31000,"琉姫さんの生原稿
すみずみまで見たい……
でも耐性がなくて……！",voice_304,[]
31001,"都会は発売日に
まんがやゲームが
買える……ありがたい",voice_305,[]
31002,"い、一応まんが家で
ペンネームは
かおすって言います",voice_3100,[]
31003,"ボツ地獄から
抜け出すために
気合いいれます！",voice_3101,[]
31004,"小夢ちゃんの
こゆメソッド
見習いたいです……",voice_3102,[24002020]
31005,"こんなゴミネーム
トナカイさんにも
笑われてしまいます",voice_3103,[24002020]
31006,"編沢さんは神……
かみさわさん……",voice_3104,[]
31007,"かわいい子が
いっぱい……
ここが天国ですか",voice_3105,[]
32000,"お疲れ様です
原稿のお手伝い
しましょうか？",voice_308,[]
32001,"ひえーーーっ！？
読み切りの掲載が
決まりました……！",voice_309,[]
32002,"てへへ、小夢ちゃんと
喋っていると
元気が出ます",voice_3200,[]
32003,"ごめんなさい
じっと見て
拝観料払います！",voice_3201,[]
32004,"真っ白な原稿の
ホワイトクリスマス
あひぃー……！",voice_3202,[24002020]
32005,"もうすぐ
ボツやきいもの
季節ですねぇ",voice_3203,[24002020]
32006,"デジタル民に
色紙というハードルは
高過ぎます……",voice_3204,[]
32007,"妹×ツインテールで
救われる命も
あるんです！",voice_3205,[]
33000,こんな嬉しいことが現実にあるんですね！,voice_200,[]
33001,いいことありましたか？,voice_201,[]
33002,ひょえ～っやりました！　嬉しいです……！,voice_202,[]
33003,ど、どっきりだったりしませんよね……！？,voice_203,[]
33004,だれかの原稿でしょうか？,voice_204,[]
33005,わっ！　い、いいのでしょうか！？,voice_205,[]
33006,あばっば！,voice_206,[]
33007,おまわりさんに言ったほうが……！？,voice_207,[]
41000,もう子供じゃないから、大丈夫です……！,voice_009,[]
41001,ちょっとこわかったけど頑張りました！,voice_010,[]
41002,ま、まけたくない…！,voice_011,[]
41000,"ごごごめんなさい……
お願いしても……
よろしいでしょうか！？",voice_012,[]
41000,"助かりました～～！
うぇえ、ありがとう
ございました……！",voice_013,[]
51000,"も、萌田薫子です。かおすというペンネームで
4コマまんがを描いています。",voice_014,[]
51001,"みんなに刺激をもらって面白いまんがが
描けそうな気がします……！",voice_015,[]
51002,"趣味はアニメやまんがやフィギュア収集
なんて……大きな声では言えません！",voice_016,[]
51003,"私も、ボツになってもまんがを描き続けてます！
だから頑張りましょう！",voice_017,[]
240001025,"今日もゴミネーム
がんばって描くぞ～！",voice_316,[]
240101001,"落ち着きます……
って休憩してないで
ネームやらなきゃ！",voice_317,[]
240201006,"大好きなまんがは
テンションが
上がります！",voice_318,[]
240001015,"まんがはいつも
デジタルで
描いてます……！",voice_319,[]
240201008,"アニメのグッズや
フィギュアが入って
いるんですか……！？",voice_320,[]
