﻿m_ID,m_Text,m_VoiceCueName,m_LimitedCharaId
21000,"あっあのっ！
おつまみって
美味しいんですか！？",voice_300,[]
21001,"食べてる姿を
見つめられるのって、
恥ずかしい……",voice_301,[]
21002,"味見なのに……ダメと
思えば思うほどお箸が
止まりません！",voice_302,[]
21003,"ブリ大根は
おばあちゃんの
得意料理だったんです",voice_303,[]
21004,"水着で歩き回るのは
やっぱりちょっと
恥かしいです……",voice_3000,[37002010]
21005,"日に日にきりんの
パワフルさが
増しています……！",voice_3001,[]
21006,"きりんとおでんを
食べたんです
美味しかったな～",voice_3002,[37002020]
21007,"甘酒を用意して
みなさんに温まって
もらいましょう",voice_3003,[37002020]
22000,"お手製ハンバーガー
セットで～す！
……どうですか？",voice_312,[]
22001,"お風呂でアイスって
すごく贅沢をしてる
気分ですね！",voice_313,[]
22002,"異世界の料理も
美味しいものが
たくさんで嬉しいです",voice_3300,[]
22003,"浜辺で食べるなら
海の家を意識した
料理を作りましょうか",voice_3301,[37002010]
22004,"きりんと椎名さんと
羽根つきしたら
楽しそうですね",voice_3302,[37002020]
22005,"はい！ おしるこ
できましたよ〜
ほかほか甘々♪",voice_3303,[37002020]
23000,おはようございます！　朝ご飯、出来てますよ,voice_002,[]
23001,おやすみなさい,,[]
23002,いってきます,,[]
23003,ただいま戻りました♪,,[]
23004,おじゃまします,,[]
31000,"あんなに食べてたのに
きりんの胃には
宇宙を感じます……",voice_304,[]
31001,"がっくしょく
がっくしょく♪
……ハッ",voice_305,[]
31002,"お腹がすくと自然と
寂しくなっちゃう
ものですよ",voice_3100,[]
31003,"誰かと一緒に食べる
ご飯はとてもとても
あたたかいです",voice_3101,[]
31004,"お餅、きりんは
いくつ食べるでしょう
たくさん用意しないと",voice_3102,[37002020]
31005,"せっかくなので
鏡餅をモチーフに
絵を描いてみようかな",voice_3103,[37002020]
32000,"椎名さん
食べ方がとても静かで
きれいです……！",voice_308,[]
32001,"お料理も大事ですけど
ちゃんと
絵も描かないと……",voice_309,[]
32002,"美味しいご飯を食べて
しっかり元気だして
いきましょう",voice_3200,[]
32003,"水着といえば
露子さんのスタイル
素晴らしかったです",voice_3201,[37002010]
32004,"よいしょっと
お着物は動くのが
大変です！",voice_3202,[37002020]
32005,"今年もたくさん
喜んでもらえる
ご飯を作りたいです",voice_3203,[37002020]
33000,きりん！　いつもありがとう大好きだよっ！,voice_200,[]
33001,"わあ……！　きりんと椎名さんに
食べさせてあげたいです！",voice_201,[]
33002,えへへ……今日のおやつは少し豪華ですよ。,voice_202,[]
33003,わぁ！　すごい！　これでごちそうが出来ます！,voice_203,[]
33004,わぁ！　開運のお守りでしょうか？,voice_204,[37002020]
33005,お年玉です！　なんちゃって。,voice_205,[37002020]
41000,おばあちゃんを見習って頑張ります！,voice_009,[]
41001,お待たせしました。どうぞ、めしあがれ,voice_010,[]
41002,ごっ……ご飯は出来たてですよ！,voice_011,[]
41000,"すみません！
お願いしても
いいですか……？",voice_012,[]
41000,"さすがです！
私も見習い
たいです……！",voice_013,[]
51000,"町子リョウです。おばあちゃんの優しい所、
見習っていきたいです。",voice_014,[]
51001,"空腹は最高のスパイスって
いうじゃないですか。",voice_015,[]
51002,"人と食べる物の美味しさを、きりんは
私に教えてくれたんです。",voice_016,[]
51003,"お疲れ様です。差し入れ作ってきました！
よかったらどうぞ。",voice_017,[]
240401012,"ほろ苦い大人の味……
でもあたたまって
目が冴えます",voice_316,[]
240001013,"勉強頑張ります！
まずはきりんの
献立の採点から……！",voice_317,[]
240201001,"エプロンから
おばあちゃんの匂い……
安心します",voice_318,[]
240401003,"伝説の半熟オムライス
ドラマで見てから
ずっと憧れです！",voice_319,[]
240201008,"もっもしかして
お母さん達からの
お土産……！？",voice_320,[]
