﻿m_ID,m_Text,m_VoiceCueName,m_LimitedCharaId
21000,"コメンテーターって
お米を作る人のこと？
コメディアンのほう？",voice_300,[]
21001,"8月はオクトーバー
9月はキューカンバー",voice_301,[]
21002,"フランスのパンは
フランスパンだから
日本のはニッポンパン",voice_302,[]
21003,"恵方巻は「ええ方」を
向いて食べるわけだね",voice_303,[]
21004,"ブロッコリーと
カリフラワーの中間
カリッコリー",voice_3000,[]
21005,"五里霧中
バナナに夢中で
ゴリ夢中……",voice_3001,[]
21006,"風呂に入ったら
肌がまるで
フローリング",voice_3002,[36001010]
21007,"地球のゲームは難しい
将棋で勝機を
全く見いだせない",voice_3003,[]
22000,"UFOって何？
あ、わかった挨拶か
ユッフォー！",voice_312,[]
22001,"「イエーイ」って
恥ずかしくて
何か言えないね",voice_313,[]
22002,"美味しい食べ物で
制圧しようとする
宇宙人がいたよ",voice_3300,[]
22003,"カレーが好きな人
というカテゴリーなら
世界一いけるかも",voice_3301,[]
22004,"ユキちゃんと
かじゅちゃんと
カレー屋行きたい",voice_3302,[]
22005,"なるへそ
地球ではこれが
中級なのか",voice_3303,[]
23000,"朝、鮭もらった。
早起きはサーモンの得ってね",voice_002,[]
23001,おやすみなさい,,[]
23002,いってきます,,[]
23003,ただいま戻りました♪,,[]
23004,おじゃまします,,[]
31000,"うちの地元の星は
「惑星ジモトノ」って
名前だよ",voice_304,[]
31001,"モノクロは、
ものすごく黒い……
を略して「もの黒」か",voice_305,[]
31002,"ジモトノ産
和風アメリカン
スコルポヌレ",voice_3100,[]
31003,"追試って
追加料金のかかる
試験じゃないの？",voice_3101,[]
31004,"ユキちゃんを笑顔に
できるポチって
結構すごいよね",voice_3102,[]
31005,"うちの髪飾りは
ジモトノ星らしい
デザインなんだよね",voice_3103,[]
32000,"カニはチョキ以外に
ハサミを閉じれば
グーも出せる……",voice_308,[]
32001,"カレーの完成度は
すごいよね",voice_309,[]
32002,"このファイル
紙がたくさん
ファイルね",voice_3200,[]
32003,"うちの星のお盆は
みんなで集まって
ブレイクダンスする",voice_3201,[]
32004,"補習のせいで
華麗に
帰れない",voice_3202,[]
32005,"部活で武道
やってる人は
武勝つって気分？",voice_3203,[]
33000,なんかみつけた。,voice_200,[]
33001,おお、うちも歩けば宝に当たるってね。,voice_201,[]
33002,"これなんだろう？
カジュちゃんなら知ってるかな？",voice_202,[]
33003,ラッキー。,voice_203,[]
33004,飛んでたら見つけた。,voice_204,[]
33005,拾ったから疲労回復……はしないか。,voice_205,[]
41000,"運動といえばバレエだよ。
「うん・どう・ドロワー」ってね",voice_009,[]
41001,ダララララララッ……ダン！,voice_010,[]
41002,いける…たぶん,voice_011,[]
41000,おねがい,voice_012,[]
41000,"アリが10.9匹で
テンキュウってね",voice_013,[]
51000,"細野はるみです。花の髪飾りは
地球でいうパスポートみたいな感じ。",voice_014,[]
51001,"うち、この戦いが終わったら
カレーを食べるんだ。",voice_015,[]
51002,"宇宙人だけど透視能力とかはないよ。
空を飛べるくらい。",voice_016,[]
51003,"元気がないときこそカレー。
いっしょにカレー食べよう。",voice_017,[]
240001044,"朝昼晩とおやつと
夜食の5食全部が
カレーでもいける",voice_316,[]
240001013,"ふむふむ
おいしいカレーの
作り方は……",voice_317,[]
240001015,"現代版雪女は
パソコンに触れると
すべてフリーズさせる",voice_318,[]
240501008,"人類のほこりを
かけた戦いが今はじまる……",voice_319,[]
240201008,"これは身につけると
暖かいやつ……
「暖房る」ってね",voice_320,[]
