﻿m_ID,m_Text,m_VoiceCueName,m_LimitedCharaId
21000,"今日は乃々さんは配信を
やるって……
配信って何ですか？",voice_300,[]
21001,"布田先輩が貸して
くれた漫画……
読んでみようかなあ",voice_301,[]
21002,"びー……える……？
なんたい……か？
もっと勉強しなきゃ！",voice_302,[]
21003,"乃々さんが好きな
女の子向けアニメ
観てみよっと",voice_303,[]
22000,"乃々さんとデート……
こ、これを着けるのは
挑戦しすぎかなあ……",voice_312,[]
22001,"ＳＮＳ部のゲームは
やっぱりおもしろいなあ",voice_313,[]
23000,おはよう！　よく眠れた？,voice_002,[]
23001,おやすみなさい,,[]
23002,いってきます,,[]
23003,ただいま戻りました♪,,[]
23004,おじゃまします,,[]
31000,"乃々さんはまだ来て
ないんですね……
待ってみようっと",voice_304,[]
31001,"ゲームを作るなんて
先輩たちはすごいなあ",voice_305,[]
32000,"わ、私もお絵描きに
挑戦してみました！",voice_308,[]
32001,"布田先輩や飯野先輩の
話は難しいけど……
でも、がんばる！",voice_309,[]
33000,あの、乃々さん見ませんでしたか？,voice_200,[]
33001,"ごめんなさい、
アニメとかゲームは詳しくなくて……。",voice_201,[]
41000,こ……心の準備がっ！,voice_009,[]
41001,やった！　勝てた,voice_010,[]
41002,すう、はあ……大丈夫、がんばる！,voice_011,[]
41000,"やってほしいことが
あるんだけど
お願いしてもいい？",voice_012,[]
41000,"ありがとう！
負担になってないと
良いんだけど",voice_013,[]
51000,"鶴瀬まつりです。乃々さんの趣味や
普段のこと、もっと知りたいなあ。",voice_014,[]
51001,"私は全然すごくないけど、
挑戦してみたいんだあ。",voice_015,[]
51002,"乃々さんを好き放題できる！？
そそそんなえっちなこと、だめだよお。",voice_016,[]
51003,"私も乃々さんのために頑張る！
だから一緒に頑張ろう！",voice_017,[]
240001052,"これを買えば
いつでも乃々さんを
近くに感じられる……",voice_316,[]
240001013,"この主人公が私で
相手が乃々さんなら
……照れちゃうよお",voice_317,[]
240201006,"はっ！
これ乃々さんが
この前読んでた本！",voice_318,[]
240001015,"乃々さんの生放送……
私は普段のトゲのある
乃々さんも好きだよお",voice_319,[]
240401003,"乃々さんがいつか
ステージで格好良く
踊る所、見たいなあ",voice_320,[]
