﻿m_ID,m_Text,m_VoiceCueName,m_LimitedCharaId
21000,"チエちゃんが
かわいいからって
手を出しちゃダメよ～",voice_300,[]
21001,"もっとチエちゃんに
似合うかわいい服
ないかしら",voice_301,[]
21002,"私のカメラは
お祓い済みだから
チエちゃん撮り放題よ",voice_302,[]
21003,"お仕事お疲れ様～
麗子寂しかった
座って、座って",voice_303,[]
22000,"チエちゃんが私に
ありがとうって……
生きててよかった",voice_312,[]
22001,"疲れはお酒で
取りたいし
スルメも美味しいわ",voice_313,[]
23000,ん～……まだ朝じゃない、もう少し寝かせて,voice_002,[]
23001,おやすみなさい,,[]
23002,いってきます,,[]
23003,ただいま戻りました♪,,[]
23004,おじゃまします,,[]
31000,"かわいいチエちゃん
見れたから
仕事が捗るわ～",voice_304,[]
31001,"学校の宿題とか
自力でやったこと
ないわ！",voice_305,[]
32000,"中学、高校ともに
バレー部だったのよ
懐かしい～",voice_308,[]
32001,"夜からが私の時間
よかったらお店に
来てみない？",voice_309,[]
33000,"それ私へのプレゼント？　ありがとー。
え？　違う？",voice_200,[]
33001,チエちゃんの秘蔵写真！？　私にも見せて！,voice_201,[]
41000,学生時代を思い出すわ～,voice_009,[]
41001,ふぅ～いい汗かいたわ,voice_010,[]
41002,ウチの生意気な妹みたいね,voice_011,[]
41000,"麗子ぉ～あなたの
かっこいいところ
見たいなぁ～",voice_012,[]
41000,"お仕事、ご苦労さま
チエちゃんのご飯が
できてるわよ",voice_013,[]
51000,"チエちゃんを母……姉のように見守ってきた、
店子の白井麗子よ。",voice_014,[]
51001,チエちゃんに会うためなら！,voice_015,[]
51002,"チエちゃんのことを想えば、
嫌な客も耐えられるわ。",voice_016,[]
51003,"ほら、一緒にお酒飲んであげるから、
元気だして。",voice_017,[]
240201001,"あぁもう！
チエちゃんに着せたい
服が多すぎるわ！",voice_316,[]
240101001,"疲れたわ……
こんな日はチエちゃん
のマッサージね！",voice_317,[]
240001015,"またキャラ弁を
頼まれてもいいように
調べておかないとね",voice_318,[]
240401003,"部屋にテレビがあると
チエちゃんが見に来て
くれるのよねぇ",voice_319,[]
240301001,"明け方に帰ったから
まだ眠いわぁ……
おやすみなさい……",voice_320,[]
