﻿m_ID,m_Text,m_VoiceCueName,m_LimitedCharaId
21000,"天気がいいと、
お花さんたちも
うれしそうなんです",voice_300,[]
21001,"もっとみなさんの
お役に立ちたいなあ",voice_301,[]
21002,"またコルクちゃんの
お土産話聞きたいな",voice_302,[]
21003,"実は……泳ぐのは
あんまり得意じゃ
ないんです……",voice_303,[32021000]
21004,"クリエメイトさんたちに
早く里に馴染んで
もらうためには……",voice_3000,[]
21005,"お雛様のお着物
とっても綺麗です！",voice_3001,[32022000]
21006,"聖典の世界……
ちょっと興味が
あるかも",voice_3002,[]
21007,"お部屋の掃除を
しないと
気になっちゃって……",voice_3003,[]
21008,"えっ！？
結婚するって
本当ですか？",voice_3004,[32022020]
21009,"エトワリア名物
「錻瑠愛怠」って
なんだろう？",voice_3005,[32022020]
22000,"お休みを頂きました！
でもお家で召喚のお勉強です",voice_312,[]
22001,"木陰に入ると、
意外と涼しいんですよ？",voice_313,[]
22002,"リラックスできそうな
香りのお花を
摘んできました！",voice_3300,[]
22003,"ちらし寿司って
美味しいですね～",voice_3301,[32022000]
22004,"お花の手入れをしな
きゃ、鉢を入れ替えて
お水をあげて……",voice_3302,[]
22005,"何しようって
悩むのも
楽しいですよね",voice_3303,[]
22006,"愛は惜しみなく奪う
……ものだそうです",voice_3304,[32022020]
22007,"「亭主元気で留守が
いい」って
どういう意味ですか？",voice_3305,[32022020]
23000,朝顔ってお花は、とても早起きさんなんですよ,voice_002,[]
23001,おやすみなさい,,[]
23002,いってきます,,[]
23003,ただいま戻りました♪,,[]
23004,おじゃまします,,[]
31000,"ここにもお花を
飾らせてもらって
いいですか？",voice_304,[]
31001,"波の音を聴いていると
心が穏やかになります",voice_305,[32021000]
31002,"ランプがまた
クリエメイトさんたちの
姿に興奮してる……",voice_3100,[]
31003,"召喚のお手伝い
頑張ります！",voice_3101,[]
31004,"ランプってば
また神殿を
抜け出してきたの？",voice_3102,[]
31005,"この里も
ずいぶん人が
増えましたね",voice_3103,[]
31006,"ポルカやコルクちゃん
がお嫁に行ったら……
嬉しいけど寂しいかも",voice_3104,[32022020]
31007,"花嫁衣装って
やっぱり
憧れちゃいますよね",voice_3105,[32022020]
32000,"一生懸命
がんばりますから、
見守っていて下さいね",voice_308,[]
32001,"夏は暑いですけど
元気なお花を見てると
がんばれます",voice_309,[32021000]
32002,"鍵のお手入れも、
実は大変なんですよー",voice_3200,[]
32003,"きららさん……
また一段と頼もしく
なりましたね！",voice_3201,[]
32004,"みんなが無事に
帰ってくると
ホッとします",voice_3202,[]
32005,"コルクちゃん
また変な商品を
仕入れて……",voice_3203,[]
32006,"ライネさんって
まだ結婚しない
のかなあ",voice_3204,[32022020]
32007,"わたしの結婚相手は
ポルカとコルクちゃん
が審査するそうです",voice_3205,[32022020]
33000,"わぁ！　これ、見てください！
きっといいことがあると思いますっ。",voice_200,[]
33001,よかった～、ぜひみなさんで使ってくださいね。,voice_201,[]
33002,これならもっともっと頑張れちゃいます！,voice_202,[]
33003,なんという幸運……！　すごいですよっ！,voice_203,[]
33004,"あ、新しいお店。
コルクちゃんにも教えてあげよ。",voice_204,[]
33005,散歩すると新しい発見ってありますよね！,voice_205,[]
33006,"ブーケを受け取ったんですが
……どうしましょう？",voice_206,[32022020]
33007,わたしからお花のプレゼントです！,voice_207,[]
41000,気をつけていってきますね！,voice_009,[]
41001,めずらしいお花が咲いてました！,voice_010,[]
41002,私にも、できることがあるはず……！,voice_011,[]
41000,"すみません、
お願いを聞いて
いただけますか？",voice_012,[]
41000,"わあ……！
すごい！
ありがとうございます",voice_013,[]
51000,"クレアです。召喚のお手伝いを
させてもらっています！",voice_014,[]
51001,"みなさんを召喚するために必要な
『鍵』の管理を任せていただいています。",voice_015,[]
51002,"ポルカとコルクちゃんは、
わたしの大切なお友達です。",voice_016,[]
51003,"元気が出ない時は、声を出すといいですよ。
えいえい、おー！",voice_017,[]
240401003,"はぁ～……
みなさんの世界は
このように映るんですね",voice_316,[]
240001015,"この机なら
たくさんお仕事が
できそうです！",voice_317,[]
240401012,"わわっ！？
しゅわしゅわした泡が
止まりません……！",voice_318,[]
240701006,"集中している時に
鳩さんが鳴くと
びっくりしちゃうんです",voice_319,[]
240101001,"わたし、ちっちゃいので
高い椅子だと
座るのが大変です",voice_320,[]
