﻿m_ID,m_Text,m_VoiceCueName,m_LimitedCharaId
21000,"アーニャは
友達というより……
ペット的な？",voice_300,[]
21001,"私の七夕の願いは
「無病息災」かな",voice_301,[]
21002,"みやまさんは
可愛いけどたまに
よくわからなくなる",voice_302,[]
21003,"私に友達が
少ないのは
なんでかな……",voice_303,[]
22000,"お姉ちゃんが匂いを
嗅ぎたがるの
私にも移ったかな……",voice_312,[]
22001,"私なら高いところにも
短冊を飾れるから
必要なら言って",voice_313,[]
23000,お姉ちゃんを起こしにいかないと,voice_002,[]
23001,おやすみなさい,,[]
23002,いってきます,,[]
23003,ただいま戻りました♪,,[]
23004,おじゃまします,,[]
31000,"お姉ちゃんは
短冊になんて
書いたんだろう",voice_304,[]
31001,"この時期になると
あちこちで
笹を見かける",voice_305,[]
32000,"エトワリアにも
七夕なんて風習が
あったとは",voice_308,[]
32001,"お姉ちゃんは私のこと
いつまでも子供扱い
するんだから……",voice_309,[]
33000,アイスあるけど、食べる？,voice_200,[]
33001,今晩は、お姉ちゃんチャージしたい。,voice_201,[]
41000,さっさと済ませちゃおう,voice_009,[]
41001,よくできました,voice_010,[]
41002,これはがんばらないと……,voice_011,[]
41000,"いま忙しくて……
手伝ってもらえる？",voice_012,[]
41000,"おかげで終わったよ
お礼にお茶とお菓子を
買ってきた",voice_013,[]
51000,"小野坂さおりです。
姉がいつもお世話になっております。",voice_014,[]
51001,姉の健康管理は妹の義務。,voice_015,[]
51002,やっぱり私、お姉ちゃんのことが好きだよ。,voice_016,[]
51003,"迷信だと思うけど胸は揉むと
大きくなるって言うよね。",voice_017,[]
240501155,"こんな謎着ぐるみの
ある部活にまさか私も
入る事になるとは",voice_316,[]
240201001,"お姉ちゃんって
タイツ好きな割には
よく破くんだよね",voice_317,[]
240201016,"お姉ちゃんには
制服のアレンジは
任せられない",voice_318,[]
240301001,"お姉ちゃんって私の
ベッドに入ってくる
ことがあるから……",voice_319,[]
240201004,"お姉ちゃんの
健康のために私も
料理をがんばらないと",voice_320,[]
