﻿m_ID,m_Text,m_VoiceCueName,m_LimitedCharaId
21000,"小春のなんでも
口に出す性格
将来が心配になるな",voice_300,[]
21001,"私もお母さんも
料理はあんまり
しないんだよね……",voice_301,[]
21002,"恋ちゃんとは
小さいころからの
幼馴染なんだ",voice_302,[]
21003,"釣り道具ってお金
かかるしこっちでも
アルバイトかなあ",voice_303,[]
22000,"小春はちょっと変わっ
てるっていうか目が
離せないっていうか",voice_312,[]
22001,"私もちょっとは
魚の料理の仕方
勉強しようかな",voice_313,[]
23000,日の出は「朝まずめ」と言って、魚が活発になる時間帯なんだよ,voice_002,[]
23001,おやすみなさい,,[]
23002,いってきます,,[]
23003,ただいま戻りました♪,,[]
23004,おじゃまします,,[]
31000,"毛ばりっていうのは
小魚を模した
疑似のエサなの",voice_304,[]
31001,"小春の謎の自信は
たまに
うらやましくなる",voice_305,[]
32000,"私とは違って
恋ちゃんは釣り
しないんだよね",voice_308,[]
32001,"まあ毛ばりなんて
普通の人は
知らないよね……",voice_309,[]
33000,行きたいとこあるんだけどいいかな？,voice_200,[]
33001,今日はアジがよく釣れるみたい。,voice_201,[]
41000,場所を変えたら釣れるかもしれないよ,voice_009,[]
41001,よくバラさずにキャッチできたね！,voice_010,[]
41002,きたきたきた！,voice_011,[]
41000,"毛ばりを遠くへ
運ぶイメージで
投げてみて",voice_012,[]
41000,"キャスティング
上手くなったね
きっと釣れるよ",voice_013,[]
51000,"海凪ひよりです。
2ヶ月年上の姉が最近できました。",voice_014,[]
51001,買ったばかりの毛ばり、使うの楽しみ。,voice_015,[]
51002,"フライフィッシングに興味ある子なんて、
なかなかいないよね……。",voice_016,[]
51003,ここはさっきからよく釣れるよ。やってる？,voice_017,[]
240501170,"毛ばりを投げるときは
こうラインの重さを
利用して……",voice_316,[]
240201004,"このフライセット
高いけど
ほしい……",voice_317,[]
240201013,"異世界の魚って
めずらしいのが
たくさんいそう",voice_318,[]
240101001,"ねえ勉強の息抜きに
くるくるしない？",voice_319,[]
240701007,"室内でもキャス練は
できると思うけど
やってみる？",voice_320,[]
