﻿m_ID,m_Text,m_VoiceCueName,m_LimitedCharaId
21000,"化石って
そんなに珍しいもの
じゃないわよ",voice_300,[]
21001,"異世界で海に
遊びに行くなんて
面白い体験よね",voice_301,[38032000]
21002,"泳ぐのもいいけど
浜辺や川辺の石を
拾うのも楽しいのよね",voice_302,[38032000]
21003,"モンローを捜して
いるんだけど
見かけなかった？",voice_303,[]
22000,"息抜きに
泳ぎに行くってのも
悪くないわよね",voice_312,[38032000]
22001,"私たちの活動
もっと色んな人に
知ってもらいたいわ",voice_313,[]
23000,朝から元気ね。すこしわけてほしいわ,voice_002,[]
23001,おやすみなさい,,[]
23002,いってきます,,[]
23003,ただいま戻りました♪,,[]
23004,おじゃまします,,[]
31000,"うちの部って
本当に
予算少ないのよね",voice_304,[]
31001,"水着を着てみたけど
……大丈夫？
ヘンじゃないかしら？",voice_305,[38032000]
32000,"アンタは
地質と天文
どっちをやりたい？",voice_308,[]
32001,"何でもかんでも
拾えば良いって
もんじゃないのよ",voice_309,[]
33000,この石、持ち帰ってまずはクリーニングね。,voice_200,[]
33001,面白い石見つけたの。見る？　見たい？,voice_201,[]
41000,はりきってやるわよ,voice_009,[]
41001,よかったんじゃないかしら,voice_010,[]
41002,やってやろうじゃないの,voice_011,[]
41000,"あの、ちょっと
手伝ってほしいん
だけど……いい？",voice_012,[]
41000,"ありがと。何か
あったら私も手伝う
から言いなさいよね。",voice_013,[]
51000,"地学部の桜井よ。
地質学に興味がある人は歓迎するわ。",voice_014,[]
51001,"やってみる前に無理って決めちゃうのは
もったいない……わよね。",voice_015,[]
51002,あの石、もっと観察してみたい！,voice_016,[]
51003,"応援してるんだから頑張りなさいよ。
自分の夢を遠慮なんてしないでよね。",voice_017,[]
240501119,"星を見つける……
私にもそんな大きな
夢が見つかるかしら",voice_316,[]
240201013,"こっちの世界の
岩石や化石も
面白そうね",voice_317,[]
240201012,"文化祭でハレンチな
コスプレなんて
認められないわ",voice_318,[]
240001013,"誕生石を会報の記事に
すれば366回は
連載できるわね",voice_319,[]
240001015,"「怖い人　鎮める」
私についての検索履歴
じゃないでしょうね？",voice_320,[]
