﻿m_ID,m_Text,m_VoiceCueName,m_LimitedCharaId
21000,"もうまったく
千矢ったら……",voice_300,[]
21001,"ねんねこくーるり♪
こっちのほうが
かわいいかしら",voice_301,[]
21002,"本で読んでから
ずっとやりたくて",voice_302,[]
21003,"昔からあぶらあげは
苦手で……",voice_303,[]
21004,"母様は私の憧れだから
同じ道を歩いてると
思うと嬉しいわ",voice_3000,[]
21005,"占いの結果が悪いから
って考えすぎるのは
私の悪い癖だわ",voice_3001,[]
21006,"神様は常に
私たちうららを
見守っているのよね",voice_3002,[]
21007,"棗屋の見習いとして
恥じない行動を
心がけないと",voice_3003,[]
21008,"滝行って
修行って感じがして
憧れなかった？",voice_3004,[]
21009,"小梅はいつも
こんなヒラヒラした
服を着ているのね",voice_3005,[17012020]
21010,"最近こういう服を着る
のが板についてきた
気がするわ……",voice_3006,[17011010]
21011,"ほわいとでーの
お返しってあんみつ
でもいいのかしら",voice_3007,[17011010]
22000,"今日の私は不良なの
女狐なの！",voice_312,[]
22001,"いけないこと……
してみたいの……
変な意味じゃなくて！",voice_313,[]
22002,"たまには普通に
みんなと一緒に
遊びたいわね",voice_314,[]
22003,"大縄跳びとか
目隠し鬼とか
色々やりたいな……",voice_315,[]
22004,"友達と水遊びって
ずっと憧れてたけど
楽しいものなのね",voice_3300,[17012010]
22005,"海へ行く前に
記念写真のポーズの
練習しておかないと！",voice_3301,[17012010]
22006,"マツコさんに似てる
ってノノから言われた
けど……嬉しくない",voice_3302,[]
22007,"新しい友達とか
できちゃったり
するのかしら！",voice_3303,[]
22008,"気をつけて千矢に
めくられないように
しないといけないわ",voice_3304,[17012020]
22009,"これがほんとの
狐の嫁入り……
なんちゃって",voice_3305,[17012020]
22010,"千矢と小梅みたいに
いつも甘味処に
行くわけじゃないわ",voice_3306,[]
22011,"今日はいい天気ね
みんなで
お出かけしようかしら",voice_3307,[]
23000,おはようございます。いい朝ですね。,voice_002,[]
23001,おやすみなさい,,[]
23002,いってきます,,[]
23003,ただいま戻りました♪,,[]
23004,おじゃまします,,[]
31000,"ニナ先生にだって
負けません！",voice_304,[]
31001,一か八かやってみるわ,voice_305,[]
31002,"修行をさぼるなんて
うらら失格よ",voice_306,[]
31003,"古式ゆかしい
祝詞がいいわ",voice_307,[]
31004,"やっぱり私
棗屋が一番落ち着くわ",voice_3100,[]
31005,"ニナ先生は生徒思いで
最高の先生よ！",voice_3101,[]
31006,"占いの方法は
自分に馴染みのある
ものがいいと思うわ",voice_3102,[]
31007,"火打石を使えば
お手軽な危難避けの
呪法ができるのよ",voice_3103,[]
31008,"里のみなさんも
千矢にめくられそうな
服装が多いわね……",voice_3104,[17012020]
31009,"うららとして
お客をもてなす
お仕事をしなきゃ",voice_3105,[]
31010,"焼き菓子を
作ってみたけど
みんな食べるかしら",voice_3106,[17011010]
31011,"国や世界が変わっても
みんなお祭り事は
大好きよね",voice_3107,[17011010]
32000,"ノノの祝詞は
いいわね……",voice_308,[]
32001,"早く終わらせて
あんみつ食べに
行きましょ",voice_309,[]
32002,"千矢がいない……
また屋根の上ね……",voice_310,[]
32003,"占いの準備
しっかりしておかないと",voice_311,[]
32004,"小梅って
愛が重いタイプ
だったのね……",voice_3200,[]
32005,"最高難易度の術である
夢占いの名手、臣
……ほんとすごいわ",voice_3201,[]
32006,"洋装は私より
小梅のほうが
似合うと思う……",voice_3202,"[17010000, 17011000, 17012000, 17010010]"
32007,"千矢は追試の勉強ね
私も手伝うから
頑張りましょ",voice_3203,[]
32008,"色々な衣装を着るのも
修行の一環に
なるのかしら",voice_3204,[17012020]
32009,"臣の占いはすごいけど
裸になるのだけは
慣れないわ……",voice_3205,[]
32010,"小梅じゃないけど
お菓子の試作が続いて
ちょっとお腹が……",voice_3206,[17011010]
32011,"なんでばれんたいんの
お返しでほわいとでー
なのかしら？",voice_3207,[17011010]
33000,不思議な……感じがします……。,voice_200,[]
33001,神様がいらっしゃったのでしょうか……。,voice_201,[]
33002,ありがとうございます、お狐様……！,voice_202,[]
33003,もっともっと遊んでもいいのね！,voice_203,[]
33004,今日は勉強がはかどりそうです！,voice_204,[]
33005,こっくり占いの結果、良かったんですよ！,voice_205,[]
33006,お狐様のおかげでいいものを見つけられたわ。,voice_206,[]
33007,お宝占物かと思ったけど違ったみたいね。,voice_207,[]
33008,千矢たちにあげたら喜ぶかしら……？,voice_208,[17011010]
33009,たまに食べる洋菓子っておいしいわよね。,voice_209,[17011010]
41000,準備万端。行ってきますね。,voice_009,[]
41001,これくらいいつも通りです。,voice_010,[]
41002,こんな敵、本で読んだこともない……,voice_011,[]
41000,"この依頼
お願いできるかしら？",voice_012,[]
41000,"ありがとう！
本当に助かったわ！",voice_013,[]
51000,"見習いうららの紺です。
本を読むのが好きなんです。",voice_014,[]
51001,お狐様……お力をお貸しくださいませ……。,voice_015,[]
51002,"こっくりさん一緒にやりませんか？
怖くないですよ。",voice_016,[]
51003,大丈夫です。一緒にやりましょう！,voice_017,[]
240101001,落ち着くわ……,voice_316,[]
240601001,"このぬいぐるみ……
千矢みたい",voice_317,[]
240001014,"勉強しなさい！
どう？
ニナ先生っぽかった？",voice_318,[]
240201006,"本を読むのは
大好きなんです",voice_319,[]
240001013,"占いのことは
いくら勉強しても
時間が足りません",voice_320,[]
