﻿m_ID,m_Text,m_VoiceCueName,m_LimitedCharaId
21000,"………………あ
ごめん、音楽聴いてた
なにか言った？",voice_300,[]
21001,"こっちの世界にも
いろんな音が
溢れてるね",voice_301,[]
21002,"ご飯一緒に
食べよっか？",voice_302,[]
21003,"こっちで会う人は
みんな面白い人
ばっかりだね",voice_303,[]
21004,"私の音楽のルーツは
バンドしてた姉さん
への憧れなんだ",voice_3000,[]
21005,"人気とか評価のために
曲を書いてるわけ
じゃないんだよ",voice_3001,[]
21006,"目玉焼きには
ケチャップが一番
だよね",voice_3002,[]
21007,"卵の中に昨日から
無くしてた私の
ＵＳＢドングルが！？",voice_3003,[16012010]
22000,"………………
わっ！　いたの！？
気づかなかった",voice_312,[]
22001,"私の進路？
スーパーメディアクリ
エイター、なんてね",voice_313,[]
22002,"ね　どっか遊びにいこ
あなたともっと
仲良くなりたいしね",voice_314,[]
22003,"こっちにいる間に
いろいろな音に
触れておきたいよね",voice_315,[]
22004,"ああ……傑作は
何年聴いても
色あせないな",voice_3300,[]
22005,"どんな詞にしよう……
狭い檻の中……
あなたを想い……",voice_3301,[]
22006,"よーし！　今日中には
メロディライン
固めちゃおう！",voice_3302,[]
22007,"パカぴょんパカぴょん
パカカンぴょん♪
……もっと低音いるな",voice_3303,[16012010]
23000,ふわぁーっ……明け方まで曲つくっててさぁ……。,voice_002,[]
23001,おやすみなさい,,[]
23002,いってきます,,[]
23003,ただいま戻りました♪,,[]
23004,おじゃまします,,[]
31000,"私はＤＴＭ研っていう
音楽をつくるところと
兼部してるんだ",voice_304,[]
31001,"あなたの声
透明感があって
私好きかも",voice_305,[]
31002,"今　やったことない
ジャンルの曲
つくってるんだ",voice_306,[]
31003,"動画サイトに
曲を上げられたら
いいんだけどなー",voice_307,[]
31004,"本田ちゃんは
まっすぐな子だよねー",voice_3100,[]
31005,"照先輩に対して
よく突っかかってた
なぁ……私",voice_3101,[]
31006,"うさぎ、性欲、暴走
……よし、次の曲は
ムーンバートンだ！",voice_3102,[16012010]
31007,"やばっ！　締め切り
1週間勘違い
しちゃってた",voice_3103,[]
32000,"かわいい曲……
かわいい曲……
かわいさってなんだ？",voice_308,[]
32001,"自分の作品は
やっぱ子供みたいに
思えるんだよね",voice_309,[]
32002,"今日のうちに
一曲あげて
おきたいなー",voice_310,[]
32003,"何か降りてきてる！
ガンガン書けそう",voice_311,[]
32004,"部長として
色々やってくれてる
村上さんに感謝だね",voice_3200,[]
32005,"大げさな効果音
つけるの面白いな～
にしし",voice_3201,[]
32006,"私はプレイヤーじゃなく
裏方なんだからうさ耳
ってガラじゃないよ",voice_3202,[16012010]
32007,"本田ちゃんのかばんに
卵を隠したら
どんな顔するかな？",voice_3203,[16012010]
33000,すごくいい感じだね。,voice_200,[]
33001,こういう日はいい曲が浮かびそう。,voice_201,[]
33002,私すごい天才的なコトひらめいた！,voice_202,[]
33003,好きな音屋さんの曲を聴いて元気出たよ！,voice_203,[]
33004,わあ、これセールス中のＶＳＴじゃん！,voice_204,[]
33005,あっこの声ネタ！　私も持ってるよ～。,voice_205,[]
41000,体動かすのも大事だよね,voice_009,[]
41001,曲作りに活かせるかな,voice_010,[]
41002,ハードに鍛えてみようっと,voice_011,[]
41000,"あ！　いいところに！
ちょっとこれを
手伝ってくんない？",voice_012,[]
41000,"さんきゅー
たすかったよ",voice_013,[]
51000,"私は藤川歌夜。ＳＮＳ部ではＢＧＭと
効果音担当だよ。",voice_014,[]
51001,"曲が降りてきたときは新鮮なうちに
曲にしたいんだ。",voice_015,[]
51002,将来は音楽を仕事にしたいと思ってるんだ。,voice_016,[]
51003,"やりきってみんなから認められるのって
すごくうれしいもんだよ。",voice_017,[]
240101001,"いい電波
降りてこないなあ……",voice_316,[]
240601001,"ぬいぐるみもいいけど
撫でて反応ある子の
ほうが楽しいなー",voice_317,[]
240201004,"絵描く人ってすごいね
私にできない事だから
すごい輝いて見える",voice_318,[]
240001015,"さすがに私の家ほど
機材はそろってないかー",voice_319,[]
240401010,"コーヒーを表す言葉……
苦い黒い香りカフェ……
なにか詞のヒントは……",voice_320,[]
