﻿m_ID,m_Text,m_VoiceCueName,m_LimitedCharaId
21000,"本当に佳は
千穂がおきにだな",voice_300,[]
21001,"冷たいスプレー
背中かけていい？",voice_301,[]
21002,"私は乳酸菌好きだけど
佳はおしるこ好きって
言っとく",voice_302,[]
21003,"あ、ウォルター
散歩させよ……
あ、いなかった",voice_303,[]
21004,"私はちっちゃく
なったら捕まえたく
なるタイプらしい",voice_3000,[]
21005,"野々原さんの攻め方
勉強になる
連携プレイとかしたい",voice_3001,[]
22000,"みんなで
ご飯パーティーでも
しない？",voice_312,[]
22001,"買い物行くなら
私の飲み物も
ついでにお願い",voice_313,[]
22002,"こっちの世界
ならではの面白いこと
見つけたいな",voice_314,[]
22003,"まったり過ごすか
アクティブに生きるか
それが問題だ",voice_315,[]
22004,"神様ごっこ？
頑張って建てた塔を
壊すとか？　いいね",voice_3300,[]
22005,"未来見に行けたら
明日のこと見て
後で変える遊びする",voice_3301,[]
23000,おはよう。ねぇ、今日何時起きだった？,voice_002,[]
23001,おやすみなさい,,[]
23002,いってきます,,[]
23003,ただいま戻りました♪,,[]
23004,おじゃまします,,[]
31000,"朝練、今日は
行かなかったな",voice_304,[]
31001,"野々原さんと日向さん
タッグで攻めるの
いいよね",voice_305,[]
31002,"日向さんかわいいよね
千穂とか日向さん
みたいな子供ほしい",voice_306,[]
31003,"佳と私は
人としての点数
低めだからね",voice_307,[]
31004,"私、思慮深いタイプ
トイレ行った佳をアレ
するくらい深い",voice_3100,[]
31005,"エトワリアに
バド部がない……
じゃあ私いま世界一か",voice_3101,[]
32000,"そろそろ
バド部に行くかー",voice_308,[]
32001,"千穂や佳とは
帰る時間があんまり
合わないんだよね",voice_309,[]
32002,"千穂はおっぱい
大きいからあだ名は
「ちほお」だな",voice_310,[]
32003,"櫟井さんって
お金好きなんだ
佳は嫌いだよね",voice_311,[]
32004,"佳って櫟井さんの事
よく知ってる感じ
出すよね",voice_3200,[]
32005,"ウソをつくときは
教養を匂わせると
それっぽくなるね",voice_3201,[]
33000,今日は色々なおしおきをやりたいね。,voice_200,[]
33001,喜んでもらえたなら何よりだよ。,voice_201,[]
33002,"ここだけの話
ふみおの「お」はお父さんの「お」。",voice_202,[]
33003,"なんか、千穂って
「あーん」とかしたくなるよね。",voice_203,[]
41000,いってきまーす,voice_009,[]
41001,帰ってきたぞ。ねぇ何か面白いこと言って？,voice_010,[]
41002,すごいなコイツ。大盛り焼きそばくらいだな,voice_011,[]
41000,"これをお願いしよう
よろしくー",voice_012,[]
41000,"おーえらいえらい！
ありがとう",voice_013,[]
51000,"長谷川ふみ。
ふみおって呼ばれることもあるよ。",voice_014,[]
51001,"千穂ともどもよろしく。
あ、佳は別にいいから。",voice_015,[]
51002,乳酸菌だいすき！,voice_016,[]
51003,どうした？　元気無いぞ。元気だせ。,voice_017,[]
240501011,"佳への新しい
おしおきスタイルは
こんな感じです",voice_316,[]
240601001,"お前もただ愛される
存在なのかな
ウォルターと似てるな",voice_317,[]
240101001,"座り続けていれば
誰かが飲み物を買って
きて……くれないか",voice_318,[]
240401012,"乳酸菌飲料のボタンを
つい押しそうになる
自分トラップだな",voice_319,[]
240501010,"ほーらゴハンですよー
仲良く食べなさい
私らのように",voice_320,[]
