﻿m_ID,m_Text,m_VoiceCueName,m_LimitedCharaId
21000,"最近オヤジが私を見て
キレイになったって
騒ぐんだよな……ウザイ",voice_300,[]
21001,"お兄ちゃーん
友達来たから
洗面所使わないでね",voice_301,[]
21002,"キレイとか可愛いとか
言われると
恥ずかしいもんだな……",voice_302,[]
21003,"体重少し減ってる！
脚も細くなったと
思ってたんだよなあ",voice_303,[]
21004,"チョコを二箱も
食べちゃった……
自己嫌悪……",voice_3000,[]
21005,"服って高いよな！
しかもかわいいのに
限って！",voice_3001,[]
21006,"なんだか水着よりも
布面積狭い服装の人が
ちらほら居るよな",voice_3002,[13032010]
21007,"るんの対人スキルの
高さはエトワリアでも
健在だよなぁ",voice_3003,[]
22000,"本屋で本を買ったら
お兄ちゃんに頼まれた
ゲーム買わなくちゃ",voice_312,[]
22001,"こんなひらひらした
パジャマなんて無理だ
…………でも買おう",voice_313,[]
22002,"みんなが寝ている隙に
炭酸をもふもふしよう
気持ちいいにゃ～ん♥",voice_314,[]
22003,"ユー子にそっくりの
エロ本を見つけたので
買ってきました",voice_315,[]
22004,"せっかくの休みに
外出だぁ？
正気の沙汰じゃない",voice_3300,[]
22005,"料理本の「適量」とか
「軽く煮て」って……
具体的に書けよ！",voice_3301,[]
22006,"あ～マジで幸せ
今日もう予定無いし
だらけまくるぞぉ",voice_3302,[]
22007,"クリエメイトの中に
同族のニオイが
する人がいるなぁ",voice_3303,[]
23000,"私は低血圧だから朝は弱いんだ…
もう少し寝かせてくれ…",voice_002,[]
23001,おやすみなさい,,[]
23002,いってきます,,[]
23003,ただいま戻りました♪,,[]
23004,おじゃまします,,[]
31000,"昨日さわったんだけど
ユー子のおっぱいは
柔らかかった……",voice_304,[]
31001,"るんに不気味な
ぬいぐるみをもらった
呪われそう……",voice_305,[]
31002,"るんの描いた絵が
何を描いたものなのか
まったくわからない……",voice_306,[]
31003,"熱血な鬼頭先生は
話すと疲れるから
苦手だ……",voice_307,[]
31004,"トオルに恋愛話が
あって年上の私には
無いってやばくね？",voice_3100,[]
31005,"ユー子もだけど
鬼頭先生も家庭的だな
おっぱい大きいしな",voice_3101,[]
31006,"ユー子レベルで
大きい人が多いよな……
何って……わかるだろ？",voice_3102,[]
31007,"異世界とはいえ水着で
街中を歩くなんて
罰ゲームかよ……",voice_3103,[13032010]
32000,"私は大人にはあんまり
なりたくないなー
ずっと学生でいたい",voice_308,[]
32001,"たこ焼きキライって
言ったらユー子が
スネてるんだけど……",voice_309,[]
32002,"私は寝るときは
ブラ外す派だな
締め付けが苦しくてさ",voice_310,[]
32003,"三者面談……オヤジが
来るって聞かないんだ
はー憂鬱ー……",voice_311,[]
32004,"新品の本の香りって
いいよなぁ",voice_3200,[]
32005,"るんやユー子の足には
勝てないよ……
速さも細さも",voice_3201,[]
32006,"おいしそうなものが
いっぱいあるけど
カロリーが気になる……",voice_3202,[]
32007,"この店に
炭酸が喜びそうな
おもちゃないかな？",voice_3203,[]
33000,"ほしい本がない……
駅前の本屋に行けばあるかな？",voice_200,[]
33001,"最近お兄ちゃんと遊んでない……
昔はよく遊んだなあ。",voice_201,[]
33002,おおっ！　これはマジ助かるわ～。,voice_202,[]
33003,ラッキー！　ツイてるじゃん私！,voice_203,[]
33004,これってもしかしてレアドロップアイテム？,voice_204,[]
33005,ラッキー！　これ欲しかったやつじゃん！,voice_205,[]
41000,準備はいい？　さっさと行くぞー,voice_009,[]
41001,やっと帰ってきた……。ひと休みしよう……。,voice_010,[]
41002,ヤバいな…逃げたほうがいいんじゃないか？,voice_011,[]
41000,"あのさ　この仕事を
お願いしたいんだけど
大丈夫かな？",voice_012,[]
41000,"お疲れー　おかげで
助かったよ
また次もお願いするね",voice_013,[]
51000,"えー、ナギです。4人家族の末っ子で
上にお兄ちゃ……兄貴がいます。",voice_014,[]
51001,"今年はもっと脚を細くしたいな。
目標はユー子。そこ、ムリとか言うな！",voice_015,[]
51002,"朝起きると必ず下着だけに
なってるんだよなあ……何でなんだろ？",voice_016,[]
51003,"あんまり思い詰めるなよ。
大抵のことはなんとかなるんだからさ。",voice_017,[]
240101001,"メガネがないか確認……
もう踏みつぶすのは
イヤだからな",voice_316,[]
240601001,"わぁ～……モフモフだ……
私には似合わないかも
しれないけど……ほしい",voice_317,[]
240401011,"ぷはぁ～！
冷たい水を飲むと
生き返るなー",voice_318,[]
240001013,"あの推理小説の
続きが気になる……
犯人は誰だ？",voice_319,[]
240201004,"へーこのブラのサイズ
Ｃまでしかないんだ
標準的な胸でよかった",voice_320,[]
