﻿m_ID,m_Text,m_VoiceCueName,m_LimitedCharaId
21000,紅茶でも飲みたいなあ,voice_300,[]
21001,"まるで映画の
撮影みたいやなあ",voice_301,[]
21002,"この世界の
生き物のデザイン
ちょっときになるなあ",voice_302,[]
21003,"なんや不思議な世界に
きてしまったわ",voice_303,[]
21004,"お雛様はよ片付けんと
行き遅れるって
ホンマやろか……",voice_3000,[15032000]
21005,"妹のみうのために
お雛様出したのに
弟のれんが妬くねん",voice_3001,[15032000]
22000,"みんなおるから
さすがにジャージは
きれへんな…",voice_312,[]
22001,"休みの日は
ラフなかっこで
のんびりや",voice_313,[]
22002,"たまには運動せな
腕のぷにぷにが…",voice_314,[]
22003,"出かけるなら
オシャレせなな",voice_315,[]
22004,"おひな祭りに
誕生日の女の子って
なんかええなぁ",voice_3300,[15032000]
22005,"はじめでも誘って
どっか遊びに
行こかな～？",voice_3301,[]
23000,おはよう。今日もよろしくな。,voice_002,[]
23001,おやすみなさい,,[]
23002,いってきます,,[]
23003,ただいま戻りました♪,,[]
23004,おじゃまします,,[]
31000,"ええ時間やし
おやつにしとく？",voice_304,[]
31001,"こんなデザインは
どうやろ？",voice_305,[]
31002,"モンスター作るなら
うちに任せてください！",voice_306,[]
31003,"なかなかええ出来に
なったんとちゃう？",voice_307,[]
31004,"桃の節句は
特に祝日では
ないんよねぇ……",voice_3100,[15032000]
31005,"かわいいカッコで
テンション上げて
仕事するでー！",voice_3101,[]
32000,"まだこんなに
あるんかいなー!?",voice_308,[]
32001,"今日は大変やな
もうちょっと
がんばってこか",voice_309,[]
32002,"締め切りがせまっとる
がんばらなあかんで！",voice_310,[]
32003,"あと少しで終わるんで
残って終わらせます",voice_311,[]
32004,"夜も遅うなったけど
もうひとがんばり
はりきってこ！",voice_3200,[]
32005,"この服の作り……
3Ｄモデルの参考に
できそうやね",voice_3201,[]
33000,運ええなあ　うちもうれしいわー,voice_200,[]
33001,なんや気分ええなあ　ほんならがんばろか,voice_201,[]
33002,おひな祭りにこんな拾い物なんてツイてるわ～。,voice_202,[15032000]
33003,これめっちゃラッキーなんちゃう？,voice_203,[]
41000,うち、運動は苦手なんやけど…,voice_009,[]
41001,ダイエットと思えばこれくらい！,voice_010,[]
41002,お、なんなん？　これ？,voice_011,[]
41000,"だれか頼めそうな人
おらんかなあ",voice_012,[]
41000,"ありがとう
お礼は今度するで
楽しみにしててな",voice_013,[]
51000,"飯島ゆんいいます。関西の生まれなんよ。
よろしくな",voice_014,[]
51001,"みんながんばってるから…
うちも負けてられんな！",voice_015,[]
51002,"双子の弟と妹がおるんよ。
まだ子供やから手かかるけど、かわええで～。",voice_016,[]
51003,"がんばりすぎはあかんよ？
あんまり無理せんといてな",voice_017,[]
240001015,"3D用のええ資料
どこかにないんかなあ",voice_316,[]
240401004,"乾燥のしすぎは
体にもお肌にも
わるいからな",voice_317,[]
240401010,"たまにはコーヒーも
飲んでみよか",voice_318,[]
240501001,"お水のあげすぎも
枯れてまうから
気をつけやな",voice_319,[]
240301004,"あかん…
お布団にはさからえへん",voice_320,[]
