﻿m_ID,m_Text,m_VoiceCueName,m_LimitedCharaId
21000,"この世界には学生も
多いのね……教師の
責務を果たさないと！",voice_300,[]
21001,"教師は少し
堅苦しいくらいで
ちょうどいいのです！",voice_301,[]
21002,"鎌手って
案外しっかり
してるのね……",voice_302,[]
21003,"透さん……何か
悩みでもあるのかしら",voice_303,[]
22000,"ご飯を作りすぎたわね
お裾分けでもするか",voice_312,[]
22001,"たまには生徒を
部屋に招くのも
いいかもしれないわね",voice_313,[]
23000,おはようございます！……元気が足りませんよ！　もう一回！,voice_002,[]
23001,おやすみなさい,,[]
23002,いってきます,,[]
23003,ただいま戻りました♪,,[]
23004,おじゃまします,,[]
31000,"授業中ですよ！
静かになさい！",voice_304,[]
31001,"こちらの世界でも
勉強をおろそかに
しないように！",voice_305,[]
32000,"テストの採点が
まだ残ってたわね
すぐ済ませましょう",voice_308,[]
32001,"佐藤先生の
ふざけた柄シャツ
どうにかしてほしいわ",voice_309,[]
33000,こんな幸せなことってないわ……,voice_200,[]
33001,降りてきた！　いいポエムが降りてきたわ！,voice_201,[]
41000,しっかり務めを果たしてきます！,voice_009,[]
41001,はい、終わりました！　さあ次は何ですか？,voice_010,[]
41002,力を合わせて乗り越えるのです！,voice_011,[]
41000,"ちょっといいかしら
あなたに頼みたい
ことがあるの",voice_012,[]
41000,"あなたはなんて
すばらしい生徒
なんでしょう！",voice_013,[]
51000,"鬼頭紀美子です！
高校で数学の教師をしています！",voice_014,[]
51001,"私ったら……
教師が生徒を信頼してやらなくてどうするの！",voice_015,[]
51002,"皆さんにはどんな困難だって
乗り越える力があるのですよ！",voice_016,[]
51003,先生に話してごらんなさい！　迷える生徒よ！,voice_017,[]
240701011,"チョークの粉が飛ぶし
白衣が欲しく
なっちゃうわね",voice_316,[]
240001014,"はいここの問題
解ける人！
誰かいない！？",voice_317,[]
240101001,"私……生徒たちから
避けられてない？
厳しすぎるのかしら",voice_318,[]
240401003,"ドラマを見てると
新しいポエムが
浮かんできそう",voice_319,[]
240601001,"ふう……落ち着くわ
アレキサンドライトは
元気にしてるかしら",voice_320,[]
