﻿m_ID,m_Text,m_VoiceCueName,m_LimitedCharaId
21000,"あおっちとねねっち
何してるかな？",voice_300,[]
21001,"フランスじゃないから
挨拶でキス
しないんだった！",voice_301,[]
21002,"海外も異世界も
似たようなものかな？",voice_302,[]
21003,"見たことないものが
いっぱい……！
デッサンしちゃおう",voice_303,[]
21004,"絵にも体力が
大切だけど……
腕立てできなくて",voice_3000,[]
21005,"球技大会の
ドッヂボールを
思い出すなあ",voice_3001,[]
22000,"お休みか～
お出かけもいいけど
絵が描きたいな",voice_312,[]
22001,"甘いものを
食べに行こうかな？",voice_313,[]
22002,"うう……貧血で
寝てたら
もうこんな時間に……",voice_3300,[]
22003,"たまには運動
しようかな……
同じ姿勢で疲れるし",voice_3301,[]
23000,"おはようございます。早起きですね、
私はまだ眠たいです……",voice_002,[]
23001,おやすみなさい,,[]
23002,いってきます,,[]
23003,ただいま戻りました♪,,[]
23004,おじゃまします,,[]
31000,"学生時代を
思い出すなあ……",voice_304,[]
31001,"あおっちとねねっちは
どんな風に
働いているんだろう",voice_305,[]
31002,"描きたいもの
まだまだたくさん
あるんだ",voice_3100,[]
31003,"知識があれば
見本がなくても
描けるんだよ",voice_3101,[]
32000,"うーん……
間に合うかなぁ",voice_308,[]
32001,"みんな
こんな遅くまで
働いてるの？",voice_309,[]
32002,"あおっちももう
先輩さん
なんだよね",voice_3200,[]
32003,"留学したことあるけど
異文化交流って
楽しいよね",voice_3201,[]
33000,素敵なものみたいです、やりましたね！,voice_200,[]
33001,"後であおっちとねねっちにも
見せてあげよう。",voice_201,[]
33002,なんだかいいもの見つけちゃいました！,voice_202,[]
33003,喜んでくれたら、がんばれちゃうな。,voice_203,[]
41000,じゃあ、行ってきます！,voice_009,[]
41001,えへへ、どうでしょうか,voice_010,[]
41002,わっ……どうしようかな……？,voice_011,[]
41000,"すみません
お願いしたい
ことがあって……",voice_012,[]
41000,"よかった！
ありがとうございます",voice_013,[]
51000,"星川ほたるです。あおっちとねねっちとは
高校からの大切な友達なんです。",voice_014,[]
51001,"焦らずに……
自分のペースでがんばろう。",voice_015,[]
51002,"体調管理に気をつけなくちゃ、
倒れたらみんなに怒られちゃう。",voice_016,[]
51003,"あんまり無理しちゃだめですよ、
ファイトです。",voice_017,[]
240001015,"このキャラの色塗りに
時間かかっちゃったな",voice_316,[]
240201013,"ええと……
たしかこのあたりに
資料が……",voice_317,[]
240101001,"適度に休憩も
忘れないように
しないと",voice_318,[]
240301001,"床で寝るとみんなが
心配しちゃうから
お布団で……",voice_319,[]
240501001,"これは何の花？
菜の花？
なんちゃって……",voice_320,[]
